// Jest Snapshot v1, https://goo.gl/fbAQLP

exports[`ManageAccountSettings Should work as expected 1`] = `
Array [
  <Header
    accessibilityLabel="My AccountsHeader"
    backgroundColor="#02152b"
    barStyle="light-content"
    centerComponent={[Function]}
    centerContainerStyle={
      Object {
        "justifyContent": "center",
        "marginTop": 6,
      }
    }
    containerStyle={
      Object {
        "borderBottomColor": "transparent",
      }
    }
    leftComponent={[Function]}
    leftContainerStyle={
      Object {
        "justifyContent": "center",
      }
    }
    rightComponent={[Function]}
    rightContainerStyle={
      Object {
        "justifyContent": "center",
      }
    }
    style={
      Array [
        Object {},
      ]
    }
    testID="My AccountsHeader"
    theme={
      Object {
        "FilterIcon": Object {
          "process": [Function],
        },
        "button": Object {
          "backgroundColor": Object {
            "disabled": "#45586D",
          },
          "textColor": Object {
            "disabled": "#748291",
          },
        },
        "calendar": Object {
          "defaultDateColor": "#09BAD0",
          "defaultDateColorWithOpacity": "rgba(9, 186, 208, 0.5)",
          "selectedDayTextColor": "#FFFFFF",
        },
        "card": Object {
          "availableBalance": "#A2BDDB",
          "backgroundColor": "#102c4b",
          "dividerBgColor": "#445870",
          "textColor": "#ffffff",
        },
        "carousel": Object {
          "indicatorColor": "#445870",
        },
        "circle": Object {
          "dashboardBgColor": "#153961",
          "overviewBgColor": "#153961",
        },
        "circularGraphBackground": "#02152B",
        "color": Object {
          "BACKGROUND_100": "#102C4B",
          "BACKGROUND_200": "#07203C",
          "BACKGROUND_300": "#02152B",
          "DISABLED_STATUS": "#45586D",
          "GREEN_STATUS": "#84D268",
          "HIGH_EMPHASIS": "#A2BDDB",
          "ORANGE_STATUS": "#FF8A00",
          "PRIMARY_DEFAULT": "#00539F",
          "PRIMARY_DISABLED": "#8DA0B2",
          "PRIMARY_PRESSED": "#004585",
          "RED_STATUS": "#F65A4C",
          "SECONDARY_DEFAULT": "#09BAD0",
          "SECONDARY_DISABLED": "#B4CDD0",
          "SECONDARY_PRESSED": "#08A2B5",
          "TEXT_100_HIGH": "#A2BDDB",
          "TEXT_200_MEDIUIM": "#51667C",
          "TEXT_300_HIGH": "#FFFFFF",
          "TEXT_300_LOW": "#445870",
          "YELLOW_STATUS": "#F9DE7D",
        },
        "customizeDashboard": Object {
          "customizeText": "#FFFFFF",
        },
        "dashboard": Object {
          "tabIcon": Object {
            "process": [Function],
          },
        },
        "defaultColor": "#09BAD0",
        "displayOptionsTooltip": Object {
          "divider": "#486485",
          "tooltip": "#18416E",
          "widgetHeaderIcon": " #2a69af",
        },
        "filterTransaction": Object {
          "calendarInputBorder": "#02152B",
          "divider": "#445870",
          "numberOfFiltersCircle": "#163E69",
          "placeholderText": "#445870",
        },
        "guidedTourTooltip": Object {
          "background": "#18416E",
        },
        "layout": Object {
          "backgroundColor": "#051931",
          "src": Object {
            "process": [Function],
          },
        },
        "logoSrc": Object {
          "process": [Function],
        },
        "mainTopMenuItems": Object {
          "color": "#ffffff",
        },
        "modal": Object {
          "backgroundColor": "#102C4B",
        },
        "passwordInput": Object {
          "mode": "dark",
          "src": Object {
            "process": [Function],
          },
        },
        "reminder": Object {
          "yellow": Object {
            "backgroundColor": "#F2EBC3",
            "borderColor": "#BDA726",
            "textColor": "#7E6F1B",
          },
        },
        "sidebar": Object {
          "headerBg": "#010E1D",
        },
        "skeletonPlaceholder": Object {
          "backgroundColor": "#486788",
          "highlightColor": "#f5f5f5",
        },
        "tab": Object {
          "activeTintColor": "#09BAD0",
          "backgroundColor": "#010E1D",
          "boxShadow": "0px -2px 32px #04172D",
        },
        "tabNavigator": Object {
          "borderBottomColor": "#445870",
        },
        "text": Object {
          "textColor": "#ffffff",
        },
        "textInput": Object {
          "backgroundColor": Object {
            "active": "#02152B",
            "correct": "#02152B",
            "default": "#02152b",
            "disabled": "#051931",
            "error": "#02152B",
            "filled": "#02152B",
          },
          "border": Object {
            "active": "1px solid #09BAD0",
            "correct": "1px solid #84D268",
            "default": "transparent",
            "disabled": "transparent",
            "error": "1px solid #F65A4C",
            "filled": "transparent",
          },
          "calendarActiveTint": "none",
          "dividerColor": "#445870",
          "helperTextColor": Object {
            "active": "#A2BDDB",
            "correct": "#A2BDDB",
            "default": "#A2BDDB",
            "disabled": "#A2BDDB",
            "error": "#F65A4C",
            "filled": "#A2BDDB",
          },
          "iconInputStatusImagesTint": "none",
          "placeholderTextColor": "#486485",
          "searchImageTint": "none",
          "textColor": "#ffffff",
        },
        "topAppBar": Object {
          "backgroundColor": "#02152b",
          "barStyle": "light-content",
          "iconColor": "#ffffff",
          "loading": "#030e1d",
          "textColor": "#ffffff",
        },
        "transaction": Object {
          "background": "#051931",
        },
      }
    }
  />,
  <View
    accessibilityIgnoresInvertColors={true}
    style={
      Array [
        Object {
          "flexBasis": 0,
          "flexGrow": 1,
          "flexShrink": 1,
          "paddingBottom": 32,
          "paddingLeft": 32,
          "paddingRight": 32,
          "paddingTop": 32,
          "resizeMode": "cover",
        },
      ]
    }
  >
    <Image
      padding={32}
      source={
        Object {
          "process": [Function],
        }
      }
      style={
        Array [
          Object {
            "bottom": 0,
            "left": 0,
            "position": "absolute",
            "right": 0,
            "top": 0,
          },
          Object {
            "height": undefined,
            "width": undefined,
          },
          undefined,
        ]
      }
    />
    <View
      style={
        Array [
          Object {
            "flexBasis": 0,
            "flexGrow": 1,
            "flexShrink": 1,
            "marginBottom": 160,
            "marginTop": 16,
          },
        ]
      }
    >
      <View
        style={
          Array [
            Object {
              "flexBasis": 0,
              "flexGrow": 1,
              "flexShrink": 1,
            },
          ]
        }
      >
        <View
          style={
            Array [
              Object {
                "flexBasis": 0,
                "flexGrow": 1,
                "flexShrink": 1,
              },
            ]
          }
        >
          <Text
            accessibilityLabel="manageAccountSettingsHeaderID"
            style={
              Array [
                Object {
                  "color": "#ffffff",
                  "fontFamily": "Myriad Pro",
                  "fontSize": 36,
                  "fontStyle": "normal",
                  "fontWeight": "normal",
                  "lineHeight": 43.5,
                },
              ]
            }
            testID="manageAccountSettingsHeaderID"
            theme={
              Object {
                "FilterIcon": Object {
                  "process": [Function],
                },
                "button": Object {
                  "backgroundColor": Object {
                    "disabled": "#45586D",
                  },
                  "textColor": Object {
                    "disabled": "#748291",
                  },
                },
                "calendar": Object {
                  "defaultDateColor": "#09BAD0",
                  "defaultDateColorWithOpacity": "rgba(9, 186, 208, 0.5)",
                  "selectedDayTextColor": "#FFFFFF",
                },
                "card": Object {
                  "availableBalance": "#A2BDDB",
                  "backgroundColor": "#102c4b",
                  "dividerBgColor": "#445870",
                  "textColor": "#ffffff",
                },
                "carousel": Object {
                  "indicatorColor": "#445870",
                },
                "circle": Object {
                  "dashboardBgColor": "#153961",
                  "overviewBgColor": "#153961",
                },
                "circularGraphBackground": "#02152B",
                "color": Object {
                  "BACKGROUND_100": "#102C4B",
                  "BACKGROUND_200": "#07203C",
                  "BACKGROUND_300": "#02152B",
                  "DISABLED_STATUS": "#45586D",
                  "GREEN_STATUS": "#84D268",
                  "HIGH_EMPHASIS": "#A2BDDB",
                  "ORANGE_STATUS": "#FF8A00",
                  "PRIMARY_DEFAULT": "#00539F",
                  "PRIMARY_DISABLED": "#8DA0B2",
                  "PRIMARY_PRESSED": "#004585",
                  "RED_STATUS": "#F65A4C",
                  "SECONDARY_DEFAULT": "#09BAD0",
                  "SECONDARY_DISABLED": "#B4CDD0",
                  "SECONDARY_PRESSED": "#08A2B5",
                  "TEXT_100_HIGH": "#A2BDDB",
                  "TEXT_200_MEDIUIM": "#51667C",
                  "TEXT_300_HIGH": "#FFFFFF",
                  "TEXT_300_LOW": "#445870",
                  "YELLOW_STATUS": "#F9DE7D",
                },
                "customizeDashboard": Object {
                  "customizeText": "#FFFFFF",
                },
                "dashboard": Object {
                  "tabIcon": Object {
                    "process": [Function],
                  },
                },
                "defaultColor": "#09BAD0",
                "displayOptionsTooltip": Object {
                  "divider": "#486485",
                  "tooltip": "#18416E",
                  "widgetHeaderIcon": " #2a69af",
                },
                "filterTransaction": Object {
                  "calendarInputBorder": "#02152B",
                  "divider": "#445870",
                  "numberOfFiltersCircle": "#163E69",
                  "placeholderText": "#445870",
                },
                "guidedTourTooltip": Object {
                  "background": "#18416E",
                },
                "layout": Object {
                  "backgroundColor": "#051931",
                  "src": Object {
                    "process": [Function],
                  },
                },
                "logoSrc": Object {
                  "process": [Function],
                },
                "mainTopMenuItems": Object {
                  "color": "#ffffff",
                },
                "modal": Object {
                  "backgroundColor": "#102C4B",
                },
                "passwordInput": Object {
                  "mode": "dark",
                  "src": Object {
                    "process": [Function],
                  },
                },
                "reminder": Object {
                  "yellow": Object {
                    "backgroundColor": "#F2EBC3",
                    "borderColor": "#BDA726",
                    "textColor": "#7E6F1B",
                  },
                },
                "sidebar": Object {
                  "headerBg": "#010E1D",
                },
                "skeletonPlaceholder": Object {
                  "backgroundColor": "#486788",
                  "highlightColor": "#f5f5f5",
                },
                "tab": Object {
                  "activeTintColor": "#09BAD0",
                  "backgroundColor": "#010E1D",
                  "boxShadow": "0px -2px 32px #04172D",
                },
                "tabNavigator": Object {
                  "borderBottomColor": "#445870",
                },
                "text": Object {
                  "textColor": "#ffffff",
                },
                "textInput": Object {
                  "backgroundColor": Object {
                    "active": "#02152B",
                    "correct": "#02152B",
                    "default": "#02152b",
                    "disabled": "#051931",
                    "error": "#02152B",
                    "filled": "#02152B",
                  },
                  "border": Object {
                    "active": "1px solid #09BAD0",
                    "correct": "1px solid #84D268",
                    "default": "transparent",
                    "disabled": "transparent",
                    "error": "1px solid #F65A4C",
                    "filled": "transparent",
                  },
                  "calendarActiveTint": "none",
                  "dividerColor": "#445870",
                  "helperTextColor": Object {
                    "active": "#A2BDDB",
                    "correct": "#A2BDDB",
                    "default": "#A2BDDB",
                    "disabled": "#A2BDDB",
                    "error": "#F65A4C",
                    "filled": "#A2BDDB",
                  },
                  "iconInputStatusImagesTint": "none",
                  "placeholderTextColor": "#486485",
                  "searchImageTint": "none",
                  "textColor": "#ffffff",
                },
                "topAppBar": Object {
                  "backgroundColor": "#02152b",
                  "barStyle": "light-content",
                  "iconColor": "#ffffff",
                  "loading": "#030e1d",
                  "textColor": "#ffffff",
                },
                "transaction": Object {
                  "background": "#051931",
                },
              }
            }
          >
            Account Settings
          </Text>
          <View
            style={
              Array [
                Object {
                  "marginTop": 16,
                },
              ]
            }
          >
            <Text
              accessibilityLabel="manageAccountSettingsLabelID"
              style={
                Array [
                  Object {
                    "color": "#ffffff",
                    "fontFamily": "Myriad Pro",
                    "fontSize": 22.5,
                    "fontStyle": "normal",
                    "fontWeight": "normal",
                    "lineHeight": 25.5,
                  },
                  Object {
                    "color": "#A2BDDB",
                  },
                ]
              }
              testID="manageAccountSettingsLabelID"
              theme={
                Object {
                  "FilterIcon": Object {
                    "process": [Function],
                  },
                  "button": Object {
                    "backgroundColor": Object {
                      "disabled": "#45586D",
                    },
                    "textColor": Object {
                      "disabled": "#748291",
                    },
                  },
                  "calendar": Object {
                    "defaultDateColor": "#09BAD0",
                    "defaultDateColorWithOpacity": "rgba(9, 186, 208, 0.5)",
                    "selectedDayTextColor": "#FFFFFF",
                  },
                  "card": Object {
                    "availableBalance": "#A2BDDB",
                    "backgroundColor": "#102c4b",
                    "dividerBgColor": "#445870",
                    "textColor": "#ffffff",
                  },
                  "carousel": Object {
                    "indicatorColor": "#445870",
                  },
                  "circle": Object {
                    "dashboardBgColor": "#153961",
                    "overviewBgColor": "#153961",
                  },
                  "circularGraphBackground": "#02152B",
                  "color": Object {
                    "BACKGROUND_100": "#102C4B",
                    "BACKGROUND_200": "#07203C",
                    "BACKGROUND_300": "#02152B",
                    "DISABLED_STATUS": "#45586D",
                    "GREEN_STATUS": "#84D268",
                    "HIGH_EMPHASIS": "#A2BDDB",
                    "ORANGE_STATUS": "#FF8A00",
                    "PRIMARY_DEFAULT": "#00539F",
                    "PRIMARY_DISABLED": "#8DA0B2",
                    "PRIMARY_PRESSED": "#004585",
                    "RED_STATUS": "#F65A4C",
                    "SECONDARY_DEFAULT": "#09BAD0",
                    "SECONDARY_DISABLED": "#B4CDD0",
                    "SECONDARY_PRESSED": "#08A2B5",
                    "TEXT_100_HIGH": "#A2BDDB",
                    "TEXT_200_MEDIUIM": "#51667C",
                    "TEXT_300_HIGH": "#FFFFFF",
                    "TEXT_300_LOW": "#445870",
                    "YELLOW_STATUS": "#F9DE7D",
                  },
                  "customizeDashboard": Object {
                    "customizeText": "#FFFFFF",
                  },
                  "dashboard": Object {
                    "tabIcon": Object {
                      "process": [Function],
                    },
                  },
                  "defaultColor": "#09BAD0",
                  "displayOptionsTooltip": Object {
                    "divider": "#486485",
                    "tooltip": "#18416E",
                    "widgetHeaderIcon": " #2a69af",
                  },
                  "filterTransaction": Object {
                    "calendarInputBorder": "#02152B",
                    "divider": "#445870",
                    "numberOfFiltersCircle": "#163E69",
                    "placeholderText": "#445870",
                  },
                  "guidedTourTooltip": Object {
                    "background": "#18416E",
                  },
                  "layout": Object {
                    "backgroundColor": "#051931",
                    "src": Object {
                      "process": [Function],
                    },
                  },
                  "logoSrc": Object {
                    "process": [Function],
                  },
                  "mainTopMenuItems": Object {
                    "color": "#ffffff",
                  },
                  "modal": Object {
                    "backgroundColor": "#102C4B",
                  },
                  "passwordInput": Object {
                    "mode": "dark",
                    "src": Object {
                      "process": [Function],
                    },
                  },
                  "reminder": Object {
                    "yellow": Object {
                      "backgroundColor": "#F2EBC3",
                      "borderColor": "#BDA726",
                      "textColor": "#7E6F1B",
                    },
                  },
                  "sidebar": Object {
                    "headerBg": "#010E1D",
                  },
                  "skeletonPlaceholder": Object {
                    "backgroundColor": "#486788",
                    "highlightColor": "#f5f5f5",
                  },
                  "tab": Object {
                    "activeTintColor": "#09BAD0",
                    "backgroundColor": "#010E1D",
                    "boxShadow": "0px -2px 32px #04172D",
                  },
                  "tabNavigator": Object {
                    "borderBottomColor": "#445870",
                  },
                  "text": Object {
                    "textColor": "#ffffff",
                  },
                  "textInput": Object {
                    "backgroundColor": Object {
                      "active": "#02152B",
                      "correct": "#02152B",
                      "default": "#02152b",
                      "disabled": "#051931",
                      "error": "#02152B",
                      "filled": "#02152B",
                    },
                    "border": Object {
                      "active": "1px solid #09BAD0",
                      "correct": "1px solid #84D268",
                      "default": "transparent",
                      "disabled": "transparent",
                      "error": "1px solid #F65A4C",
                      "filled": "transparent",
                    },
                    "calendarActiveTint": "none",
                    "dividerColor": "#445870",
                    "helperTextColor": Object {
                      "active": "#A2BDDB",
                      "correct": "#A2BDDB",
                      "default": "#A2BDDB",
                      "disabled": "#A2BDDB",
                      "error": "#F65A4C",
                      "filled": "#A2BDDB",
                    },
                    "iconInputStatusImagesTint": "none",
                    "placeholderTextColor": "#486485",
                    "searchImageTint": "none",
                    "textColor": "#ffffff",
                  },
                  "topAppBar": Object {
                    "backgroundColor": "#02152b",
                    "barStyle": "light-content",
                    "iconColor": "#ffffff",
                    "loading": "#030e1d",
                    "textColor": "#ffffff",
                  },
                  "transaction": Object {
                    "background": "#051931",
                  },
                }
              }
            >
              Customize how you want to use your account
            </Text>
          </View>
          <View
            accessibilityLabel="manageAccountSettingsUpperLine"
            marginVertical={16}
            style={
              Array [
                Object {
                  "backgroundColor": "#445870",
                  "height": 1.5,
                  "marginBottom": 32,
                  "marginLeft": 0,
                  "marginRight": 0,
                  "marginTop": 32,
                },
              ]
            }
            testID="manageAccountSettingsUpperLine"
            theme={
              Object {
                "FilterIcon": Object {
                  "process": [Function],
                },
                "button": Object {
                  "backgroundColor": Object {
                    "disabled": "#45586D",
                  },
                  "textColor": Object {
                    "disabled": "#748291",
                  },
                },
                "calendar": Object {
                  "defaultDateColor": "#09BAD0",
                  "defaultDateColorWithOpacity": "rgba(9, 186, 208, 0.5)",
                  "selectedDayTextColor": "#FFFFFF",
                },
                "card": Object {
                  "availableBalance": "#A2BDDB",
                  "backgroundColor": "#102c4b",
                  "dividerBgColor": "#445870",
                  "textColor": "#ffffff",
                },
                "carousel": Object {
                  "indicatorColor": "#445870",
                },
                "circle": Object {
                  "dashboardBgColor": "#153961",
                  "overviewBgColor": "#153961",
                },
                "circularGraphBackground": "#02152B",
                "color": Object {
                  "BACKGROUND_100": "#102C4B",
                  "BACKGROUND_200": "#07203C",
                  "BACKGROUND_300": "#02152B",
                  "DISABLED_STATUS": "#45586D",
                  "GREEN_STATUS": "#84D268",
                  "HIGH_EMPHASIS": "#A2BDDB",
                  "ORANGE_STATUS": "#FF8A00",
                  "PRIMARY_DEFAULT": "#00539F",
                  "PRIMARY_DISABLED": "#8DA0B2",
                  "PRIMARY_PRESSED": "#004585",
                  "RED_STATUS": "#F65A4C",
                  "SECONDARY_DEFAULT": "#09BAD0",
                  "SECONDARY_DISABLED": "#B4CDD0",
                  "SECONDARY_PRESSED": "#08A2B5",
                  "TEXT_100_HIGH": "#A2BDDB",
                  "TEXT_200_MEDIUIM": "#51667C",
                  "TEXT_300_HIGH": "#FFFFFF",
                  "TEXT_300_LOW": "#445870",
                  "YELLOW_STATUS": "#F9DE7D",
                },
                "customizeDashboard": Object {
                  "customizeText": "#FFFFFF",
                },
                "dashboard": Object {
                  "tabIcon": Object {
                    "process": [Function],
                  },
                },
                "defaultColor": "#09BAD0",
                "displayOptionsTooltip": Object {
                  "divider": "#486485",
                  "tooltip": "#18416E",
                  "widgetHeaderIcon": " #2a69af",
                },
                "filterTransaction": Object {
                  "calendarInputBorder": "#02152B",
                  "divider": "#445870",
                  "numberOfFiltersCircle": "#163E69",
                  "placeholderText": "#445870",
                },
                "guidedTourTooltip": Object {
                  "background": "#18416E",
                },
                "layout": Object {
                  "backgroundColor": "#051931",
                  "src": Object {
                    "process": [Function],
                  },
                },
                "logoSrc": Object {
                  "process": [Function],
                },
                "mainTopMenuItems": Object {
                  "color": "#ffffff",
                },
                "modal": Object {
                  "backgroundColor": "#102C4B",
                },
                "passwordInput": Object {
                  "mode": "dark",
                  "src": Object {
                    "process": [Function],
                  },
                },
                "reminder": Object {
                  "yellow": Object {
                    "backgroundColor": "#F2EBC3",
                    "borderColor": "#BDA726",
                    "textColor": "#7E6F1B",
                  },
                },
                "sidebar": Object {
                  "headerBg": "#010E1D",
                },
                "skeletonPlaceholder": Object {
                  "backgroundColor": "#486788",
                  "highlightColor": "#f5f5f5",
                },
                "tab": Object {
                  "activeTintColor": "#09BAD0",
                  "backgroundColor": "#010E1D",
                  "boxShadow": "0px -2px 32px #04172D",
                },
                "tabNavigator": Object {
                  "borderBottomColor": "#445870",
                },
                "text": Object {
                  "textColor": "#ffffff",
                },
                "textInput": Object {
                  "backgroundColor": Object {
                    "active": "#02152B",
                    "correct": "#02152B",
                    "default": "#02152b",
                    "disabled": "#051931",
                    "error": "#02152B",
                    "filled": "#02152B",
                  },
                  "border": Object {
                    "active": "1px solid #09BAD0",
                    "correct": "1px solid #84D268",
                    "default": "transparent",
                    "disabled": "transparent",
                    "error": "1px solid #F65A4C",
                    "filled": "transparent",
                  },
                  "calendarActiveTint": "none",
                  "dividerColor": "#445870",
                  "helperTextColor": Object {
                    "active": "#A2BDDB",
                    "correct": "#A2BDDB",
                    "default": "#A2BDDB",
                    "disabled": "#A2BDDB",
                    "error": "#F65A4C",
                    "filled": "#A2BDDB",
                  },
                  "iconInputStatusImagesTint": "none",
                  "placeholderTextColor": "#486485",
                  "searchImageTint": "none",
                  "textColor": "#ffffff",
                },
                "topAppBar": Object {
                  "backgroundColor": "#02152b",
                  "barStyle": "light-content",
                  "iconColor": "#ffffff",
                  "loading": "#030e1d",
                  "textColor": "#ffffff",
                },
                "transaction": Object {
                  "background": "#051931",
                },
              }
            }
          />
          <View
            style={
              Array [
                Object {
                  "alignItems": "center",
                  "flexDirection": "row",
                },
              ]
            }
          >
            <View
              style={
                Array [
                  Object {
                    "flexBasis": 0,
                    "flexGrow": 4,
                    "flexShrink": 1,
                  },
                ]
              }
            >
              <Text
                accessibilityLabel="manageAccountSettingsAliasLabel"
                style={
                  Array [
                    Object {
                      "color": "#ffffff",
                      "fontFamily": "Myriad Pro",
                      "fontSize": 27,
                      "fontStyle": "normal",
                      "fontWeight": "normal",
                      "lineHeight": 33,
                    },
                  ]
                }
                testID="manageAccountSettingsAliasLabel"
                theme={
                  Object {
                    "FilterIcon": Object {
                      "process": [Function],
                    },
                    "button": Object {
                      "backgroundColor": Object {
                        "disabled": "#45586D",
                      },
                      "textColor": Object {
                        "disabled": "#748291",
                      },
                    },
                    "calendar": Object {
                      "defaultDateColor": "#09BAD0",
                      "defaultDateColorWithOpacity": "rgba(9, 186, 208, 0.5)",
                      "selectedDayTextColor": "#FFFFFF",
                    },
                    "card": Object {
                      "availableBalance": "#A2BDDB",
                      "backgroundColor": "#102c4b",
                      "dividerBgColor": "#445870",
                      "textColor": "#ffffff",
                    },
                    "carousel": Object {
                      "indicatorColor": "#445870",
                    },
                    "circle": Object {
                      "dashboardBgColor": "#153961",
                      "overviewBgColor": "#153961",
                    },
                    "circularGraphBackground": "#02152B",
                    "color": Object {
                      "BACKGROUND_100": "#102C4B",
                      "BACKGROUND_200": "#07203C",
                      "BACKGROUND_300": "#02152B",
                      "DISABLED_STATUS": "#45586D",
                      "GREEN_STATUS": "#84D268",
                      "HIGH_EMPHASIS": "#A2BDDB",
                      "ORANGE_STATUS": "#FF8A00",
                      "PRIMARY_DEFAULT": "#00539F",
                      "PRIMARY_DISABLED": "#8DA0B2",
                      "PRIMARY_PRESSED": "#004585",
                      "RED_STATUS": "#F65A4C",
                      "SECONDARY_DEFAULT": "#09BAD0",
                      "SECONDARY_DISABLED": "#B4CDD0",
                      "SECONDARY_PRESSED": "#08A2B5",
                      "TEXT_100_HIGH": "#A2BDDB",
                      "TEXT_200_MEDIUIM": "#51667C",
                      "TEXT_300_HIGH": "#FFFFFF",
                      "TEXT_300_LOW": "#445870",
                      "YELLOW_STATUS": "#F9DE7D",
                    },
                    "customizeDashboard": Object {
                      "customizeText": "#FFFFFF",
                    },
                    "dashboard": Object {
                      "tabIcon": Object {
                        "process": [Function],
                      },
                    },
                    "defaultColor": "#09BAD0",
                    "displayOptionsTooltip": Object {
                      "divider": "#486485",
                      "tooltip": "#18416E",
                      "widgetHeaderIcon": " #2a69af",
                    },
                    "filterTransaction": Object {
                      "calendarInputBorder": "#02152B",
                      "divider": "#445870",
                      "numberOfFiltersCircle": "#163E69",
                      "placeholderText": "#445870",
                    },
                    "guidedTourTooltip": Object {
                      "background": "#18416E",
                    },
                    "layout": Object {
                      "backgroundColor": "#051931",
                      "src": Object {
                        "process": [Function],
                      },
                    },
                    "logoSrc": Object {
                      "process": [Function],
                    },
                    "mainTopMenuItems": Object {
                      "color": "#ffffff",
                    },
                    "modal": Object {
                      "backgroundColor": "#102C4B",
                    },
                    "passwordInput": Object {
                      "mode": "dark",
                      "src": Object {
                        "process": [Function],
                      },
                    },
                    "reminder": Object {
                      "yellow": Object {
                        "backgroundColor": "#F2EBC3",
                        "borderColor": "#BDA726",
                        "textColor": "#7E6F1B",
                      },
                    },
                    "sidebar": Object {
                      "headerBg": "#010E1D",
                    },
                    "skeletonPlaceholder": Object {
                      "backgroundColor": "#486788",
                      "highlightColor": "#f5f5f5",
                    },
                    "tab": Object {
                      "activeTintColor": "#09BAD0",
                      "backgroundColor": "#010E1D",
                      "boxShadow": "0px -2px 32px #04172D",
                    },
                    "tabNavigator": Object {
                      "borderBottomColor": "#445870",
                    },
                    "text": Object {
                      "textColor": "#ffffff",
                    },
                    "textInput": Object {
                      "backgroundColor": Object {
                        "active": "#02152B",
                        "correct": "#02152B",
                        "default": "#02152b",
                        "disabled": "#051931",
                        "error": "#02152B",
                        "filled": "#02152B",
                      },
                      "border": Object {
                        "active": "1px solid #09BAD0",
                        "correct": "1px solid #84D268",
                        "default": "transparent",
                        "disabled": "transparent",
                        "error": "1px solid #F65A4C",
                        "filled": "transparent",
                      },
                      "calendarActiveTint": "none",
                      "dividerColor": "#445870",
                      "helperTextColor": Object {
                        "active": "#A2BDDB",
                        "correct": "#A2BDDB",
                        "default": "#A2BDDB",
                        "disabled": "#A2BDDB",
                        "error": "#F65A4C",
                        "filled": "#A2BDDB",
                      },
                      "iconInputStatusImagesTint": "none",
                      "placeholderTextColor": "#486485",
                      "searchImageTint": "none",
                      "textColor": "#ffffff",
                    },
                    "topAppBar": Object {
                      "backgroundColor": "#02152b",
                      "barStyle": "light-content",
                      "iconColor": "#ffffff",
                      "loading": "#030e1d",
                      "textColor": "#ffffff",
                    },
                    "transaction": Object {
                      "background": "#051931",
                    },
                  }
                }
              >
                Alias
              </Text>
            </View>
            <View
              style={
                Array [
                  Object {
                    "alignItems": "center",
                    "flexBasis": 0,
                    "flexDirection": "row",
                    "flexGrow": 4,
                    "flexShrink": 1,
                    "justifyContent": "space-between",
                  },
                ]
              }
            >
              <View
                style={
                  Array [
                    Object {
                      "flexBasis": 0,
                      "flexGrow": 4,
                      "flexShrink": 1,
                    },
                  ]
                }
              >
                <Text
                  accessibilityLabel="manageAccountSettingsAliasValue"
                  numberOfLines={2}
                  style={
                    Array [
                      Object {
                        "color": "#ffffff",
                        "fontFamily": "Myriad Pro",
                        "fontSize": 27,
                        "fontStyle": "normal",
                        "fontWeight": "normal",
                        "lineHeight": 33,
                      },
                    ]
                  }
                  testID="manageAccountSettingsAliasValue"
                  theme={
                    Object {
                      "FilterIcon": Object {
                        "process": [Function],
                      },
                      "button": Object {
                        "backgroundColor": Object {
                          "disabled": "#45586D",
                        },
                        "textColor": Object {
                          "disabled": "#748291",
                        },
                      },
                      "calendar": Object {
                        "defaultDateColor": "#09BAD0",
                        "defaultDateColorWithOpacity": "rgba(9, 186, 208, 0.5)",
                        "selectedDayTextColor": "#FFFFFF",
                      },
                      "card": Object {
                        "availableBalance": "#A2BDDB",
                        "backgroundColor": "#102c4b",
                        "dividerBgColor": "#445870",
                        "textColor": "#ffffff",
                      },
                      "carousel": Object {
                        "indicatorColor": "#445870",
                      },
                      "circle": Object {
                        "dashboardBgColor": "#153961",
                        "overviewBgColor": "#153961",
                      },
                      "circularGraphBackground": "#02152B",
                      "color": Object {
                        "BACKGROUND_100": "#102C4B",
                        "BACKGROUND_200": "#07203C",
                        "BACKGROUND_300": "#02152B",
                        "DISABLED_STATUS": "#45586D",
                        "GREEN_STATUS": "#84D268",
                        "HIGH_EMPHASIS": "#A2BDDB",
                        "ORANGE_STATUS": "#FF8A00",
                        "PRIMARY_DEFAULT": "#00539F",
                        "PRIMARY_DISABLED": "#8DA0B2",
                        "PRIMARY_PRESSED": "#004585",
                        "RED_STATUS": "#F65A4C",
                        "SECONDARY_DEFAULT": "#09BAD0",
                        "SECONDARY_DISABLED": "#B4CDD0",
                        "SECONDARY_PRESSED": "#08A2B5",
                        "TEXT_100_HIGH": "#A2BDDB",
                        "TEXT_200_MEDIUIM": "#51667C",
                        "TEXT_300_HIGH": "#FFFFFF",
                        "TEXT_300_LOW": "#445870",
                        "YELLOW_STATUS": "#F9DE7D",
                      },
                      "customizeDashboard": Object {
                        "customizeText": "#FFFFFF",
                      },
                      "dashboard": Object {
                        "tabIcon": Object {
                          "process": [Function],
                        },
                      },
                      "defaultColor": "#09BAD0",
                      "displayOptionsTooltip": Object {
                        "divider": "#486485",
                        "tooltip": "#18416E",
                        "widgetHeaderIcon": " #2a69af",
                      },
                      "filterTransaction": Object {
                        "calendarInputBorder": "#02152B",
                        "divider": "#445870",
                        "numberOfFiltersCircle": "#163E69",
                        "placeholderText": "#445870",
                      },
                      "guidedTourTooltip": Object {
                        "background": "#18416E",
                      },
                      "layout": Object {
                        "backgroundColor": "#051931",
                        "src": Object {
                          "process": [Function],
                        },
                      },
                      "logoSrc": Object {
                        "process": [Function],
                      },
                      "mainTopMenuItems": Object {
                        "color": "#ffffff",
                      },
                      "modal": Object {
                        "backgroundColor": "#102C4B",
                      },
                      "passwordInput": Object {
                        "mode": "dark",
                        "src": Object {
                          "process": [Function],
                        },
                      },
                      "reminder": Object {
                        "yellow": Object {
                          "backgroundColor": "#F2EBC3",
                          "borderColor": "#BDA726",
                          "textColor": "#7E6F1B",
                        },
                      },
                      "sidebar": Object {
                        "headerBg": "#010E1D",
                      },
                      "skeletonPlaceholder": Object {
                        "backgroundColor": "#486788",
                        "highlightColor": "#f5f5f5",
                      },
                      "tab": Object {
                        "activeTintColor": "#09BAD0",
                        "backgroundColor": "#010E1D",
                        "boxShadow": "0px -2px 32px #04172D",
                      },
                      "tabNavigator": Object {
                        "borderBottomColor": "#445870",
                      },
                      "text": Object {
                        "textColor": "#ffffff",
                      },
                      "textInput": Object {
                        "backgroundColor": Object {
                          "active": "#02152B",
                          "correct": "#02152B",
                          "default": "#02152b",
                          "disabled": "#051931",
                          "error": "#02152B",
                          "filled": "#02152B",
                        },
                        "border": Object {
                          "active": "1px solid #09BAD0",
                          "correct": "1px solid #84D268",
                          "default": "transparent",
                          "disabled": "transparent",
                          "error": "1px solid #F65A4C",
                          "filled": "transparent",
                        },
                        "calendarActiveTint": "none",
                        "dividerColor": "#445870",
                        "helperTextColor": Object {
                          "active": "#A2BDDB",
                          "correct": "#A2BDDB",
                          "default": "#A2BDDB",
                          "disabled": "#A2BDDB",
                          "error": "#F65A4C",
                          "filled": "#A2BDDB",
                        },
                        "iconInputStatusImagesTint": "none",
                        "placeholderTextColor": "#486485",
                        "searchImageTint": "none",
                        "textColor": "#ffffff",
                      },
                      "topAppBar": Object {
                        "backgroundColor": "#02152b",
                        "barStyle": "light-content",
                        "iconColor": "#ffffff",
                        "loading": "#030e1d",
                        "textColor": "#ffffff",
                      },
                      "transaction": Object {
                        "background": "#051931",
                      },
                    }
                  }
                >
                  test
                </Text>
              </View>
              <View
                style={
                  Array [
                    Object {
                      "flexBasis": 0,
                      "flexGrow": 0.5,
                      "flexShrink": 1,
                    },
                  ]
                }
              />
              <View
                accessibilityLabel="manageAccountSettingsEditButtonTouch"
                accessible={true}
                focusable={true}
                onClick={[Function]}
                onResponderGrant={[Function]}
                onResponderMove={[Function]}
                onResponderRelease={[Function]}
                onResponderTerminate={[Function]}
                onResponderTerminationRequest={[Function]}
                onStartShouldSetResponder={[Function]}
                style={
                  Object {
                    "opacity": 1,
                  }
                }
                testID="manageAccountSettingsEditButtonTouch"
              >
                <Text
                  accessibilityLabel="manageAccountSettingsEditButton"
                  style={
                    Array [
                      Object {
                        "color": "#ffffff",
                        "fontFamily": "Myriad Pro",
                        "fontSize": 22.5,
                        "fontStyle": "normal",
                        "fontWeight": "normal",
                        "lineHeight": 25.5,
                      },
                      Object {
                        "color": "#09BAD0",
                      },
                    ]
                  }
                  testID="manageAccountSettingsEditButton"
                  theme={
                    Object {
                      "FilterIcon": Object {
                        "process": [Function],
                      },
                      "button": Object {
                        "backgroundColor": Object {
                          "disabled": "#45586D",
                        },
                        "textColor": Object {
                          "disabled": "#748291",
                        },
                      },
                      "calendar": Object {
                        "defaultDateColor": "#09BAD0",
                        "defaultDateColorWithOpacity": "rgba(9, 186, 208, 0.5)",
                        "selectedDayTextColor": "#FFFFFF",
                      },
                      "card": Object {
                        "availableBalance": "#A2BDDB",
                        "backgroundColor": "#102c4b",
                        "dividerBgColor": "#445870",
                        "textColor": "#ffffff",
                      },
                      "carousel": Object {
                        "indicatorColor": "#445870",
                      },
                      "circle": Object {
                        "dashboardBgColor": "#153961",
                        "overviewBgColor": "#153961",
                      },
                      "circularGraphBackground": "#02152B",
                      "color": Object {
                        "BACKGROUND_100": "#102C4B",
                        "BACKGROUND_200": "#07203C",
                        "BACKGROUND_300": "#02152B",
                        "DISABLED_STATUS": "#45586D",
                        "GREEN_STATUS": "#84D268",
                        "HIGH_EMPHASIS": "#A2BDDB",
                        "ORANGE_STATUS": "#FF8A00",
                        "PRIMARY_DEFAULT": "#00539F",
                        "PRIMARY_DISABLED": "#8DA0B2",
                        "PRIMARY_PRESSED": "#004585",
                        "RED_STATUS": "#F65A4C",
                        "SECONDARY_DEFAULT": "#09BAD0",
                        "SECONDARY_DISABLED": "#B4CDD0",
                        "SECONDARY_PRESSED": "#08A2B5",
                        "TEXT_100_HIGH": "#A2BDDB",
                        "TEXT_200_MEDIUIM": "#51667C",
                        "TEXT_300_HIGH": "#FFFFFF",
                        "TEXT_300_LOW": "#445870",
                        "YELLOW_STATUS": "#F9DE7D",
                      },
                      "customizeDashboard": Object {
                        "customizeText": "#FFFFFF",
                      },
                      "dashboard": Object {
                        "tabIcon": Object {
                          "process": [Function],
                        },
                      },
                      "defaultColor": "#09BAD0",
                      "displayOptionsTooltip": Object {
                        "divider": "#486485",
                        "tooltip": "#18416E",
                        "widgetHeaderIcon": " #2a69af",
                      },
                      "filterTransaction": Object {
                        "calendarInputBorder": "#02152B",
                        "divider": "#445870",
                        "numberOfFiltersCircle": "#163E69",
                        "placeholderText": "#445870",
                      },
                      "guidedTourTooltip": Object {
                        "background": "#18416E",
                      },
                      "layout": Object {
                        "backgroundColor": "#051931",
                        "src": Object {
                          "process": [Function],
                        },
                      },
                      "logoSrc": Object {
                        "process": [Function],
                      },
                      "mainTopMenuItems": Object {
                        "color": "#ffffff",
                      },
                      "modal": Object {
                        "backgroundColor": "#102C4B",
                      },
                      "passwordInput": Object {
                        "mode": "dark",
                        "src": Object {
                          "process": [Function],
                        },
                      },
                      "reminder": Object {
                        "yellow": Object {
                          "backgroundColor": "#F2EBC3",
                          "borderColor": "#BDA726",
                          "textColor": "#7E6F1B",
                        },
                      },
                      "sidebar": Object {
                        "headerBg": "#010E1D",
                      },
                      "skeletonPlaceholder": Object {
                        "backgroundColor": "#486788",
                        "highlightColor": "#f5f5f5",
                      },
                      "tab": Object {
                        "activeTintColor": "#09BAD0",
                        "backgroundColor": "#010E1D",
                        "boxShadow": "0px -2px 32px #04172D",
                      },
                      "tabNavigator": Object {
                        "borderBottomColor": "#445870",
                      },
                      "text": Object {
                        "textColor": "#ffffff",
                      },
                      "textInput": Object {
                        "backgroundColor": Object {
                          "active": "#02152B",
                          "correct": "#02152B",
                          "default": "#02152b",
                          "disabled": "#051931",
                          "error": "#02152B",
                          "filled": "#02152B",
                        },
                        "border": Object {
                          "active": "1px solid #09BAD0",
                          "correct": "1px solid #84D268",
                          "default": "transparent",
                          "disabled": "transparent",
                          "error": "1px solid #F65A4C",
                          "filled": "transparent",
                        },
                        "calendarActiveTint": "none",
                        "dividerColor": "#445870",
                        "helperTextColor": Object {
                          "active": "#A2BDDB",
                          "correct": "#A2BDDB",
                          "default": "#A2BDDB",
                          "disabled": "#A2BDDB",
                          "error": "#F65A4C",
                          "filled": "#A2BDDB",
                        },
                        "iconInputStatusImagesTint": "none",
                        "placeholderTextColor": "#486485",
                        "searchImageTint": "none",
                        "textColor": "#ffffff",
                      },
                      "topAppBar": Object {
                        "backgroundColor": "#02152b",
                        "barStyle": "light-content",
                        "iconColor": "#ffffff",
                        "loading": "#030e1d",
                        "textColor": "#ffffff",
                      },
                      "transaction": Object {
                        "background": "#051931",
                      },
                    }
                  }
                >
                  edit
                </Text>
              </View>
            </View>
          </View>
          <View
            accessibilityLabel="manageAccountSettingsLowerLine"
            marginVertical={16}
            style={
              Array [
                Object {
                  "backgroundColor": "#445870",
                  "height": 1.5,
                  "marginBottom": 32,
                  "marginLeft": 0,
                  "marginRight": 0,
                  "marginTop": 32,
                },
              ]
            }
            testID="manageAccountSettingsLowerLine"
            theme={
              Object {
                "FilterIcon": Object {
                  "process": [Function],
                },
                "button": Object {
                  "backgroundColor": Object {
                    "disabled": "#45586D",
                  },
                  "textColor": Object {
                    "disabled": "#748291",
                  },
                },
                "calendar": Object {
                  "defaultDateColor": "#09BAD0",
                  "defaultDateColorWithOpacity": "rgba(9, 186, 208, 0.5)",
                  "selectedDayTextColor": "#FFFFFF",
                },
                "card": Object {
                  "availableBalance": "#A2BDDB",
                  "backgroundColor": "#102c4b",
                  "dividerBgColor": "#445870",
                  "textColor": "#ffffff",
                },
                "carousel": Object {
                  "indicatorColor": "#445870",
                },
                "circle": Object {
                  "dashboardBgColor": "#153961",
                  "overviewBgColor": "#153961",
                },
                "circularGraphBackground": "#02152B",
                "color": Object {
                  "BACKGROUND_100": "#102C4B",
                  "BACKGROUND_200": "#07203C",
                  "BACKGROUND_300": "#02152B",
                  "DISABLED_STATUS": "#45586D",
                  "GREEN_STATUS": "#84D268",
                  "HIGH_EMPHASIS": "#A2BDDB",
                  "ORANGE_STATUS": "#FF8A00",
                  "PRIMARY_DEFAULT": "#00539F",
                  "PRIMARY_DISABLED": "#8DA0B2",
                  "PRIMARY_PRESSED": "#004585",
                  "RED_STATUS": "#F65A4C",
                  "SECONDARY_DEFAULT": "#09BAD0",
                  "SECONDARY_DISABLED": "#B4CDD0",
                  "SECONDARY_PRESSED": "#08A2B5",
                  "TEXT_100_HIGH": "#A2BDDB",
                  "TEXT_200_MEDIUIM": "#51667C",
                  "TEXT_300_HIGH": "#FFFFFF",
                  "TEXT_300_LOW": "#445870",
                  "YELLOW_STATUS": "#F9DE7D",
                },
                "customizeDashboard": Object {
                  "customizeText": "#FFFFFF",
                },
                "dashboard": Object {
                  "tabIcon": Object {
                    "process": [Function],
                  },
                },
                "defaultColor": "#09BAD0",
                "displayOptionsTooltip": Object {
                  "divider": "#486485",
                  "tooltip": "#18416E",
                  "widgetHeaderIcon": " #2a69af",
                },
                "filterTransaction": Object {
                  "calendarInputBorder": "#02152B",
                  "divider": "#445870",
                  "numberOfFiltersCircle": "#163E69",
                  "placeholderText": "#445870",
                },
                "guidedTourTooltip": Object {
                  "background": "#18416E",
                },
                "layout": Object {
                  "backgroundColor": "#051931",
                  "src": Object {
                    "process": [Function],
                  },
                },
                "logoSrc": Object {
                  "process": [Function],
                },
                "mainTopMenuItems": Object {
                  "color": "#ffffff",
                },
                "modal": Object {
                  "backgroundColor": "#102C4B",
                },
                "passwordInput": Object {
                  "mode": "dark",
                  "src": Object {
                    "process": [Function],
                  },
                },
                "reminder": Object {
                  "yellow": Object {
                    "backgroundColor": "#F2EBC3",
                    "borderColor": "#BDA726",
                    "textColor": "#7E6F1B",
                  },
                },
                "sidebar": Object {
                  "headerBg": "#010E1D",
                },
                "skeletonPlaceholder": Object {
                  "backgroundColor": "#486788",
                  "highlightColor": "#f5f5f5",
                },
                "tab": Object {
                  "activeTintColor": "#09BAD0",
                  "backgroundColor": "#010E1D",
                  "boxShadow": "0px -2px 32px #04172D",
                },
                "tabNavigator": Object {
                  "borderBottomColor": "#445870",
                },
                "text": Object {
                  "textColor": "#ffffff",
                },
                "textInput": Object {
                  "backgroundColor": Object {
                    "active": "#02152B",
                    "correct": "#02152B",
                    "default": "#02152b",
                    "disabled": "#051931",
                    "error": "#02152B",
                    "filled": "#02152B",
                  },
                  "border": Object {
                    "active": "1px solid #09BAD0",
                    "correct": "1px solid #84D268",
                    "default": "transparent",
                    "disabled": "transparent",
                    "error": "1px solid #F65A4C",
                    "filled": "transparent",
                  },
                  "calendarActiveTint": "none",
                  "dividerColor": "#445870",
                  "helperTextColor": Object {
                    "active": "#A2BDDB",
                    "correct": "#A2BDDB",
                    "default": "#A2BDDB",
                    "disabled": "#A2BDDB",
                    "error": "#F65A4C",
                    "filled": "#A2BDDB",
                  },
                  "iconInputStatusImagesTint": "none",
                  "placeholderTextColor": "#486485",
                  "searchImageTint": "none",
                  "textColor": "#ffffff",
                },
                "topAppBar": Object {
                  "backgroundColor": "#02152b",
                  "barStyle": "light-content",
                  "iconColor": "#ffffff",
                  "loading": "#030e1d",
                  "textColor": "#ffffff",
                },
                "transaction": Object {
                  "background": "#051931",
                },
              }
            }
          />
        </View>
        <View
          style={
            Array [
              Object {
                "alignItems": "center",
                "flexBasis": 0,
                "flexGrow": 1,
                "flexShrink": 1,
                "justifyContent": "flex-end",
              },
            ]
          }
        >
          <View
            accessibilityLabel="manageAccountSettingsDeleteButtonTouch"
            accessible={true}
            focusable={true}
            onClick={[Function]}
            onResponderGrant={[Function]}
            onResponderMove={[Function]}
            onResponderRelease={[Function]}
            onResponderTerminate={[Function]}
            onResponderTerminationRequest={[Function]}
            onStartShouldSetResponder={[Function]}
            style={
              Object {
                "opacity": 1,
              }
            }
            testID="manageAccountSettingsDeleteButtonTouch"
          >
            <Text
              accessibilityLabel="manageAccountSettingsDeleteButton"
              style={
                Array [
                  Object {
                    "color": "#ffffff",
                    "fontFamily": "MyriadPro-Semibold",
                    "fontSize": 24,
                    "fontStyle": "normal",
                    "fontWeight": "600",
                    "lineHeight": 28.5,
                  },
                ]
              }
              testID="manageAccountSettingsDeleteButton"
              theme={
                Object {
                  "FilterIcon": Object {
                    "process": [Function],
                  },
                  "button": Object {
                    "backgroundColor": Object {
                      "disabled": "#45586D",
                    },
                    "textColor": Object {
                      "disabled": "#748291",
                    },
                  },
                  "calendar": Object {
                    "defaultDateColor": "#09BAD0",
                    "defaultDateColorWithOpacity": "rgba(9, 186, 208, 0.5)",
                    "selectedDayTextColor": "#FFFFFF",
                  },
                  "card": Object {
                    "availableBalance": "#A2BDDB",
                    "backgroundColor": "#102c4b",
                    "dividerBgColor": "#445870",
                    "textColor": "#ffffff",
                  },
                  "carousel": Object {
                    "indicatorColor": "#445870",
                  },
                  "circle": Object {
                    "dashboardBgColor": "#153961",
                    "overviewBgColor": "#153961",
                  },
                  "circularGraphBackground": "#02152B",
                  "color": Object {
                    "BACKGROUND_100": "#102C4B",
                    "BACKGROUND_200": "#07203C",
                    "BACKGROUND_300": "#02152B",
                    "DISABLED_STATUS": "#45586D",
                    "GREEN_STATUS": "#84D268",
                    "HIGH_EMPHASIS": "#A2BDDB",
                    "ORANGE_STATUS": "#FF8A00",
                    "PRIMARY_DEFAULT": "#00539F",
                    "PRIMARY_DISABLED": "#8DA0B2",
                    "PRIMARY_PRESSED": "#004585",
                    "RED_STATUS": "#F65A4C",
                    "SECONDARY_DEFAULT": "#09BAD0",
                    "SECONDARY_DISABLED": "#B4CDD0",
                    "SECONDARY_PRESSED": "#08A2B5",
                    "TEXT_100_HIGH": "#A2BDDB",
                    "TEXT_200_MEDIUIM": "#51667C",
                    "TEXT_300_HIGH": "#FFFFFF",
                    "TEXT_300_LOW": "#445870",
                    "YELLOW_STATUS": "#F9DE7D",
                  },
                  "customizeDashboard": Object {
                    "customizeText": "#FFFFFF",
                  },
                  "dashboard": Object {
                    "tabIcon": Object {
                      "process": [Function],
                    },
                  },
                  "defaultColor": "#09BAD0",
                  "displayOptionsTooltip": Object {
                    "divider": "#486485",
                    "tooltip": "#18416E",
                    "widgetHeaderIcon": " #2a69af",
                  },
                  "filterTransaction": Object {
                    "calendarInputBorder": "#02152B",
                    "divider": "#445870",
                    "numberOfFiltersCircle": "#163E69",
                    "placeholderText": "#445870",
                  },
                  "guidedTourTooltip": Object {
                    "background": "#18416E",
                  },
                  "layout": Object {
                    "backgroundColor": "#051931",
                    "src": Object {
                      "process": [Function],
                    },
                  },
                  "logoSrc": Object {
                    "process": [Function],
                  },
                  "mainTopMenuItems": Object {
                    "color": "#ffffff",
                  },
                  "modal": Object {
                    "backgroundColor": "#102C4B",
                  },
                  "passwordInput": Object {
                    "mode": "dark",
                    "src": Object {
                      "process": [Function],
                    },
                  },
                  "reminder": Object {
                    "yellow": Object {
                      "backgroundColor": "#F2EBC3",
                      "borderColor": "#BDA726",
                      "textColor": "#7E6F1B",
                    },
                  },
                  "sidebar": Object {
                    "headerBg": "#010E1D",
                  },
                  "skeletonPlaceholder": Object {
                    "backgroundColor": "#486788",
                    "highlightColor": "#f5f5f5",
                  },
                  "tab": Object {
                    "activeTintColor": "#09BAD0",
                    "backgroundColor": "#010E1D",
                    "boxShadow": "0px -2px 32px #04172D",
                  },
                  "tabNavigator": Object {
                    "borderBottomColor": "#445870",
                  },
                  "text": Object {
                    "textColor": "#ffffff",
                  },
                  "textInput": Object {
                    "backgroundColor": Object {
                      "active": "#02152B",
                      "correct": "#02152B",
                      "default": "#02152b",
                      "disabled": "#051931",
                      "error": "#02152B",
                      "filled": "#02152B",
                    },
                    "border": Object {
                      "active": "1px solid #09BAD0",
                      "correct": "1px solid #84D268",
                      "default": "transparent",
                      "disabled": "transparent",
                      "error": "1px solid #F65A4C",
                      "filled": "transparent",
                    },
                    "calendarActiveTint": "none",
                    "dividerColor": "#445870",
                    "helperTextColor": Object {
                      "active": "#A2BDDB",
                      "correct": "#A2BDDB",
                      "default": "#A2BDDB",
                      "disabled": "#A2BDDB",
                      "error": "#F65A4C",
                      "filled": "#A2BDDB",
                    },
                    "iconInputStatusImagesTint": "none",
                    "placeholderTextColor": "#486485",
                    "searchImageTint": "none",
                    "textColor": "#ffffff",
                  },
                  "topAppBar": Object {
                    "backgroundColor": "#02152b",
                    "barStyle": "light-content",
                    "iconColor": "#ffffff",
                    "loading": "#030e1d",
                    "textColor": "#ffffff",
                  },
                  "transaction": Object {
                    "background": "#051931",
                  },
                }
              }
            >
              Delete Account
            </Text>
          </View>
        </View>
      </View>
    </View>
    <View
      style={
        Object {
          "backgroundColor": "rgba(0, 0, 0, 0)",
          "bottom": 50,
          "height": 0,
          "left": 0,
          "overflow": "hidden",
          "position": "absolute",
          "right": 0,
          "zIndex": 9999,
        }
      }
    >
      <View
        onLayout={[Function]}
        style={
          Object {
            "alignItems": "center",
            "backgroundColor": "#97D7B2",
            "borderColor": "#126E39",
            "borderRadius": 4,
            "borderWidth": 1,
            "bottom": -9999,
            "flexDirection": "row",
            "justifyContent": "space-between",
            "left": 0,
            "marginHorizontal": 32,
            "position": "absolute",
            "right": 0,
          }
        }
      >
        <View
          style={
            Array [
              Object {
                "alignItems": "center",
                "flexBasis": 0,
                "flexDirection": "row",
                "flexGrow": 1,
                "flexShrink": 1,
                "paddingBottom": 20,
                "paddingLeft": 0,
                "paddingRight": 0,
                "paddingTop": 24,
              },
            ]
          }
        >
          <Image
            resizeMode="contain"
            source={
              Object {
                "process": [Function],
              }
            }
            style={
              Array [
                Object {
                  "height": 24,
                  "marginLeft": 24,
                  "marginRight": 12,
                  "width": 32,
                },
              ]
            }
          />
          <View
            style={
              Array [
                Object {
                  "marginRight": 80,
                },
              ]
            }
          >
            <Text
              customColor="#166437"
              style={
                Array [
                  Object {
                    "color": "#166437",
                    "fontFamily": "Myriad Pro",
                    "fontSize": 22.5,
                    "fontStyle": "normal",
                    "fontWeight": "normal",
                    "lineHeight": 25.5,
                  },
                ]
              }
            >
              test
            </Text>
          </View>
        </View>
      </View>
    </View>
  </View>,
]
`;
