// Jest Snapshot v1, https://goo.gl/fbAQLP

exports[`Layout Should work as expected false 1`] = `
<View
  accessibilityIgnoresInvertColors={true}
  style={
    Array [
      Object {
        "flexBasis": 0,
        "flexGrow": 1,
        "flexShrink": 1,
        "paddingBottom": 0,
        "paddingLeft": 0,
        "paddingRight": 0,
        "paddingTop": 0,
        "resizeMode": "cover",
      },
    ]
  }
>
  <Image
    padded={false}
    padding={0}
    source={
      Object {
        "process": [Function],
      }
    }
    style={
      Array [
        Object {
          "bottom": 0,
          "left": 0,
          "position": "absolute",
          "right": 0,
          "top": 0,
        },
        Object {
          "height": undefined,
          "width": undefined,
        },
        undefined,
      ]
    }
    theme={
      Object {
        "FilterIcon": Object {
          "process": [Function],
        },
        "activityLog": Object {
          "date": "#A2BDDB",
        },
        "button": Object {
          "backgroundColor": Object {
            "disabled": "#45586D",
          },
          "textColor": Object {
            "disabled": "#748291",
          },
        },
        "calendar": Object {
          "defaultDateColor": "#09BAD0",
          "defaultDateColorWithOpacity": "rgba(9, 186, 208, 0.5)",
          "iconActiveBgColor": "#09BAD0",
          "iconInActiveBgColor": "#445870",
          "selectedDayTextColor": "#FFFFFF",
          "todayTextColor": "#ffffff",
        },
        "card": Object {
          "availableBalance": "#A2BDDB",
          "backgroundColor": "#102c4b",
          "dividerBgColor": "#445870",
          "textColor": "#ffffff",
        },
        "carousel": Object {
          "indicatorColor": "#445870",
        },
        "circle": Object {
          "dashboardBgColor": "#153961",
          "overviewBgColor": "#153961",
        },
        "circleBackground": "#153961",
        "circularGraphBackground": "#02152B",
        "color": Object {
          "BACKGROUND_100": "#102C4B",
          "BACKGROUND_200": "#07203C",
          "BACKGROUND_300": "#02152B",
          "CANCEL_BUTTON": "#E9E9E9",
          "DISABLED_STATUS": "#45586D",
          "GREEN_STATUS": "#84D268",
          "HIGH_EMPHASIS": "#A2BDDB",
          "ORANGE_STATUS": "#FF8A00",
          "PRIMARY_DEFAULT": "#00539F",
          "PRIMARY_DISABLED": "#8DA0B2",
          "PRIMARY_PRESSED": "#004585",
          "RED_STATUS": "#F65A4C",
          "SECONDARY_DEFAULT": "#09BAD0",
          "SECONDARY_DISABLED": "#B4CDD0",
          "SECONDARY_PRESSED": "#08A2B5",
          "TEXT_100_HIGH": "#A2BDDB",
          "TEXT_200_MEDIUIM": "#51667C",
          "TEXT_300_HIGH": "#FFFFFF",
          "TEXT_300_LOW": "#445870",
          "YELLOW_STATUS": "#F9DE7D",
        },
        "customizeDashboard": Object {
          "customizeText": "#FFFFFF",
        },
        "dashboard": Object {
          "tabIcon": Object {
            "process": [Function],
          },
        },
        "defaultColor": "#09BAD0",
        "deviceIcon": "#FFFFFF",
        "displayOptionsTooltip": Object {
          "divider": "#486485",
          "tooltip": "#18416E",
          "widgetHeaderIcon": " #2a69af",
        },
        "filterTransaction": Object {
          "calendarInputBorder": "#02152B",
          "cancelButton": "#FFFFFF",
          "divider": "#445870",
          "numberOfFiltersCircle": "#163E69",
          "placeholderText": "#445870",
        },
        "guidedTourTooltip": Object {
          "background": "#18416E",
        },
        "layout": Object {
          "backgroundColor": "#051931",
          "src": Object {
            "process": [Function],
          },
        },
        "logoSrc": Object {
          "process": [Function],
        },
        "mainTopMenuItems": Object {
          "color": "#ffffff",
          "notification": Object {
            "process": [Function],
          },
        },
        "modal": Object {
          "backgroundColor": "#07203C",
        },
        "otherActions": Object {
          "bank": Object {
            "process": [Function],
          },
          "chevronUp": "#A2BDDB",
          "containerBackground": "#102C4B",
          "contentContainerBackground": "#214369",
          "location": Object {
            "process": [Function],
          },
          "qr": Object {
            "process": [Function],
          },
        },
        "passwordInput": Object {
          "mode": "dark",
          "src": Object {
            "process": [Function],
          },
        },
        "reminder": Object {
          "yellow": Object {
            "backgroundColor": "#F2EBC3",
            "borderColor": "#BDA726",
            "textColor": "#7E6F1B",
          },
        },
        "sectionHeader": "#445870",
        "sidebar": Object {
          "headerBg": "#010E1D",
        },
        "skeletonPlaceholder": Object {
          "backgroundColor": "#486788",
          "highlightColor": "#f5f5f5",
        },
        "tab": Object {
          "activeTintColor": "#09BAD0",
          "backgroundColor": "#010E1D",
          "bottomActiveTintColor": "#ffffff",
          "bottomInactiveTintColor": "rgba(255, 255, 255, 0.3)",
          "boxShadow": "0px -2px 32px #04172D",
        },
        "tabNavigator": Object {
          "borderBottomColor": "#445870",
        },
        "text": Object {
          "textColor": "#ffffff",
          "textEmphasis": "#445870",
        },
        "textInput": Object {
          "backgroundColor": Object {
            "active": "#02152B",
            "correct": "#02152B",
            "default": "#02152b",
            "disabled": "#051931",
            "error": "#02152B",
            "filled": "#02152B",
          },
          "border": Object {
            "active": "#09BAD0",
            "correct": "#84D268",
            "default": "transparent",
            "disabled": "transparent",
            "error": "#F65A4C",
            "filled": "transparent",
          },
          "calendarActiveTint": "none",
          "dividerColor": "#445870",
          "helperTextColor": Object {
            "active": "#A2BDDB",
            "correct": "#A2BDDB",
            "default": "#A2BDDB",
            "disabled": "#A2BDDB",
            "error": "#F65A4C",
            "filled": "#A2BDDB",
          },
          "iconColor": Object {
            "clear": "#FFFFFF",
            "search": "#FFFFFF",
          },
          "iconInputStatusImagesTint": "none",
          "password": Object {
            "process": [Function],
          },
          "placeholderTextColor": "#486485",
          "searchImageTint": "none",
          "textColor": "#ffffff",
          "username": Object {
            "process": [Function],
          },
        },
        "topAppBar": Object {
          "backgroundColor": "#02152b",
          "barStyle": "light-content",
          "iconColor": "#ffffff",
          "loading": "#030e1d",
          "textColor": "#ffffff",
        },
        "transaction": Object {
          "background": "#051931",
          "dividerColor": "#445870",
        },
        "trasactionList": Object {
          "background": "#163E69",
        },
      }
    }
  />
</View>
`;

exports[`Layout Should work as expected true 1`] = `
<View
  style={
    Array [
      Object {
        "flexBasis": 0,
        "flexGrow": 1,
        "flexShrink": 1,
      },
    ]
  }
/>
`;
