// Jest Snapshot v1, https://goo.gl/fbAQLP

exports[`ActivateCardList Should work as expected 1`] = `
<View
  accessibilityIgnoresInvertColors={true}
  style={
    Array [
      Object {
        "flexBasis": 0,
        "flexGrow": 1,
        "flexShrink": 1,
        "paddingBottom": 0,
        "paddingLeft": 0,
        "paddingRight": 0,
        "paddingTop": 0,
        "resizeMode": "cover",
      },
    ]
  }
>
  <Image
    padding={0}
    source={
      Object {
        "process": [Function],
      }
    }
    style={
      Array [
        Object {
          "bottom": 0,
          "left": 0,
          "position": "absolute",
          "right": 0,
          "top": 0,
        },
        Object {
          "height": undefined,
          "width": undefined,
        },
        undefined,
      ]
    }
  />
  <View
    style={
      Array [
        Object {
          "flexBasis": 0,
          "flexGrow": 1,
          "flexShrink": 1,
          "paddingHorizontal": 60,
        },
      ]
    }
  >
    <RCTScrollView
      ItemSeparatorComponent={[Function]}
      ListEmptyComponent={[Function]}
      ListHeaderComponent={
        Object {
          "$$typeof": Symbol(react.forward_ref),
          "attrs": Array [
            [Function],
          ],
          "displayName": "Styled(Text)",
          "inlineStyle": InlineStyle {
            "rules": Array [
              "
  margin-top: ",
              "60",
              "px;
",
            ],
          },
          "render": [Function],
          "shouldForwardProp": undefined,
          "styledComponentId": "StyledNativeComponent",
          "target": [Function],
          "withComponent": [Function],
        }
      }
      data={Array []}
      disableVirtualization={false}
      getItem={[Function]}
      getItemCount={[Function]}
      horizontal={false}
      initialNumToRender={10}
      keyExtractor={[Function]}
      maxToRenderPerBatch={10}
      onContentSizeChange={[Function]}
      onEndReachedThreshold={2}
      onLayout={[Function]}
      onMomentumScrollEnd={[Function]}
      onRefresh={[Function]}
      onScroll={[Function]}
      onScrollBeginDrag={[Function]}
      onScrollEndDrag={[Function]}
      refreshControl={
        <RefreshControlMock
          onRefresh={[Function]}
          refreshing={false}
        />
      }
      refreshing={false}
      removeClippedSubviews={false}
      renderItem={[Function]}
      scrollEventThrottle={50}
      stickyHeaderIndices={Array []}
      updateCellsBatchingPeriod={50}
      viewabilityConfigCallbackPairs={Array []}
      windowSize={21}
    >
      <RCTRefreshControl />
      <View>
        <View
          onLayout={[Function]}
        >
          <Text
            customColor="#51667C"
            style={
              Array [
                Object {
                  "color": "#51667C",
                  "fontFamily": "Myriad Pro",
                  "fontSize": 18,
                  "fontStyle": "normal",
                  "fontWeight": "bold",
                  "letterSpacing": 2.769231,
                  "lineHeight": 21,
                  "textTransform": "uppercase",
                },
                Object {
                  "marginTop": 60,
                },
              ]
            }
          >
            CREDIT CARDS
          </Text>
        </View>
        <View>
          <View
            marginVertical={20}
            style={
              Array [
                Object {
                  "backgroundColor": "#445870",
                  "height": 1.5,
                  "marginBottom": 40,
                  "marginLeft": 0,
                  "marginRight": 0,
                  "marginTop": 40,
                },
              ]
            }
          />
          <View
            style={
              Array [
                Object {
                  "alignItems": "center",
                  "marginTop": 30,
                },
              ]
            }
          >
            <Text
              customColor="#51667C"
              style={
                Array [
                  Object {
                    "color": "#51667C",
                    "fontFamily": "Myriad Pro",
                    "fontSize": 27,
                    "fontStyle": "normal",
                    "fontWeight": "normal",
                    "lineHeight": 33,
                  },
                  Object {},
                ]
              }
            >
              There are no inactive
            </Text>
            <Text
              customColor="#51667C"
              style={
                Array [
                  Object {
                    "color": "#51667C",
                    "fontFamily": "Myriad Pro",
                    "fontSize": 27,
                    "fontStyle": "normal",
                    "fontWeight": "normal",
                    "lineHeight": 33,
                  },
                  Object {},
                ]
              }
            >
              CREDIT cards
            </Text>
          </View>
        </View>
      </View>
    </RCTScrollView>
  </View>
</View>
`;
