// Jest Snapshot v1, https://goo.gl/fbAQLP

exports[`ConfirmDetails Should work as expected 1`] = `
Array [
  <View>
    <View
      style={
        Array [
          Object {
            "alignItems": "center",
            "display": "flex",
            "flexDirection": "row",
            "paddingLeft": 0,
          },
        ]
      }
    >
      <View
        flex={3}
        style={
          Array [
            Object {
              "display": "flex",
              "flexBasis": 0,
              "flexGrow": 3,
              "flexShrink": 1,
              "marginLeft": 0,
            },
          ]
        }
      >
        <Text
          small={false}
          style={
            Array [
              Object {
                "color": "#A2BDDB",
                "fontFamily": "MyriadPro-Semibold",
                "fontSize": 15,
                "fontStyle": "normal",
                "fontWeight": "bold",
                "letterSpacing": 2.769231,
                "lineHeight": 18,
                "textTransform": "uppercase",
              },
              Object {
                "color": "#A2BDDB",
                "flexBasis": 0,
                "flexGrow": 2,
                "flexShrink": 1,
                "fontSize": 18,
                "letterSpacing": 0.85,
                "marginRight": 40,
              },
            ]
          }
          themeColor="TEXT_100_HIGH"
        >
          transfer from
        </Text>
      </View>
      <View
        flex={5}
        style={
          Array [
            Object {
              "display": "flex",
              "flexBasis": 0,
              "flexGrow": 5,
              "flexShrink": 1,
              "marginLeft": 0,
            },
          ]
        }
      >
        <Text
          style={
            Array [
              Object {
                "color": "#ffffff",
                "fontFamily": "Myriad Pro",
                "fontSize": 27,
                "fontStyle": "normal",
                "fontWeight": "normal",
                "lineHeight": 33,
              },
            ]
          }
        >
          
        </Text>
        <Text
          accessibilityLabel="BTReviewScreenTransferFromValueNumber"
          style={
            Array [
              Object {
                "color": "#A2BDDB",
                "fontFamily": "MyriadPro-Semibold",
                "fontSize": 18,
                "fontStyle": "normal",
                "fontWeight": "600",
                "lineHeight": 22.5,
              },
              Object {
                "fontFamily": "MyriadPro-Semibold",
                "fontWeight": "600",
              },
            ]
          }
          testID="BTReviewScreenTransferFromValueNumber"
          theme={
            Object {
              "FilterIcon": Object {
                "process": [Function],
              },
              "button": Object {
                "backgroundColor": Object {
                  "disabled": "#45586D",
                },
                "textColor": Object {
                  "disabled": "#748291",
                },
              },
              "calendar": Object {
                "defaultDateColor": "#09BAD0",
                "defaultDateColorWithOpacity": "rgba(9, 186, 208, 0.5)",
                "selectedDayTextColor": "#FFFFFF",
              },
              "card": Object {
                "availableBalance": "#A2BDDB",
                "backgroundColor": "#102c4b",
                "dividerBgColor": "#445870",
                "textColor": "#ffffff",
              },
              "carousel": Object {
                "indicatorColor": "#445870",
              },
              "circle": Object {
                "dashboardBgColor": "#153961",
                "overviewBgColor": "#153961",
              },
              "circularGraphBackground": "#02152B",
              "color": Object {
                "BACKGROUND_100": "#102C4B",
                "BACKGROUND_200": "#07203C",
                "BACKGROUND_300": "#02152B",
                "DISABLED_STATUS": "#45586D",
                "GREEN_STATUS": "#84D268",
                "HIGH_EMPHASIS": "#A2BDDB",
                "ORANGE_STATUS": "#FF8A00",
                "PRIMARY_DEFAULT": "#00539F",
                "PRIMARY_DISABLED": "#8DA0B2",
                "PRIMARY_PRESSED": "#004585",
                "RED_STATUS": "#F65A4C",
                "SECONDARY_DEFAULT": "#09BAD0",
                "SECONDARY_DISABLED": "#B4CDD0",
                "SECONDARY_PRESSED": "#08A2B5",
                "TEXT_100_HIGH": "#A2BDDB",
                "TEXT_200_MEDIUIM": "#51667C",
                "TEXT_300_HIGH": "#FFFFFF",
                "TEXT_300_LOW": "#445870",
                "YELLOW_STATUS": "#F9DE7D",
              },
              "customizeDashboard": Object {
                "customizeText": "#FFFFFF",
              },
              "dashboard": Object {
                "tabIcon": Object {
                  "process": [Function],
                },
              },
              "defaultColor": "#09BAD0",
              "displayOptionsTooltip": Object {
                "divider": "#486485",
                "tooltip": "#18416E",
                "widgetHeaderIcon": " #2a69af",
              },
              "filterTransaction": Object {
                "calendarInputBorder": "#02152B",
                "divider": "#445870",
                "numberOfFiltersCircle": "#163E69",
                "placeholderText": "#445870",
              },
              "guidedTourTooltip": Object {
                "background": "#18416E",
              },
              "layout": Object {
                "backgroundColor": "#051931",
                "src": Object {
                  "process": [Function],
                },
              },
              "logoSrc": Object {
                "process": [Function],
              },
              "mainTopMenuItems": Object {
                "color": "#ffffff",
              },
              "modal": Object {
                "backgroundColor": "#102C4B",
              },
              "passwordInput": Object {
                "mode": "dark",
                "src": Object {
                  "process": [Function],
                },
              },
              "reminder": Object {
                "yellow": Object {
                  "backgroundColor": "#F2EBC3",
                  "borderColor": "#BDA726",
                  "textColor": "#7E6F1B",
                },
              },
              "sidebar": Object {
                "headerBg": "#010E1D",
              },
              "skeletonPlaceholder": Object {
                "backgroundColor": "#486788",
                "highlightColor": "#f5f5f5",
              },
              "tab": Object {
                "activeTintColor": "#09BAD0",
                "backgroundColor": "#010E1D",
                "boxShadow": "0px -2px 32px #04172D",
              },
              "tabNavigator": Object {
                "borderBottomColor": "#445870",
              },
              "text": Object {
                "textColor": "#ffffff",
              },
              "textInput": Object {
                "backgroundColor": Object {
                  "active": "#02152B",
                  "correct": "#02152B",
                  "default": "#02152b",
                  "disabled": "#051931",
                  "error": "#02152B",
                  "filled": "#02152B",
                },
                "border": Object {
                  "active": "1px solid #09BAD0",
                  "correct": "1px solid #84D268",
                  "default": "transparent",
                  "disabled": "transparent",
                  "error": "1px solid #F65A4C",
                  "filled": "transparent",
                },
                "calendarActiveTint": "none",
                "dividerColor": "#445870",
                "helperTextColor": Object {
                  "active": "#A2BDDB",
                  "correct": "#A2BDDB",
                  "default": "#A2BDDB",
                  "disabled": "#A2BDDB",
                  "error": "#F65A4C",
                  "filled": "#A2BDDB",
                },
                "iconInputStatusImagesTint": "none",
                "placeholderTextColor": "#486485",
                "searchImageTint": "none",
                "textColor": "#ffffff",
              },
              "topAppBar": Object {
                "backgroundColor": "#02152b",
                "barStyle": "light-content",
                "iconColor": "#ffffff",
                "loading": "#030e1d",
                "textColor": "#ffffff",
              },
              "transaction": Object {
                "background": "#051931",
              },
            }
          }
          themeColor="TEXT_100_HIGH"
        >
          **** **** **** 0000
        </Text>
      </View>
    </View>
    <View
      space={12}
      style={
        Array [
          Object {
            "paddingBottom": 24,
          },
        ]
      }
    />
    <View
      style={
        Array [
          Object {
            "alignItems": "center",
            "display": "flex",
            "flexDirection": "row",
            "paddingLeft": 0,
          },
        ]
      }
    >
      <View
        flex={3}
        style={
          Array [
            Object {
              "display": "flex",
              "flexBasis": 0,
              "flexGrow": 3,
              "flexShrink": 1,
              "marginLeft": 0,
            },
          ]
        }
      >
        <Text
          small={false}
          style={
            Array [
              Object {
                "color": "#A2BDDB",
                "fontFamily": "MyriadPro-Semibold",
                "fontSize": 15,
                "fontStyle": "normal",
                "fontWeight": "bold",
                "letterSpacing": 2.769231,
                "lineHeight": 18,
                "textTransform": "uppercase",
              },
              Object {
                "color": "#A2BDDB",
                "flexBasis": 0,
                "flexGrow": 2,
                "flexShrink": 1,
                "fontSize": 18,
                "letterSpacing": 0.85,
                "marginRight": 40,
              },
            ]
          }
          themeColor="TEXT_100_HIGH"
        >
          transfer to
        </Text>
      </View>
      <View
        flex={5}
        style={
          Array [
            Object {
              "display": "flex",
              "flexBasis": 0,
              "flexGrow": 5,
              "flexShrink": 1,
              "marginLeft": 0,
            },
          ]
        }
      >
        <Text
          style={
            Array [
              Object {
                "color": "#ffffff",
                "fontFamily": "Myriad Pro",
                "fontSize": 27,
                "fontStyle": "normal",
                "fontWeight": "normal",
                "lineHeight": 33,
              },
            ]
          }
        >
          
        </Text>
        <Text
          accessibilityLabel="BTReviewScreenTransferFromValueNumber"
          style={
            Array [
              Object {
                "color": "#A2BDDB",
                "fontFamily": "MyriadPro-Semibold",
                "fontSize": 18,
                "fontStyle": "normal",
                "fontWeight": "600",
                "lineHeight": 22.5,
              },
              Object {
                "fontFamily": "MyriadPro-Semibold",
                "fontWeight": "600",
              },
            ]
          }
          testID="BTReviewScreenTransferFromValueNumber"
          theme={
            Object {
              "FilterIcon": Object {
                "process": [Function],
              },
              "button": Object {
                "backgroundColor": Object {
                  "disabled": "#45586D",
                },
                "textColor": Object {
                  "disabled": "#748291",
                },
              },
              "calendar": Object {
                "defaultDateColor": "#09BAD0",
                "defaultDateColorWithOpacity": "rgba(9, 186, 208, 0.5)",
                "selectedDayTextColor": "#FFFFFF",
              },
              "card": Object {
                "availableBalance": "#A2BDDB",
                "backgroundColor": "#102c4b",
                "dividerBgColor": "#445870",
                "textColor": "#ffffff",
              },
              "carousel": Object {
                "indicatorColor": "#445870",
              },
              "circle": Object {
                "dashboardBgColor": "#153961",
                "overviewBgColor": "#153961",
              },
              "circularGraphBackground": "#02152B",
              "color": Object {
                "BACKGROUND_100": "#102C4B",
                "BACKGROUND_200": "#07203C",
                "BACKGROUND_300": "#02152B",
                "DISABLED_STATUS": "#45586D",
                "GREEN_STATUS": "#84D268",
                "HIGH_EMPHASIS": "#A2BDDB",
                "ORANGE_STATUS": "#FF8A00",
                "PRIMARY_DEFAULT": "#00539F",
                "PRIMARY_DISABLED": "#8DA0B2",
                "PRIMARY_PRESSED": "#004585",
                "RED_STATUS": "#F65A4C",
                "SECONDARY_DEFAULT": "#09BAD0",
                "SECONDARY_DISABLED": "#B4CDD0",
                "SECONDARY_PRESSED": "#08A2B5",
                "TEXT_100_HIGH": "#A2BDDB",
                "TEXT_200_MEDIUIM": "#51667C",
                "TEXT_300_HIGH": "#FFFFFF",
                "TEXT_300_LOW": "#445870",
                "YELLOW_STATUS": "#F9DE7D",
              },
              "customizeDashboard": Object {
                "customizeText": "#FFFFFF",
              },
              "dashboard": Object {
                "tabIcon": Object {
                  "process": [Function],
                },
              },
              "defaultColor": "#09BAD0",
              "displayOptionsTooltip": Object {
                "divider": "#486485",
                "tooltip": "#18416E",
                "widgetHeaderIcon": " #2a69af",
              },
              "filterTransaction": Object {
                "calendarInputBorder": "#02152B",
                "divider": "#445870",
                "numberOfFiltersCircle": "#163E69",
                "placeholderText": "#445870",
              },
              "guidedTourTooltip": Object {
                "background": "#18416E",
              },
              "layout": Object {
                "backgroundColor": "#051931",
                "src": Object {
                  "process": [Function],
                },
              },
              "logoSrc": Object {
                "process": [Function],
              },
              "mainTopMenuItems": Object {
                "color": "#ffffff",
              },
              "modal": Object {
                "backgroundColor": "#102C4B",
              },
              "passwordInput": Object {
                "mode": "dark",
                "src": Object {
                  "process": [Function],
                },
              },
              "reminder": Object {
                "yellow": Object {
                  "backgroundColor": "#F2EBC3",
                  "borderColor": "#BDA726",
                  "textColor": "#7E6F1B",
                },
              },
              "sidebar": Object {
                "headerBg": "#010E1D",
              },
              "skeletonPlaceholder": Object {
                "backgroundColor": "#486788",
                "highlightColor": "#f5f5f5",
              },
              "tab": Object {
                "activeTintColor": "#09BAD0",
                "backgroundColor": "#010E1D",
                "boxShadow": "0px -2px 32px #04172D",
              },
              "tabNavigator": Object {
                "borderBottomColor": "#445870",
              },
              "text": Object {
                "textColor": "#ffffff",
              },
              "textInput": Object {
                "backgroundColor": Object {
                  "active": "#02152B",
                  "correct": "#02152B",
                  "default": "#02152b",
                  "disabled": "#051931",
                  "error": "#02152B",
                  "filled": "#02152B",
                },
                "border": Object {
                  "active": "1px solid #09BAD0",
                  "correct": "1px solid #84D268",
                  "default": "transparent",
                  "disabled": "transparent",
                  "error": "1px solid #F65A4C",
                  "filled": "transparent",
                },
                "calendarActiveTint": "none",
                "dividerColor": "#445870",
                "helperTextColor": Object {
                  "active": "#A2BDDB",
                  "correct": "#A2BDDB",
                  "default": "#A2BDDB",
                  "disabled": "#A2BDDB",
                  "error": "#F65A4C",
                  "filled": "#A2BDDB",
                },
                "iconInputStatusImagesTint": "none",
                "placeholderTextColor": "#486485",
                "searchImageTint": "none",
                "textColor": "#ffffff",
              },
              "topAppBar": Object {
                "backgroundColor": "#02152b",
                "barStyle": "light-content",
                "iconColor": "#ffffff",
                "loading": "#030e1d",
                "textColor": "#ffffff",
              },
              "transaction": Object {
                "background": "#051931",
              },
            }
          }
          themeColor="TEXT_100_HIGH"
        >
          **** **** **** 0000
        </Text>
      </View>
    </View>
    <View
      accessibilityLabel="BTReviewScreenDivider1"
      style={
        Array [
          Object {
            "backgroundColor": "#445870",
            "height": 2,
            "marginBottom": 16,
            "marginLeft": 0,
            "marginRight": 0,
            "marginTop": 16,
          },
        ]
      }
      testID="BTReviewScreenDivider1"
      theme={
        Object {
          "FilterIcon": Object {
            "process": [Function],
          },
          "button": Object {
            "backgroundColor": Object {
              "disabled": "#45586D",
            },
            "textColor": Object {
              "disabled": "#748291",
            },
          },
          "calendar": Object {
            "defaultDateColor": "#09BAD0",
            "defaultDateColorWithOpacity": "rgba(9, 186, 208, 0.5)",
            "selectedDayTextColor": "#FFFFFF",
          },
          "card": Object {
            "availableBalance": "#A2BDDB",
            "backgroundColor": "#102c4b",
            "dividerBgColor": "#445870",
            "textColor": "#ffffff",
          },
          "carousel": Object {
            "indicatorColor": "#445870",
          },
          "circle": Object {
            "dashboardBgColor": "#153961",
            "overviewBgColor": "#153961",
          },
          "circularGraphBackground": "#02152B",
          "color": Object {
            "BACKGROUND_100": "#102C4B",
            "BACKGROUND_200": "#07203C",
            "BACKGROUND_300": "#02152B",
            "DISABLED_STATUS": "#45586D",
            "GREEN_STATUS": "#84D268",
            "HIGH_EMPHASIS": "#A2BDDB",
            "ORANGE_STATUS": "#FF8A00",
            "PRIMARY_DEFAULT": "#00539F",
            "PRIMARY_DISABLED": "#8DA0B2",
            "PRIMARY_PRESSED": "#004585",
            "RED_STATUS": "#F65A4C",
            "SECONDARY_DEFAULT": "#09BAD0",
            "SECONDARY_DISABLED": "#B4CDD0",
            "SECONDARY_PRESSED": "#08A2B5",
            "TEXT_100_HIGH": "#A2BDDB",
            "TEXT_200_MEDIUIM": "#51667C",
            "TEXT_300_HIGH": "#FFFFFF",
            "TEXT_300_LOW": "#445870",
            "YELLOW_STATUS": "#F9DE7D",
          },
          "customizeDashboard": Object {
            "customizeText": "#FFFFFF",
          },
          "dashboard": Object {
            "tabIcon": Object {
              "process": [Function],
            },
          },
          "defaultColor": "#09BAD0",
          "displayOptionsTooltip": Object {
            "divider": "#486485",
            "tooltip": "#18416E",
            "widgetHeaderIcon": " #2a69af",
          },
          "filterTransaction": Object {
            "calendarInputBorder": "#02152B",
            "divider": "#445870",
            "numberOfFiltersCircle": "#163E69",
            "placeholderText": "#445870",
          },
          "guidedTourTooltip": Object {
            "background": "#18416E",
          },
          "layout": Object {
            "backgroundColor": "#051931",
            "src": Object {
              "process": [Function],
            },
          },
          "logoSrc": Object {
            "process": [Function],
          },
          "mainTopMenuItems": Object {
            "color": "#ffffff",
          },
          "modal": Object {
            "backgroundColor": "#102C4B",
          },
          "passwordInput": Object {
            "mode": "dark",
            "src": Object {
              "process": [Function],
            },
          },
          "reminder": Object {
            "yellow": Object {
              "backgroundColor": "#F2EBC3",
              "borderColor": "#BDA726",
              "textColor": "#7E6F1B",
            },
          },
          "sidebar": Object {
            "headerBg": "#010E1D",
          },
          "skeletonPlaceholder": Object {
            "backgroundColor": "#486788",
            "highlightColor": "#f5f5f5",
          },
          "tab": Object {
            "activeTintColor": "#09BAD0",
            "backgroundColor": "#010E1D",
            "boxShadow": "0px -2px 32px #04172D",
          },
          "tabNavigator": Object {
            "borderBottomColor": "#445870",
          },
          "text": Object {
            "textColor": "#ffffff",
          },
          "textInput": Object {
            "backgroundColor": Object {
              "active": "#02152B",
              "correct": "#02152B",
              "default": "#02152b",
              "disabled": "#051931",
              "error": "#02152B",
              "filled": "#02152B",
            },
            "border": Object {
              "active": "1px solid #09BAD0",
              "correct": "1px solid #84D268",
              "default": "transparent",
              "disabled": "transparent",
              "error": "1px solid #F65A4C",
              "filled": "transparent",
            },
            "calendarActiveTint": "none",
            "dividerColor": "#445870",
            "helperTextColor": Object {
              "active": "#A2BDDB",
              "correct": "#A2BDDB",
              "default": "#A2BDDB",
              "disabled": "#A2BDDB",
              "error": "#F65A4C",
              "filled": "#A2BDDB",
            },
            "iconInputStatusImagesTint": "none",
            "placeholderTextColor": "#486485",
            "searchImageTint": "none",
            "textColor": "#ffffff",
          },
          "topAppBar": Object {
            "backgroundColor": "#02152b",
            "barStyle": "light-content",
            "iconColor": "#ffffff",
            "loading": "#030e1d",
            "textColor": "#ffffff",
          },
          "transaction": Object {
            "background": "#051931",
          },
        }
      }
    />
    <View
      style={
        Array [
          Object {
            "alignItems": "center",
            "display": "flex",
            "flexDirection": "row",
            "marginBottom": 16,
            "marginTop": 16,
          },
        ]
      }
    >
      <Text
        accessibilityLabel="BTReviewScreenPrincipalAmountLabel"
        style={
          Array [
            Object {
              "color": "#ffffff",
              "fontFamily": "MyriadPro-Semibold",
              "fontSize": 15,
              "fontStyle": "normal",
              "fontWeight": "bold",
              "letterSpacing": 2.769231,
              "lineHeight": 18,
              "textTransform": "uppercase",
            },
            Object {
              "color": "#A2BDDB",
              "flexBasis": 0,
              "flexGrow": 2,
              "flexShrink": 1,
              "fontSize": 18,
              "letterSpacing": 0.85,
              "marginRight": 40,
            },
          ]
        }
        testID="BTReviewScreenPrincipalAmountLabel"
      >
        principal amount
      </Text>
      <View
        style={
          Array [
            Object {
              "alignItems": "flex-start",
              "flexBasis": 0,
              "flexGrow": 4,
              "flexShrink": 1,
              "marginLeft": "auto",
            },
          ]
        }
      >
        <Text
          accessibilityLabel="BTReviewScreenPrincipalAmountValue"
          style={
            Array [
              Object {
                "color": "#ffffff",
                "fontFamily": "Myriad Pro",
                "fontSize": 22.5,
                "fontStyle": "normal",
                "fontWeight": "normal",
                "lineHeight": 25.5,
              },
              Object {
                "color": "#A2BDDB",
                "flexBasis": 0,
                "flexGrow": 2,
                "flexShrink": 1,
                "fontSize": 18,
                "letterSpacing": 0.85,
                "marginRight": 20,
              },
            ]
          }
          testID="BTReviewScreenPrincipalAmountValue"
        >
          <Text
            accessibilityLabel="BTReviewScreenPrincipalAmount"
            style={
              Array [
                Object {
                  "color": "#ffffff",
                  "fontFamily": "Myriad Pro",
                  "fontSize": 27,
                  "fontStyle": "normal",
                  "fontWeight": "normal",
                  "lineHeight": 33,
                },
              ]
            }
            testID="BTReviewScreenPrincipalAmount"
            theme={
              Object {
                "FilterIcon": Object {
                  "process": [Function],
                },
                "button": Object {
                  "backgroundColor": Object {
                    "disabled": "#45586D",
                  },
                  "textColor": Object {
                    "disabled": "#748291",
                  },
                },
                "calendar": Object {
                  "defaultDateColor": "#09BAD0",
                  "defaultDateColorWithOpacity": "rgba(9, 186, 208, 0.5)",
                  "selectedDayTextColor": "#FFFFFF",
                },
                "card": Object {
                  "availableBalance": "#A2BDDB",
                  "backgroundColor": "#102c4b",
                  "dividerBgColor": "#445870",
                  "textColor": "#ffffff",
                },
                "carousel": Object {
                  "indicatorColor": "#445870",
                },
                "circle": Object {
                  "dashboardBgColor": "#153961",
                  "overviewBgColor": "#153961",
                },
                "circularGraphBackground": "#02152B",
                "color": Object {
                  "BACKGROUND_100": "#102C4B",
                  "BACKGROUND_200": "#07203C",
                  "BACKGROUND_300": "#02152B",
                  "DISABLED_STATUS": "#45586D",
                  "GREEN_STATUS": "#84D268",
                  "HIGH_EMPHASIS": "#A2BDDB",
                  "ORANGE_STATUS": "#FF8A00",
                  "PRIMARY_DEFAULT": "#00539F",
                  "PRIMARY_DISABLED": "#8DA0B2",
                  "PRIMARY_PRESSED": "#004585",
                  "RED_STATUS": "#F65A4C",
                  "SECONDARY_DEFAULT": "#09BAD0",
                  "SECONDARY_DISABLED": "#B4CDD0",
                  "SECONDARY_PRESSED": "#08A2B5",
                  "TEXT_100_HIGH": "#A2BDDB",
                  "TEXT_200_MEDIUIM": "#51667C",
                  "TEXT_300_HIGH": "#FFFFFF",
                  "TEXT_300_LOW": "#445870",
                  "YELLOW_STATUS": "#F9DE7D",
                },
                "customizeDashboard": Object {
                  "customizeText": "#FFFFFF",
                },
                "dashboard": Object {
                  "tabIcon": Object {
                    "process": [Function],
                  },
                },
                "defaultColor": "#09BAD0",
                "displayOptionsTooltip": Object {
                  "divider": "#486485",
                  "tooltip": "#18416E",
                  "widgetHeaderIcon": " #2a69af",
                },
                "filterTransaction": Object {
                  "calendarInputBorder": "#02152B",
                  "divider": "#445870",
                  "numberOfFiltersCircle": "#163E69",
                  "placeholderText": "#445870",
                },
                "guidedTourTooltip": Object {
                  "background": "#18416E",
                },
                "layout": Object {
                  "backgroundColor": "#051931",
                  "src": Object {
                    "process": [Function],
                  },
                },
                "logoSrc": Object {
                  "process": [Function],
                },
                "mainTopMenuItems": Object {
                  "color": "#ffffff",
                },
                "modal": Object {
                  "backgroundColor": "#102C4B",
                },
                "passwordInput": Object {
                  "mode": "dark",
                  "src": Object {
                    "process": [Function],
                  },
                },
                "reminder": Object {
                  "yellow": Object {
                    "backgroundColor": "#F2EBC3",
                    "borderColor": "#BDA726",
                    "textColor": "#7E6F1B",
                  },
                },
                "sidebar": Object {
                  "headerBg": "#010E1D",
                },
                "skeletonPlaceholder": Object {
                  "backgroundColor": "#486788",
                  "highlightColor": "#f5f5f5",
                },
                "tab": Object {
                  "activeTintColor": "#09BAD0",
                  "backgroundColor": "#010E1D",
                  "boxShadow": "0px -2px 32px #04172D",
                },
                "tabNavigator": Object {
                  "borderBottomColor": "#445870",
                },
                "text": Object {
                  "textColor": "#ffffff",
                },
                "textInput": Object {
                  "backgroundColor": Object {
                    "active": "#02152B",
                    "correct": "#02152B",
                    "default": "#02152b",
                    "disabled": "#051931",
                    "error": "#02152B",
                    "filled": "#02152B",
                  },
                  "border": Object {
                    "active": "1px solid #09BAD0",
                    "correct": "1px solid #84D268",
                    "default": "transparent",
                    "disabled": "transparent",
                    "error": "1px solid #F65A4C",
                    "filled": "transparent",
                  },
                  "calendarActiveTint": "none",
                  "dividerColor": "#445870",
                  "helperTextColor": Object {
                    "active": "#A2BDDB",
                    "correct": "#A2BDDB",
                    "default": "#A2BDDB",
                    "disabled": "#A2BDDB",
                    "error": "#F65A4C",
                    "filled": "#A2BDDB",
                  },
                  "iconInputStatusImagesTint": "none",
                  "placeholderTextColor": "#486485",
                  "searchImageTint": "none",
                  "textColor": "#ffffff",
                },
                "topAppBar": Object {
                  "backgroundColor": "#02152b",
                  "barStyle": "light-content",
                  "iconColor": "#ffffff",
                  "loading": "#030e1d",
                  "textColor": "#ffffff",
                },
                "transaction": Object {
                  "background": "#051931",
                },
              }
            }
          >
            PHP .00
          </Text>
        </Text>
      </View>
    </View>
    <View
      style={
        Array [
          Object {
            "alignItems": "center",
            "display": "flex",
            "flexDirection": "row",
            "marginBottom": 16,
            "marginTop": 16,
          },
        ]
      }
    >
      <Text
        accessibilityLabel="BTReviewScreenMonthlyAmortizationLabel"
        style={
          Array [
            Object {
              "color": "#ffffff",
              "fontFamily": "MyriadPro-Semibold",
              "fontSize": 15,
              "fontStyle": "normal",
              "fontWeight": "bold",
              "letterSpacing": 2.769231,
              "lineHeight": 18,
              "textTransform": "uppercase",
            },
            Object {
              "color": "#A2BDDB",
              "flexBasis": 0,
              "flexGrow": 2,
              "flexShrink": 1,
              "fontSize": 18,
              "letterSpacing": 0.85,
              "marginRight": 40,
            },
          ]
        }
        testID="BTReviewScreenMonthlyAmortizationLabel"
      >
        monthly amortization
      </Text>
      <View
        style={
          Array [
            Object {
              "alignItems": "flex-start",
              "flexBasis": 0,
              "flexGrow": 4,
              "flexShrink": 1,
              "marginLeft": "auto",
            },
          ]
        }
      >
        <Text
          accessibilityLabel="BTReviewScreenMonthlyAmortizationValue"
          style={
            Array [
              Object {
                "color": "#ffffff",
                "fontFamily": "Myriad Pro",
                "fontSize": 22.5,
                "fontStyle": "normal",
                "fontWeight": "normal",
                "lineHeight": 25.5,
              },
              Object {
                "color": "#A2BDDB",
                "flexBasis": 0,
                "flexGrow": 2,
                "flexShrink": 1,
                "fontSize": 18,
                "letterSpacing": 0.85,
                "marginRight": 20,
              },
            ]
          }
          testID="BTReviewScreenMonthlyAmortizationValue"
        >
          <Text
            accessibilityLabel="BTReviewScreenMonthlyAmortization"
            style={
              Array [
                Object {
                  "color": "#ffffff",
                  "fontFamily": "Myriad Pro",
                  "fontSize": 27,
                  "fontStyle": "normal",
                  "fontWeight": "normal",
                  "lineHeight": 33,
                },
              ]
            }
            testID="BTReviewScreenMonthlyAmortization"
            theme={
              Object {
                "FilterIcon": Object {
                  "process": [Function],
                },
                "button": Object {
                  "backgroundColor": Object {
                    "disabled": "#45586D",
                  },
                  "textColor": Object {
                    "disabled": "#748291",
                  },
                },
                "calendar": Object {
                  "defaultDateColor": "#09BAD0",
                  "defaultDateColorWithOpacity": "rgba(9, 186, 208, 0.5)",
                  "selectedDayTextColor": "#FFFFFF",
                },
                "card": Object {
                  "availableBalance": "#A2BDDB",
                  "backgroundColor": "#102c4b",
                  "dividerBgColor": "#445870",
                  "textColor": "#ffffff",
                },
                "carousel": Object {
                  "indicatorColor": "#445870",
                },
                "circle": Object {
                  "dashboardBgColor": "#153961",
                  "overviewBgColor": "#153961",
                },
                "circularGraphBackground": "#02152B",
                "color": Object {
                  "BACKGROUND_100": "#102C4B",
                  "BACKGROUND_200": "#07203C",
                  "BACKGROUND_300": "#02152B",
                  "DISABLED_STATUS": "#45586D",
                  "GREEN_STATUS": "#84D268",
                  "HIGH_EMPHASIS": "#A2BDDB",
                  "ORANGE_STATUS": "#FF8A00",
                  "PRIMARY_DEFAULT": "#00539F",
                  "PRIMARY_DISABLED": "#8DA0B2",
                  "PRIMARY_PRESSED": "#004585",
                  "RED_STATUS": "#F65A4C",
                  "SECONDARY_DEFAULT": "#09BAD0",
                  "SECONDARY_DISABLED": "#B4CDD0",
                  "SECONDARY_PRESSED": "#08A2B5",
                  "TEXT_100_HIGH": "#A2BDDB",
                  "TEXT_200_MEDIUIM": "#51667C",
                  "TEXT_300_HIGH": "#FFFFFF",
                  "TEXT_300_LOW": "#445870",
                  "YELLOW_STATUS": "#F9DE7D",
                },
                "customizeDashboard": Object {
                  "customizeText": "#FFFFFF",
                },
                "dashboard": Object {
                  "tabIcon": Object {
                    "process": [Function],
                  },
                },
                "defaultColor": "#09BAD0",
                "displayOptionsTooltip": Object {
                  "divider": "#486485",
                  "tooltip": "#18416E",
                  "widgetHeaderIcon": " #2a69af",
                },
                "filterTransaction": Object {
                  "calendarInputBorder": "#02152B",
                  "divider": "#445870",
                  "numberOfFiltersCircle": "#163E69",
                  "placeholderText": "#445870",
                },
                "guidedTourTooltip": Object {
                  "background": "#18416E",
                },
                "layout": Object {
                  "backgroundColor": "#051931",
                  "src": Object {
                    "process": [Function],
                  },
                },
                "logoSrc": Object {
                  "process": [Function],
                },
                "mainTopMenuItems": Object {
                  "color": "#ffffff",
                },
                "modal": Object {
                  "backgroundColor": "#102C4B",
                },
                "passwordInput": Object {
                  "mode": "dark",
                  "src": Object {
                    "process": [Function],
                  },
                },
                "reminder": Object {
                  "yellow": Object {
                    "backgroundColor": "#F2EBC3",
                    "borderColor": "#BDA726",
                    "textColor": "#7E6F1B",
                  },
                },
                "sidebar": Object {
                  "headerBg": "#010E1D",
                },
                "skeletonPlaceholder": Object {
                  "backgroundColor": "#486788",
                  "highlightColor": "#f5f5f5",
                },
                "tab": Object {
                  "activeTintColor": "#09BAD0",
                  "backgroundColor": "#010E1D",
                  "boxShadow": "0px -2px 32px #04172D",
                },
                "tabNavigator": Object {
                  "borderBottomColor": "#445870",
                },
                "text": Object {
                  "textColor": "#ffffff",
                },
                "textInput": Object {
                  "backgroundColor": Object {
                    "active": "#02152B",
                    "correct": "#02152B",
                    "default": "#02152b",
                    "disabled": "#051931",
                    "error": "#02152B",
                    "filled": "#02152B",
                  },
                  "border": Object {
                    "active": "1px solid #09BAD0",
                    "correct": "1px solid #84D268",
                    "default": "transparent",
                    "disabled": "transparent",
                    "error": "1px solid #F65A4C",
                    "filled": "transparent",
                  },
                  "calendarActiveTint": "none",
                  "dividerColor": "#445870",
                  "helperTextColor": Object {
                    "active": "#A2BDDB",
                    "correct": "#A2BDDB",
                    "default": "#A2BDDB",
                    "disabled": "#A2BDDB",
                    "error": "#F65A4C",
                    "filled": "#A2BDDB",
                  },
                  "iconInputStatusImagesTint": "none",
                  "placeholderTextColor": "#486485",
                  "searchImageTint": "none",
                  "textColor": "#ffffff",
                },
                "topAppBar": Object {
                  "backgroundColor": "#02152b",
                  "barStyle": "light-content",
                  "iconColor": "#ffffff",
                  "loading": "#030e1d",
                  "textColor": "#ffffff",
                },
                "transaction": Object {
                  "background": "#051931",
                },
              }
            }
          >
            PHP .00
          </Text>
        </Text>
      </View>
    </View>
    <View
      style={
        Array [
          Object {
            "alignItems": "center",
            "display": "flex",
            "flexDirection": "row",
            "marginBottom": 16,
            "marginTop": 16,
          },
        ]
      }
    >
      <Text
        accessibilityLabel="BTReviewScreenInterestRateLabel"
        style={
          Array [
            Object {
              "color": "#ffffff",
              "fontFamily": "MyriadPro-Semibold",
              "fontSize": 15,
              "fontStyle": "normal",
              "fontWeight": "bold",
              "letterSpacing": 2.769231,
              "lineHeight": 18,
              "textTransform": "uppercase",
            },
            Object {
              "color": "#A2BDDB",
              "flexBasis": 0,
              "flexGrow": 2,
              "flexShrink": 1,
              "fontSize": 18,
              "letterSpacing": 0.85,
              "marginRight": 40,
            },
          ]
        }
        testID="BTReviewScreenInterestRateLabel"
      >
        monthly add-on rate
      </Text>
      <View
        style={
          Array [
            Object {
              "alignItems": "flex-start",
              "flexBasis": 0,
              "flexGrow": 4,
              "flexShrink": 1,
              "marginLeft": "auto",
            },
          ]
        }
      >
        <Text
          accessibilityLabel="BTReviewScreenInterestRateValue"
          style={
            Array [
              Object {
                "color": "#ffffff",
                "fontFamily": "Myriad Pro",
                "fontSize": 22.5,
                "fontStyle": "normal",
                "fontWeight": "normal",
                "lineHeight": 25.5,
              },
              Object {
                "color": "#A2BDDB",
                "flexBasis": 0,
                "flexGrow": 2,
                "flexShrink": 1,
                "fontSize": 18,
                "letterSpacing": 0.85,
                "marginRight": 20,
              },
            ]
          }
          testID="BTReviewScreenInterestRateValue"
        >
          <Text
            accessibilityLabel="BTReviewScreenInterestRate"
            style={
              Array [
                Object {
                  "color": "#ffffff",
                  "fontFamily": "Myriad Pro",
                  "fontSize": 27,
                  "fontStyle": "normal",
                  "fontWeight": "normal",
                  "lineHeight": 33,
                },
              ]
            }
            testID="BTReviewScreenInterestRate"
            theme={
              Object {
                "FilterIcon": Object {
                  "process": [Function],
                },
                "button": Object {
                  "backgroundColor": Object {
                    "disabled": "#45586D",
                  },
                  "textColor": Object {
                    "disabled": "#748291",
                  },
                },
                "calendar": Object {
                  "defaultDateColor": "#09BAD0",
                  "defaultDateColorWithOpacity": "rgba(9, 186, 208, 0.5)",
                  "selectedDayTextColor": "#FFFFFF",
                },
                "card": Object {
                  "availableBalance": "#A2BDDB",
                  "backgroundColor": "#102c4b",
                  "dividerBgColor": "#445870",
                  "textColor": "#ffffff",
                },
                "carousel": Object {
                  "indicatorColor": "#445870",
                },
                "circle": Object {
                  "dashboardBgColor": "#153961",
                  "overviewBgColor": "#153961",
                },
                "circularGraphBackground": "#02152B",
                "color": Object {
                  "BACKGROUND_100": "#102C4B",
                  "BACKGROUND_200": "#07203C",
                  "BACKGROUND_300": "#02152B",
                  "DISABLED_STATUS": "#45586D",
                  "GREEN_STATUS": "#84D268",
                  "HIGH_EMPHASIS": "#A2BDDB",
                  "ORANGE_STATUS": "#FF8A00",
                  "PRIMARY_DEFAULT": "#00539F",
                  "PRIMARY_DISABLED": "#8DA0B2",
                  "PRIMARY_PRESSED": "#004585",
                  "RED_STATUS": "#F65A4C",
                  "SECONDARY_DEFAULT": "#09BAD0",
                  "SECONDARY_DISABLED": "#B4CDD0",
                  "SECONDARY_PRESSED": "#08A2B5",
                  "TEXT_100_HIGH": "#A2BDDB",
                  "TEXT_200_MEDIUIM": "#51667C",
                  "TEXT_300_HIGH": "#FFFFFF",
                  "TEXT_300_LOW": "#445870",
                  "YELLOW_STATUS": "#F9DE7D",
                },
                "customizeDashboard": Object {
                  "customizeText": "#FFFFFF",
                },
                "dashboard": Object {
                  "tabIcon": Object {
                    "process": [Function],
                  },
                },
                "defaultColor": "#09BAD0",
                "displayOptionsTooltip": Object {
                  "divider": "#486485",
                  "tooltip": "#18416E",
                  "widgetHeaderIcon": " #2a69af",
                },
                "filterTransaction": Object {
                  "calendarInputBorder": "#02152B",
                  "divider": "#445870",
                  "numberOfFiltersCircle": "#163E69",
                  "placeholderText": "#445870",
                },
                "guidedTourTooltip": Object {
                  "background": "#18416E",
                },
                "layout": Object {
                  "backgroundColor": "#051931",
                  "src": Object {
                    "process": [Function],
                  },
                },
                "logoSrc": Object {
                  "process": [Function],
                },
                "mainTopMenuItems": Object {
                  "color": "#ffffff",
                },
                "modal": Object {
                  "backgroundColor": "#102C4B",
                },
                "passwordInput": Object {
                  "mode": "dark",
                  "src": Object {
                    "process": [Function],
                  },
                },
                "reminder": Object {
                  "yellow": Object {
                    "backgroundColor": "#F2EBC3",
                    "borderColor": "#BDA726",
                    "textColor": "#7E6F1B",
                  },
                },
                "sidebar": Object {
                  "headerBg": "#010E1D",
                },
                "skeletonPlaceholder": Object {
                  "backgroundColor": "#486788",
                  "highlightColor": "#f5f5f5",
                },
                "tab": Object {
                  "activeTintColor": "#09BAD0",
                  "backgroundColor": "#010E1D",
                  "boxShadow": "0px -2px 32px #04172D",
                },
                "tabNavigator": Object {
                  "borderBottomColor": "#445870",
                },
                "text": Object {
                  "textColor": "#ffffff",
                },
                "textInput": Object {
                  "backgroundColor": Object {
                    "active": "#02152B",
                    "correct": "#02152B",
                    "default": "#02152b",
                    "disabled": "#051931",
                    "error": "#02152B",
                    "filled": "#02152B",
                  },
                  "border": Object {
                    "active": "1px solid #09BAD0",
                    "correct": "1px solid #84D268",
                    "default": "transparent",
                    "disabled": "transparent",
                    "error": "1px solid #F65A4C",
                    "filled": "transparent",
                  },
                  "calendarActiveTint": "none",
                  "dividerColor": "#445870",
                  "helperTextColor": Object {
                    "active": "#A2BDDB",
                    "correct": "#A2BDDB",
                    "default": "#A2BDDB",
                    "disabled": "#A2BDDB",
                    "error": "#F65A4C",
                    "filled": "#A2BDDB",
                  },
                  "iconInputStatusImagesTint": "none",
                  "placeholderTextColor": "#486485",
                  "searchImageTint": "none",
                  "textColor": "#ffffff",
                },
                "topAppBar": Object {
                  "backgroundColor": "#02152b",
                  "barStyle": "light-content",
                  "iconColor": "#ffffff",
                  "loading": "#030e1d",
                  "textColor": "#ffffff",
                },
                "transaction": Object {
                  "background": "#051931",
                },
              }
            }
          >
            
          </Text>
        </Text>
      </View>
    </View>
    <View
      style={
        Array [
          Object {
            "alignItems": "center",
            "display": "flex",
            "flexDirection": "row",
            "marginBottom": 16,
            "marginTop": 16,
          },
        ]
      }
    >
      <Text
        accessibilityLabel="BTReviewScreenAnnualRateLabel"
        style={
          Array [
            Object {
              "color": "#ffffff",
              "fontFamily": "MyriadPro-Semibold",
              "fontSize": 15,
              "fontStyle": "normal",
              "fontWeight": "bold",
              "letterSpacing": 2.769231,
              "lineHeight": 18,
              "textTransform": "uppercase",
            },
            Object {
              "color": "#A2BDDB",
              "flexBasis": 0,
              "flexGrow": 2,
              "flexShrink": 1,
              "fontSize": 18,
              "letterSpacing": 0.85,
              "marginRight": 40,
            },
          ]
        }
        testID="BTReviewScreenAnnualRateLabel"
      >
        effective annual interest rate
      </Text>
      <View
        style={
          Array [
            Object {
              "alignItems": "flex-start",
              "flexBasis": 0,
              "flexGrow": 4,
              "flexShrink": 1,
              "marginLeft": "auto",
            },
          ]
        }
      >
        <Text
          accessibilityLabel="BTReviewScreenAnnualRateValue"
          style={
            Array [
              Object {
                "color": "#ffffff",
                "fontFamily": "Myriad Pro",
                "fontSize": 22.5,
                "fontStyle": "normal",
                "fontWeight": "normal",
                "lineHeight": 25.5,
              },
              Object {
                "color": "#A2BDDB",
                "flexBasis": 0,
                "flexGrow": 2,
                "flexShrink": 1,
                "fontSize": 18,
                "letterSpacing": 0.85,
                "marginRight": 20,
              },
            ]
          }
          testID="BTReviewScreenAnnualRateValue"
        >
          <Text
            accessibilityLabel="BTReviewScreenAnnualRate"
            style={
              Array [
                Object {
                  "color": "#ffffff",
                  "fontFamily": "Myriad Pro",
                  "fontSize": 27,
                  "fontStyle": "normal",
                  "fontWeight": "normal",
                  "lineHeight": 33,
                },
              ]
            }
            testID="BTReviewScreenAnnualRate"
            theme={
              Object {
                "FilterIcon": Object {
                  "process": [Function],
                },
                "button": Object {
                  "backgroundColor": Object {
                    "disabled": "#45586D",
                  },
                  "textColor": Object {
                    "disabled": "#748291",
                  },
                },
                "calendar": Object {
                  "defaultDateColor": "#09BAD0",
                  "defaultDateColorWithOpacity": "rgba(9, 186, 208, 0.5)",
                  "selectedDayTextColor": "#FFFFFF",
                },
                "card": Object {
                  "availableBalance": "#A2BDDB",
                  "backgroundColor": "#102c4b",
                  "dividerBgColor": "#445870",
                  "textColor": "#ffffff",
                },
                "carousel": Object {
                  "indicatorColor": "#445870",
                },
                "circle": Object {
                  "dashboardBgColor": "#153961",
                  "overviewBgColor": "#153961",
                },
                "circularGraphBackground": "#02152B",
                "color": Object {
                  "BACKGROUND_100": "#102C4B",
                  "BACKGROUND_200": "#07203C",
                  "BACKGROUND_300": "#02152B",
                  "DISABLED_STATUS": "#45586D",
                  "GREEN_STATUS": "#84D268",
                  "HIGH_EMPHASIS": "#A2BDDB",
                  "ORANGE_STATUS": "#FF8A00",
                  "PRIMARY_DEFAULT": "#00539F",
                  "PRIMARY_DISABLED": "#8DA0B2",
                  "PRIMARY_PRESSED": "#004585",
                  "RED_STATUS": "#F65A4C",
                  "SECONDARY_DEFAULT": "#09BAD0",
                  "SECONDARY_DISABLED": "#B4CDD0",
                  "SECONDARY_PRESSED": "#08A2B5",
                  "TEXT_100_HIGH": "#A2BDDB",
                  "TEXT_200_MEDIUIM": "#51667C",
                  "TEXT_300_HIGH": "#FFFFFF",
                  "TEXT_300_LOW": "#445870",
                  "YELLOW_STATUS": "#F9DE7D",
                },
                "customizeDashboard": Object {
                  "customizeText": "#FFFFFF",
                },
                "dashboard": Object {
                  "tabIcon": Object {
                    "process": [Function],
                  },
                },
                "defaultColor": "#09BAD0",
                "displayOptionsTooltip": Object {
                  "divider": "#486485",
                  "tooltip": "#18416E",
                  "widgetHeaderIcon": " #2a69af",
                },
                "filterTransaction": Object {
                  "calendarInputBorder": "#02152B",
                  "divider": "#445870",
                  "numberOfFiltersCircle": "#163E69",
                  "placeholderText": "#445870",
                },
                "guidedTourTooltip": Object {
                  "background": "#18416E",
                },
                "layout": Object {
                  "backgroundColor": "#051931",
                  "src": Object {
                    "process": [Function],
                  },
                },
                "logoSrc": Object {
                  "process": [Function],
                },
                "mainTopMenuItems": Object {
                  "color": "#ffffff",
                },
                "modal": Object {
                  "backgroundColor": "#102C4B",
                },
                "passwordInput": Object {
                  "mode": "dark",
                  "src": Object {
                    "process": [Function],
                  },
                },
                "reminder": Object {
                  "yellow": Object {
                    "backgroundColor": "#F2EBC3",
                    "borderColor": "#BDA726",
                    "textColor": "#7E6F1B",
                  },
                },
                "sidebar": Object {
                  "headerBg": "#010E1D",
                },
                "skeletonPlaceholder": Object {
                  "backgroundColor": "#486788",
                  "highlightColor": "#f5f5f5",
                },
                "tab": Object {
                  "activeTintColor": "#09BAD0",
                  "backgroundColor": "#010E1D",
                  "boxShadow": "0px -2px 32px #04172D",
                },
                "tabNavigator": Object {
                  "borderBottomColor": "#445870",
                },
                "text": Object {
                  "textColor": "#ffffff",
                },
                "textInput": Object {
                  "backgroundColor": Object {
                    "active": "#02152B",
                    "correct": "#02152B",
                    "default": "#02152b",
                    "disabled": "#051931",
                    "error": "#02152B",
                    "filled": "#02152B",
                  },
                  "border": Object {
                    "active": "1px solid #09BAD0",
                    "correct": "1px solid #84D268",
                    "default": "transparent",
                    "disabled": "transparent",
                    "error": "1px solid #F65A4C",
                    "filled": "transparent",
                  },
                  "calendarActiveTint": "none",
                  "dividerColor": "#445870",
                  "helperTextColor": Object {
                    "active": "#A2BDDB",
                    "correct": "#A2BDDB",
                    "default": "#A2BDDB",
                    "disabled": "#A2BDDB",
                    "error": "#F65A4C",
                    "filled": "#A2BDDB",
                  },
                  "iconInputStatusImagesTint": "none",
                  "placeholderTextColor": "#486485",
                  "searchImageTint": "none",
                  "textColor": "#ffffff",
                },
                "topAppBar": Object {
                  "backgroundColor": "#02152b",
                  "barStyle": "light-content",
                  "iconColor": "#ffffff",
                  "loading": "#030e1d",
                  "textColor": "#ffffff",
                },
                "transaction": Object {
                  "background": "#051931",
                },
              }
            }
          >
            0%
          </Text>
        </Text>
      </View>
    </View>
    <View
      style={
        Array [
          Object {
            "alignItems": "center",
            "display": "flex",
            "flexDirection": "row",
            "marginBottom": 16,
            "marginTop": 16,
          },
        ]
      }
    >
      <Text
        accessibilityLabel="BTReviewScreenPaymentPeriodLabel"
        style={
          Array [
            Object {
              "color": "#ffffff",
              "fontFamily": "MyriadPro-Semibold",
              "fontSize": 15,
              "fontStyle": "normal",
              "fontWeight": "bold",
              "letterSpacing": 2.769231,
              "lineHeight": 18,
              "textTransform": "uppercase",
            },
            Object {
              "color": "#A2BDDB",
              "flexBasis": 0,
              "flexGrow": 2,
              "flexShrink": 1,
              "fontSize": 18,
              "letterSpacing": 0.85,
              "marginRight": 40,
            },
          ]
        }
        testID="BTReviewScreenPaymentPeriodLabel"
      >
        payment period
      </Text>
      <View
        style={
          Array [
            Object {
              "alignItems": "flex-start",
              "flexBasis": 0,
              "flexGrow": 4,
              "flexShrink": 1,
              "marginLeft": "auto",
            },
          ]
        }
      >
        <Text
          accessibilityLabel="BTReviewScreenPaymentPeriodValue"
          style={
            Array [
              Object {
                "color": "#ffffff",
                "fontFamily": "Myriad Pro",
                "fontSize": 22.5,
                "fontStyle": "normal",
                "fontWeight": "normal",
                "lineHeight": 25.5,
              },
              Object {
                "color": "#A2BDDB",
                "flexBasis": 0,
                "flexGrow": 2,
                "flexShrink": 1,
                "fontSize": 18,
                "letterSpacing": 0.85,
                "marginRight": 20,
              },
            ]
          }
          testID="BTReviewScreenPaymentPeriodValue"
        >
          <Text
            accessibilityLabel="BTReviewScreenPaymentPeriod"
            style={
              Array [
                Object {
                  "color": "#ffffff",
                  "fontFamily": "Myriad Pro",
                  "fontSize": 27,
                  "fontStyle": "normal",
                  "fontWeight": "normal",
                  "lineHeight": 33,
                },
              ]
            }
            testID="BTReviewScreenPaymentPeriod"
            theme={
              Object {
                "FilterIcon": Object {
                  "process": [Function],
                },
                "button": Object {
                  "backgroundColor": Object {
                    "disabled": "#45586D",
                  },
                  "textColor": Object {
                    "disabled": "#748291",
                  },
                },
                "calendar": Object {
                  "defaultDateColor": "#09BAD0",
                  "defaultDateColorWithOpacity": "rgba(9, 186, 208, 0.5)",
                  "selectedDayTextColor": "#FFFFFF",
                },
                "card": Object {
                  "availableBalance": "#A2BDDB",
                  "backgroundColor": "#102c4b",
                  "dividerBgColor": "#445870",
                  "textColor": "#ffffff",
                },
                "carousel": Object {
                  "indicatorColor": "#445870",
                },
                "circle": Object {
                  "dashboardBgColor": "#153961",
                  "overviewBgColor": "#153961",
                },
                "circularGraphBackground": "#02152B",
                "color": Object {
                  "BACKGROUND_100": "#102C4B",
                  "BACKGROUND_200": "#07203C",
                  "BACKGROUND_300": "#02152B",
                  "DISABLED_STATUS": "#45586D",
                  "GREEN_STATUS": "#84D268",
                  "HIGH_EMPHASIS": "#A2BDDB",
                  "ORANGE_STATUS": "#FF8A00",
                  "PRIMARY_DEFAULT": "#00539F",
                  "PRIMARY_DISABLED": "#8DA0B2",
                  "PRIMARY_PRESSED": "#004585",
                  "RED_STATUS": "#F65A4C",
                  "SECONDARY_DEFAULT": "#09BAD0",
                  "SECONDARY_DISABLED": "#B4CDD0",
                  "SECONDARY_PRESSED": "#08A2B5",
                  "TEXT_100_HIGH": "#A2BDDB",
                  "TEXT_200_MEDIUIM": "#51667C",
                  "TEXT_300_HIGH": "#FFFFFF",
                  "TEXT_300_LOW": "#445870",
                  "YELLOW_STATUS": "#F9DE7D",
                },
                "customizeDashboard": Object {
                  "customizeText": "#FFFFFF",
                },
                "dashboard": Object {
                  "tabIcon": Object {
                    "process": [Function],
                  },
                },
                "defaultColor": "#09BAD0",
                "displayOptionsTooltip": Object {
                  "divider": "#486485",
                  "tooltip": "#18416E",
                  "widgetHeaderIcon": " #2a69af",
                },
                "filterTransaction": Object {
                  "calendarInputBorder": "#02152B",
                  "divider": "#445870",
                  "numberOfFiltersCircle": "#163E69",
                  "placeholderText": "#445870",
                },
                "guidedTourTooltip": Object {
                  "background": "#18416E",
                },
                "layout": Object {
                  "backgroundColor": "#051931",
                  "src": Object {
                    "process": [Function],
                  },
                },
                "logoSrc": Object {
                  "process": [Function],
                },
                "mainTopMenuItems": Object {
                  "color": "#ffffff",
                },
                "modal": Object {
                  "backgroundColor": "#102C4B",
                },
                "passwordInput": Object {
                  "mode": "dark",
                  "src": Object {
                    "process": [Function],
                  },
                },
                "reminder": Object {
                  "yellow": Object {
                    "backgroundColor": "#F2EBC3",
                    "borderColor": "#BDA726",
                    "textColor": "#7E6F1B",
                  },
                },
                "sidebar": Object {
                  "headerBg": "#010E1D",
                },
                "skeletonPlaceholder": Object {
                  "backgroundColor": "#486788",
                  "highlightColor": "#f5f5f5",
                },
                "tab": Object {
                  "activeTintColor": "#09BAD0",
                  "backgroundColor": "#010E1D",
                  "boxShadow": "0px -2px 32px #04172D",
                },
                "tabNavigator": Object {
                  "borderBottomColor": "#445870",
                },
                "text": Object {
                  "textColor": "#ffffff",
                },
                "textInput": Object {
                  "backgroundColor": Object {
                    "active": "#02152B",
                    "correct": "#02152B",
                    "default": "#02152b",
                    "disabled": "#051931",
                    "error": "#02152B",
                    "filled": "#02152B",
                  },
                  "border": Object {
                    "active": "1px solid #09BAD0",
                    "correct": "1px solid #84D268",
                    "default": "transparent",
                    "disabled": "transparent",
                    "error": "1px solid #F65A4C",
                    "filled": "transparent",
                  },
                  "calendarActiveTint": "none",
                  "dividerColor": "#445870",
                  "helperTextColor": Object {
                    "active": "#A2BDDB",
                    "correct": "#A2BDDB",
                    "default": "#A2BDDB",
                    "disabled": "#A2BDDB",
                    "error": "#F65A4C",
                    "filled": "#A2BDDB",
                  },
                  "iconInputStatusImagesTint": "none",
                  "placeholderTextColor": "#486485",
                  "searchImageTint": "none",
                  "textColor": "#ffffff",
                },
                "topAppBar": Object {
                  "backgroundColor": "#02152b",
                  "barStyle": "light-content",
                  "iconColor": "#ffffff",
                  "loading": "#030e1d",
                  "textColor": "#ffffff",
                },
                "transaction": Object {
                  "background": "#051931",
                },
              }
            }
          >
            undefined months
          </Text>
        </Text>
      </View>
    </View>
    <View
      style={
        Array [
          Object {
            "alignItems": "center",
            "display": "flex",
            "flexDirection": "row",
            "marginBottom": 16,
            "marginTop": 16,
          },
        ]
      }
    >
      <Text
        accessibilityLabel="BTReviewScreenTotalInstallmentAmountLabel"
        style={
          Array [
            Object {
              "color": "#ffffff",
              "fontFamily": "MyriadPro-Semibold",
              "fontSize": 15,
              "fontStyle": "normal",
              "fontWeight": "bold",
              "letterSpacing": 2.769231,
              "lineHeight": 18,
              "textTransform": "uppercase",
            },
            Object {
              "color": "#A2BDDB",
              "flexBasis": 0,
              "flexGrow": 2,
              "flexShrink": 1,
              "fontSize": 18,
              "letterSpacing": 0.85,
              "marginRight": 40,
            },
          ]
        }
        testID="BTReviewScreenTotalInstallmentAmountLabel"
      >
        total installment amount
      </Text>
      <View
        style={
          Array [
            Object {
              "alignItems": "flex-start",
              "flexBasis": 0,
              "flexGrow": 4,
              "flexShrink": 1,
              "marginLeft": "auto",
            },
          ]
        }
      >
        <Text
          accessibilityLabel="BTReviewScreenTotalInstallmentAmountValue"
          style={
            Array [
              Object {
                "color": "#ffffff",
                "fontFamily": "Myriad Pro",
                "fontSize": 22.5,
                "fontStyle": "normal",
                "fontWeight": "normal",
                "lineHeight": 25.5,
              },
              Object {
                "color": "#A2BDDB",
                "flexBasis": 0,
                "flexGrow": 2,
                "flexShrink": 1,
                "fontSize": 18,
                "letterSpacing": 0.85,
                "marginRight": 20,
              },
            ]
          }
          testID="BTReviewScreenTotalInstallmentAmountValue"
        >
          <Text
            accessibilityLabel="BTReviewScreenTotalInstallmentAmount"
            style={
              Array [
                Object {
                  "color": "#ffffff",
                  "fontFamily": "Myriad Pro",
                  "fontSize": 27,
                  "fontStyle": "normal",
                  "fontWeight": "normal",
                  "lineHeight": 33,
                },
              ]
            }
            testID="BTReviewScreenTotalInstallmentAmount"
            theme={
              Object {
                "FilterIcon": Object {
                  "process": [Function],
                },
                "button": Object {
                  "backgroundColor": Object {
                    "disabled": "#45586D",
                  },
                  "textColor": Object {
                    "disabled": "#748291",
                  },
                },
                "calendar": Object {
                  "defaultDateColor": "#09BAD0",
                  "defaultDateColorWithOpacity": "rgba(9, 186, 208, 0.5)",
                  "selectedDayTextColor": "#FFFFFF",
                },
                "card": Object {
                  "availableBalance": "#A2BDDB",
                  "backgroundColor": "#102c4b",
                  "dividerBgColor": "#445870",
                  "textColor": "#ffffff",
                },
                "carousel": Object {
                  "indicatorColor": "#445870",
                },
                "circle": Object {
                  "dashboardBgColor": "#153961",
                  "overviewBgColor": "#153961",
                },
                "circularGraphBackground": "#02152B",
                "color": Object {
                  "BACKGROUND_100": "#102C4B",
                  "BACKGROUND_200": "#07203C",
                  "BACKGROUND_300": "#02152B",
                  "DISABLED_STATUS": "#45586D",
                  "GREEN_STATUS": "#84D268",
                  "HIGH_EMPHASIS": "#A2BDDB",
                  "ORANGE_STATUS": "#FF8A00",
                  "PRIMARY_DEFAULT": "#00539F",
                  "PRIMARY_DISABLED": "#8DA0B2",
                  "PRIMARY_PRESSED": "#004585",
                  "RED_STATUS": "#F65A4C",
                  "SECONDARY_DEFAULT": "#09BAD0",
                  "SECONDARY_DISABLED": "#B4CDD0",
                  "SECONDARY_PRESSED": "#08A2B5",
                  "TEXT_100_HIGH": "#A2BDDB",
                  "TEXT_200_MEDIUIM": "#51667C",
                  "TEXT_300_HIGH": "#FFFFFF",
                  "TEXT_300_LOW": "#445870",
                  "YELLOW_STATUS": "#F9DE7D",
                },
                "customizeDashboard": Object {
                  "customizeText": "#FFFFFF",
                },
                "dashboard": Object {
                  "tabIcon": Object {
                    "process": [Function],
                  },
                },
                "defaultColor": "#09BAD0",
                "displayOptionsTooltip": Object {
                  "divider": "#486485",
                  "tooltip": "#18416E",
                  "widgetHeaderIcon": " #2a69af",
                },
                "filterTransaction": Object {
                  "calendarInputBorder": "#02152B",
                  "divider": "#445870",
                  "numberOfFiltersCircle": "#163E69",
                  "placeholderText": "#445870",
                },
                "guidedTourTooltip": Object {
                  "background": "#18416E",
                },
                "layout": Object {
                  "backgroundColor": "#051931",
                  "src": Object {
                    "process": [Function],
                  },
                },
                "logoSrc": Object {
                  "process": [Function],
                },
                "mainTopMenuItems": Object {
                  "color": "#ffffff",
                },
                "modal": Object {
                  "backgroundColor": "#102C4B",
                },
                "passwordInput": Object {
                  "mode": "dark",
                  "src": Object {
                    "process": [Function],
                  },
                },
                "reminder": Object {
                  "yellow": Object {
                    "backgroundColor": "#F2EBC3",
                    "borderColor": "#BDA726",
                    "textColor": "#7E6F1B",
                  },
                },
                "sidebar": Object {
                  "headerBg": "#010E1D",
                },
                "skeletonPlaceholder": Object {
                  "backgroundColor": "#486788",
                  "highlightColor": "#f5f5f5",
                },
                "tab": Object {
                  "activeTintColor": "#09BAD0",
                  "backgroundColor": "#010E1D",
                  "boxShadow": "0px -2px 32px #04172D",
                },
                "tabNavigator": Object {
                  "borderBottomColor": "#445870",
                },
                "text": Object {
                  "textColor": "#ffffff",
                },
                "textInput": Object {
                  "backgroundColor": Object {
                    "active": "#02152B",
                    "correct": "#02152B",
                    "default": "#02152b",
                    "disabled": "#051931",
                    "error": "#02152B",
                    "filled": "#02152B",
                  },
                  "border": Object {
                    "active": "1px solid #09BAD0",
                    "correct": "1px solid #84D268",
                    "default": "transparent",
                    "disabled": "transparent",
                    "error": "1px solid #F65A4C",
                    "filled": "transparent",
                  },
                  "calendarActiveTint": "none",
                  "dividerColor": "#445870",
                  "helperTextColor": Object {
                    "active": "#A2BDDB",
                    "correct": "#A2BDDB",
                    "default": "#A2BDDB",
                    "disabled": "#A2BDDB",
                    "error": "#F65A4C",
                    "filled": "#A2BDDB",
                  },
                  "iconInputStatusImagesTint": "none",
                  "placeholderTextColor": "#486485",
                  "searchImageTint": "none",
                  "textColor": "#ffffff",
                },
                "topAppBar": Object {
                  "backgroundColor": "#02152b",
                  "barStyle": "light-content",
                  "iconColor": "#ffffff",
                  "loading": "#030e1d",
                  "textColor": "#ffffff",
                },
                "transaction": Object {
                  "background": "#051931",
                },
              }
            }
          >
            PHP .00
          </Text>
        </Text>
      </View>
    </View>
  </View>,
  <View
    accessibilityLabel="BTReviewScreenFooterMessageId"
    marginBottom={20}
    marginTop={12}
    style={
      Array [
        Object {
          "marginBottom": 40,
          "marginLeft": 0,
          "marginRight": 0,
          "marginTop": 24,
        },
      ]
    }
    testID="BTReviewScreenFooterMessageId"
    theme={
      Object {
        "FilterIcon": Object {
          "process": [Function],
        },
        "button": Object {
          "backgroundColor": Object {
            "disabled": "#45586D",
          },
          "textColor": Object {
            "disabled": "#748291",
          },
        },
        "calendar": Object {
          "defaultDateColor": "#09BAD0",
          "defaultDateColorWithOpacity": "rgba(9, 186, 208, 0.5)",
          "selectedDayTextColor": "#FFFFFF",
        },
        "card": Object {
          "availableBalance": "#A2BDDB",
          "backgroundColor": "#102c4b",
          "dividerBgColor": "#445870",
          "textColor": "#ffffff",
        },
        "carousel": Object {
          "indicatorColor": "#445870",
        },
        "circle": Object {
          "dashboardBgColor": "#153961",
          "overviewBgColor": "#153961",
        },
        "circularGraphBackground": "#02152B",
        "color": Object {
          "BACKGROUND_100": "#102C4B",
          "BACKGROUND_200": "#07203C",
          "BACKGROUND_300": "#02152B",
          "DISABLED_STATUS": "#45586D",
          "GREEN_STATUS": "#84D268",
          "HIGH_EMPHASIS": "#A2BDDB",
          "ORANGE_STATUS": "#FF8A00",
          "PRIMARY_DEFAULT": "#00539F",
          "PRIMARY_DISABLED": "#8DA0B2",
          "PRIMARY_PRESSED": "#004585",
          "RED_STATUS": "#F65A4C",
          "SECONDARY_DEFAULT": "#09BAD0",
          "SECONDARY_DISABLED": "#B4CDD0",
          "SECONDARY_PRESSED": "#08A2B5",
          "TEXT_100_HIGH": "#A2BDDB",
          "TEXT_200_MEDIUIM": "#51667C",
          "TEXT_300_HIGH": "#FFFFFF",
          "TEXT_300_LOW": "#445870",
          "YELLOW_STATUS": "#F9DE7D",
        },
        "customizeDashboard": Object {
          "customizeText": "#FFFFFF",
        },
        "dashboard": Object {
          "tabIcon": Object {
            "process": [Function],
          },
        },
        "defaultColor": "#09BAD0",
        "displayOptionsTooltip": Object {
          "divider": "#486485",
          "tooltip": "#18416E",
          "widgetHeaderIcon": " #2a69af",
        },
        "filterTransaction": Object {
          "calendarInputBorder": "#02152B",
          "divider": "#445870",
          "numberOfFiltersCircle": "#163E69",
          "placeholderText": "#445870",
        },
        "guidedTourTooltip": Object {
          "background": "#18416E",
        },
        "layout": Object {
          "backgroundColor": "#051931",
          "src": Object {
            "process": [Function],
          },
        },
        "logoSrc": Object {
          "process": [Function],
        },
        "mainTopMenuItems": Object {
          "color": "#ffffff",
        },
        "modal": Object {
          "backgroundColor": "#102C4B",
        },
        "passwordInput": Object {
          "mode": "dark",
          "src": Object {
            "process": [Function],
          },
        },
        "reminder": Object {
          "yellow": Object {
            "backgroundColor": "#F2EBC3",
            "borderColor": "#BDA726",
            "textColor": "#7E6F1B",
          },
        },
        "sidebar": Object {
          "headerBg": "#010E1D",
        },
        "skeletonPlaceholder": Object {
          "backgroundColor": "#486788",
          "highlightColor": "#f5f5f5",
        },
        "tab": Object {
          "activeTintColor": "#09BAD0",
          "backgroundColor": "#010E1D",
          "boxShadow": "0px -2px 32px #04172D",
        },
        "tabNavigator": Object {
          "borderBottomColor": "#445870",
        },
        "text": Object {
          "textColor": "#ffffff",
        },
        "textInput": Object {
          "backgroundColor": Object {
            "active": "#02152B",
            "correct": "#02152B",
            "default": "#02152b",
            "disabled": "#051931",
            "error": "#02152B",
            "filled": "#02152B",
          },
          "border": Object {
            "active": "1px solid #09BAD0",
            "correct": "1px solid #84D268",
            "default": "transparent",
            "disabled": "transparent",
            "error": "1px solid #F65A4C",
            "filled": "transparent",
          },
          "calendarActiveTint": "none",
          "dividerColor": "#445870",
          "helperTextColor": Object {
            "active": "#A2BDDB",
            "correct": "#A2BDDB",
            "default": "#A2BDDB",
            "disabled": "#A2BDDB",
            "error": "#F65A4C",
            "filled": "#A2BDDB",
          },
          "iconInputStatusImagesTint": "none",
          "placeholderTextColor": "#486485",
          "searchImageTint": "none",
          "textColor": "#ffffff",
        },
        "topAppBar": Object {
          "backgroundColor": "#02152b",
          "barStyle": "light-content",
          "iconColor": "#ffffff",
          "loading": "#030e1d",
          "textColor": "#ffffff",
        },
        "transaction": Object {
          "background": "#051931",
        },
      }
    }
  >
    <Text
      style={
        Array [
          Object {
            "color": "#ffffff",
            "fontFamily": "Myriad Pro",
            "fontSize": 22.5,
            "fontStyle": "normal",
            "fontWeight": "normal",
            "lineHeight": 25.5,
          },
        ]
      }
    >
      By clicking ‘confirm’, you have read and agreed to the
      <Text
        onPress={[Function]}
        style={
          Array [
            Object {
              "color": "#09BAD0",
              "fontFamily": "Myriad Pro",
              "fontSize": 21,
              "fontStyle": "normal",
              "fontWeight": "normal",
              "letterSpacing": 1.5187499999999998,
              "lineHeight": 25.5,
            },
          ]
        }
        testID="BTReviewScreenFooterTermsConditionText"
        themeColor="SECONDARY_DEFAULT"
      >
        terms and conditions
      </Text>
      , payment, fees applied to this transaction.
    </Text>
  </View>,
]
`;
