// Jest Snapshot v1, https://goo.gl/fbAQLP

exports[`Avatar Should work as expected 1`] = `
<View
  style={
    Array [
      Object {},
    ]
  }
>
  <View
    accessibilityLabel="avatarTestId"
    activeOpacity={0.7}
    forwardedComponent={
      Object {
        "$$typeof": Symbol(react.forward_ref),
        "Accessory": [Function],
        "attrs": Array [
          [Function],
        ],
        "displayName": "Styled(Themed.Avatar)",
        "inlineStyle": InlineStyle {
          "rules": Array [
            "",
          ],
        },
        "render": [Function],
        "shouldForwardProp": undefined,
        "styledComponentId": "StyledNativeComponent",
        "target": [Function],
        "withComponent": [Function],
      }
    }
    forwardedRef={null}
    style={
      Array [
        Object {},
      ]
    }
    testID="avatarTestId"
    theme={
      Object {
        "FilterIcon": Object {
          "process": [Function],
        },
        "button": Object {
          "backgroundColor": Object {
            "disabled": "#45586D",
          },
          "textColor": Object {
            "disabled": "#748291",
          },
        },
        "calendar": Object {
          "defaultDateColor": "#09BAD0",
          "defaultDateColorWithOpacity": "rgba(9, 186, 208, 0.5)",
          "selectedDayTextColor": "#FFFFFF",
        },
        "card": Object {
          "availableBalance": "#A2BDDB",
          "backgroundColor": "#102c4b",
          "dividerBgColor": "#445870",
          "textColor": "#ffffff",
        },
        "carousel": Object {
          "indicatorColor": "#445870",
        },
        "circle": Object {
          "dashboardBgColor": "#153961",
          "overviewBgColor": "#153961",
        },
        "circularGraphBackground": "#02152B",
        "color": Object {
          "BACKGROUND_100": "#102C4B",
          "BACKGROUND_200": "#07203C",
          "BACKGROUND_300": "#02152B",
          "DISABLED_STATUS": "#45586D",
          "GREEN_STATUS": "#84D268",
          "HIGH_EMPHASIS": "#A2BDDB",
          "ORANGE_STATUS": "#FF8A00",
          "PRIMARY_DEFAULT": "#00539F",
          "PRIMARY_DISABLED": "#8DA0B2",
          "PRIMARY_PRESSED": "#004585",
          "RED_STATUS": "#F65A4C",
          "SECONDARY_DEFAULT": "#09BAD0",
          "SECONDARY_DISABLED": "#B4CDD0",
          "SECONDARY_PRESSED": "#08A2B5",
          "TEXT_100_HIGH": "#A2BDDB",
          "TEXT_200_MEDIUIM": "#51667C",
          "TEXT_300_HIGH": "#FFFFFF",
          "TEXT_300_LOW": "#445870",
          "YELLOW_STATUS": "#F9DE7D",
        },
        "customizeDashboard": Object {
          "customizeText": "#FFFFFF",
        },
        "dashboard": Object {
          "tabIcon": Object {
            "process": [Function],
          },
        },
        "defaultColor": "#09BAD0",
        "displayOptionsTooltip": Object {
          "divider": "#486485",
          "tooltip": "#18416E",
          "widgetHeaderIcon": " #2a69af",
        },
        "filterTransaction": Object {
          "calendarInputBorder": "#02152B",
          "divider": "#445870",
          "numberOfFiltersCircle": "#163E69",
          "placeholderText": "#445870",
        },
        "guidedTourTooltip": Object {
          "background": "#18416E",
        },
        "layout": Object {
          "backgroundColor": "#051931",
          "src": Object {
            "process": [Function],
          },
        },
        "logoSrc": Object {
          "process": [Function],
        },
        "mainTopMenuItems": Object {
          "color": "#ffffff",
        },
        "modal": Object {
          "backgroundColor": "#102C4B",
        },
        "passwordInput": Object {
          "mode": "dark",
          "src": Object {
            "process": [Function],
          },
        },
        "reminder": Object {
          "yellow": Object {
            "backgroundColor": "#F2EBC3",
            "borderColor": "#BDA726",
            "textColor": "#7E6F1B",
          },
        },
        "sidebar": Object {
          "headerBg": "#010E1D",
        },
        "skeletonPlaceholder": Object {
          "backgroundColor": "#486788",
          "highlightColor": "#f5f5f5",
        },
        "tab": Object {
          "activeTintColor": "#09BAD0",
          "backgroundColor": "#010E1D",
          "boxShadow": "0px -2px 32px #04172D",
        },
        "tabNavigator": Object {
          "borderBottomColor": "#445870",
        },
        "text": Object {
          "textColor": "#ffffff",
        },
        "textInput": Object {
          "backgroundColor": Object {
            "active": "#02152B",
            "correct": "#02152B",
            "default": "#02152b",
            "disabled": "#051931",
            "error": "#02152B",
            "filled": "#02152B",
          },
          "border": Object {
            "active": "1px solid #09BAD0",
            "correct": "1px solid #84D268",
            "default": "transparent",
            "disabled": "transparent",
            "error": "1px solid #F65A4C",
            "filled": "transparent",
          },
          "calendarActiveTint": "none",
          "dividerColor": "#445870",
          "helperTextColor": Object {
            "active": "#A2BDDB",
            "correct": "#A2BDDB",
            "default": "#A2BDDB",
            "disabled": "#A2BDDB",
            "error": "#F65A4C",
            "filled": "#A2BDDB",
          },
          "iconInputStatusImagesTint": "none",
          "placeholderTextColor": "#486485",
          "searchImageTint": "none",
          "textColor": "#ffffff",
        },
        "topAppBar": Object {
          "backgroundColor": "#02152b",
          "barStyle": "light-content",
          "iconColor": "#ffffff",
          "loading": "#030e1d",
          "textColor": "#ffffff",
        },
        "transaction": Object {
          "background": "#051931",
        },
      }
    }
    uri="http://placehold.it/480x270"
  >
    <View
      accessibilityIgnoresInvertColors={true}
      style={
        Object {
          "backgroundColor": undefined,
          "borderRadius": 50,
          "flex": 1,
          "overflow": "hidden",
          "padding": 36,
          "position": "relative",
        }
      }
    >
      <Image
        borderRadius={17}
        onLoad={[Function]}
        source={
          Object {
            "uri": "http://placehold.it/480x270",
          }
        }
        style={
          Object {
            "bottom": 0,
            "flex": 1,
            "height": undefined,
            "left": 0,
            "position": "absolute",
            "right": 0,
            "top": 0,
            "width": undefined,
          }
        }
        testID="RNE__Image"
        theme={
          Object {
            "colors": Object {
              "black": "#242424",
              "disabled": "hsl(208, 8%, 90%)",
              "divider": "#bcbbc1",
              "error": "#ff190c",
              "grey0": "#393e42",
              "grey1": "#43484d",
              "grey2": "#5e6977",
              "grey3": "#86939e",
              "grey4": "#bdc6cf",
              "grey5": "#e1e8ee",
              "greyOutline": "#bbb",
              "platform": Object {
                "android": Object {
                  "error": "#f44336",
                  "grey": "rgba(0, 0, 0, 0.54)",
                  "primary": "#2196f3",
                  "searchBg": "#dcdce1",
                  "secondary": "#9C27B0",
                  "success": "#4caf50",
                  "warning": "#ffeb3b",
                },
                "default": Object {
                  "error": "#ff3b30",
                  "grey": "#7d7d7d",
                  "primary": "#007aff",
                  "searchBg": "#dcdce1",
                  "secondary": "#5856d6",
                  "success": "#4cd964",
                  "warning": "#ffcc00",
                },
                "ios": Object {
                  "error": "#ff3b30",
                  "grey": "#7d7d7d",
                  "primary": "#007aff",
                  "searchBg": "#dcdce1",
                  "secondary": "#5856d6",
                  "success": "#4cd964",
                  "warning": "#ffcc00",
                },
                "web": Object {
                  "error": "#ff190c",
                  "grey": "#393e42",
                  "primary": "#2089dc",
                  "searchBg": "#303337",
                  "secondary": "#ca71eb",
                  "success": "#52c41a",
                  "warning": "#faad14",
                },
              },
              "primary": "#2089dc",
              "searchBg": "#303337",
              "secondary": "#ca71eb",
              "success": "#52c41a",
              "warning": "#faad14",
              "white": "#ffffff",
            },
          }
        }
        transition={true}
        transitionDuration={360}
      />
      <View
        accessibilityElementsHidden={true}
        importantForAccessibility="no-hide-descendants"
        pointerEvents="none"
        style={
          Object {
            "bottom": 0,
            "left": 0,
            "opacity": 1,
            "position": "absolute",
            "right": 0,
            "top": 0,
          }
        }
      >
        <View
          style={
            Object {
              "alignItems": "center",
              "backgroundColor": "#bdbdbd",
              "flex": 1,
              "height": undefined,
              "justifyContent": "center",
              "width": undefined,
            }
          }
          testID="RNE__Image__placeholder"
        >
          <Text
            style={
              Object {
                "backgroundColor": "transparent",
                "color": "#ffffff",
                "fontSize": 17,
                "textAlign": "center",
              }
            }
          >
            J
          </Text>
        </View>
      </View>
      <View
        style={
          Object {
            "flex": 1,
            "height": undefined,
            "width": undefined,
          }
        }
        testID="RNE__Image__children__container"
      />
    </View>
  </View>
</View>
`;

exports[`Avatar Should work as expected 2`] = `
<View
  style={
    Array [
      Object {},
    ]
  }
>
  <View
    accessibilityLabel="avatarTestId"
    activeOpacity={0.7}
    forwardedComponent={
      Object {
        "$$typeof": Symbol(react.forward_ref),
        "Accessory": [Function],
        "attrs": Array [
          [Function],
        ],
        "displayName": "Styled(Themed.Avatar)",
        "inlineStyle": InlineStyle {
          "rules": Array [
            "",
          ],
        },
        "render": [Function],
        "shouldForwardProp": undefined,
        "styledComponentId": "StyledNativeComponent",
        "target": [Function],
        "withComponent": [Function],
      }
    }
    forwardedRef={null}
    style={
      Array [
        Object {},
      ]
    }
    testID="avatarTestId"
    theme={
      Object {
        "FilterIcon": Object {
          "process": [Function],
        },
        "button": Object {
          "backgroundColor": Object {
            "disabled": "#45586D",
          },
          "textColor": Object {
            "disabled": "#748291",
          },
        },
        "calendar": Object {
          "defaultDateColor": "#09BAD0",
          "defaultDateColorWithOpacity": "rgba(9, 186, 208, 0.5)",
          "selectedDayTextColor": "#FFFFFF",
        },
        "card": Object {
          "availableBalance": "#A2BDDB",
          "backgroundColor": "#102c4b",
          "dividerBgColor": "#445870",
          "textColor": "#ffffff",
        },
        "carousel": Object {
          "indicatorColor": "#445870",
        },
        "circle": Object {
          "dashboardBgColor": "#153961",
          "overviewBgColor": "#153961",
        },
        "circularGraphBackground": "#02152B",
        "color": Object {
          "BACKGROUND_100": "#102C4B",
          "BACKGROUND_200": "#07203C",
          "BACKGROUND_300": "#02152B",
          "DISABLED_STATUS": "#45586D",
          "GREEN_STATUS": "#84D268",
          "HIGH_EMPHASIS": "#A2BDDB",
          "ORANGE_STATUS": "#FF8A00",
          "PRIMARY_DEFAULT": "#00539F",
          "PRIMARY_DISABLED": "#8DA0B2",
          "PRIMARY_PRESSED": "#004585",
          "RED_STATUS": "#F65A4C",
          "SECONDARY_DEFAULT": "#09BAD0",
          "SECONDARY_DISABLED": "#B4CDD0",
          "SECONDARY_PRESSED": "#08A2B5",
          "TEXT_100_HIGH": "#A2BDDB",
          "TEXT_200_MEDIUIM": "#51667C",
          "TEXT_300_HIGH": "#FFFFFF",
          "TEXT_300_LOW": "#445870",
          "YELLOW_STATUS": "#F9DE7D",
        },
        "customizeDashboard": Object {
          "customizeText": "#FFFFFF",
        },
        "dashboard": Object {
          "tabIcon": Object {
            "process": [Function],
          },
        },
        "defaultColor": "#09BAD0",
        "displayOptionsTooltip": Object {
          "divider": "#486485",
          "tooltip": "#18416E",
          "widgetHeaderIcon": " #2a69af",
        },
        "filterTransaction": Object {
          "calendarInputBorder": "#02152B",
          "divider": "#445870",
          "numberOfFiltersCircle": "#163E69",
          "placeholderText": "#445870",
        },
        "guidedTourTooltip": Object {
          "background": "#18416E",
        },
        "layout": Object {
          "backgroundColor": "#051931",
          "src": Object {
            "process": [Function],
          },
        },
        "logoSrc": Object {
          "process": [Function],
        },
        "mainTopMenuItems": Object {
          "color": "#ffffff",
        },
        "modal": Object {
          "backgroundColor": "#102C4B",
        },
        "passwordInput": Object {
          "mode": "dark",
          "src": Object {
            "process": [Function],
          },
        },
        "reminder": Object {
          "yellow": Object {
            "backgroundColor": "#F2EBC3",
            "borderColor": "#BDA726",
            "textColor": "#7E6F1B",
          },
        },
        "sidebar": Object {
          "headerBg": "#010E1D",
        },
        "skeletonPlaceholder": Object {
          "backgroundColor": "#486788",
          "highlightColor": "#f5f5f5",
        },
        "tab": Object {
          "activeTintColor": "#09BAD0",
          "backgroundColor": "#010E1D",
          "boxShadow": "0px -2px 32px #04172D",
        },
        "tabNavigator": Object {
          "borderBottomColor": "#445870",
        },
        "text": Object {
          "textColor": "#ffffff",
        },
        "textInput": Object {
          "backgroundColor": Object {
            "active": "#02152B",
            "correct": "#02152B",
            "default": "#02152b",
            "disabled": "#051931",
            "error": "#02152B",
            "filled": "#02152B",
          },
          "border": Object {
            "active": "1px solid #09BAD0",
            "correct": "1px solid #84D268",
            "default": "transparent",
            "disabled": "transparent",
            "error": "1px solid #F65A4C",
            "filled": "transparent",
          },
          "calendarActiveTint": "none",
          "dividerColor": "#445870",
          "helperTextColor": Object {
            "active": "#A2BDDB",
            "correct": "#A2BDDB",
            "default": "#A2BDDB",
            "disabled": "#A2BDDB",
            "error": "#F65A4C",
            "filled": "#A2BDDB",
          },
          "iconInputStatusImagesTint": "none",
          "placeholderTextColor": "#486485",
          "searchImageTint": "none",
          "textColor": "#ffffff",
        },
        "topAppBar": Object {
          "backgroundColor": "#02152b",
          "barStyle": "light-content",
          "iconColor": "#ffffff",
          "loading": "#030e1d",
          "textColor": "#ffffff",
        },
        "transaction": Object {
          "background": "#051931",
        },
      }
    }
    uri="http://placehold.it/480x270"
  >
    <View
      accessibilityIgnoresInvertColors={true}
      style={
        Object {
          "backgroundColor": undefined,
          "borderRadius": 50,
          "flex": 1,
          "overflow": "hidden",
          "padding": 36,
          "position": "relative",
        }
      }
    >
      <Image
        borderRadius={17}
        onLoad={[Function]}
        source={
          Object {
            "uri": "http://placehold.it/480x270",
          }
        }
        style={
          Object {
            "bottom": 0,
            "flex": 1,
            "height": undefined,
            "left": 0,
            "position": "absolute",
            "right": 0,
            "top": 0,
            "width": undefined,
          }
        }
        testID="RNE__Image"
        theme={
          Object {
            "colors": Object {
              "black": "#242424",
              "disabled": "hsl(208, 8%, 90%)",
              "divider": "#bcbbc1",
              "error": "#ff190c",
              "grey0": "#393e42",
              "grey1": "#43484d",
              "grey2": "#5e6977",
              "grey3": "#86939e",
              "grey4": "#bdc6cf",
              "grey5": "#e1e8ee",
              "greyOutline": "#bbb",
              "platform": Object {
                "android": Object {
                  "error": "#f44336",
                  "grey": "rgba(0, 0, 0, 0.54)",
                  "primary": "#2196f3",
                  "searchBg": "#dcdce1",
                  "secondary": "#9C27B0",
                  "success": "#4caf50",
                  "warning": "#ffeb3b",
                },
                "default": Object {
                  "error": "#ff3b30",
                  "grey": "#7d7d7d",
                  "primary": "#007aff",
                  "searchBg": "#dcdce1",
                  "secondary": "#5856d6",
                  "success": "#4cd964",
                  "warning": "#ffcc00",
                },
                "ios": Object {
                  "error": "#ff3b30",
                  "grey": "#7d7d7d",
                  "primary": "#007aff",
                  "searchBg": "#dcdce1",
                  "secondary": "#5856d6",
                  "success": "#4cd964",
                  "warning": "#ffcc00",
                },
                "web": Object {
                  "error": "#ff190c",
                  "grey": "#393e42",
                  "primary": "#2089dc",
                  "searchBg": "#303337",
                  "secondary": "#ca71eb",
                  "success": "#52c41a",
                  "warning": "#faad14",
                },
              },
              "primary": "#2089dc",
              "searchBg": "#303337",
              "secondary": "#ca71eb",
              "success": "#52c41a",
              "warning": "#faad14",
              "white": "#ffffff",
            },
          }
        }
        transition={true}
        transitionDuration={360}
      />
      <View
        accessibilityElementsHidden={true}
        importantForAccessibility="no-hide-descendants"
        pointerEvents="none"
        style={
          Object {
            "bottom": 0,
            "left": 0,
            "opacity": 1,
            "position": "absolute",
            "right": 0,
            "top": 0,
          }
        }
      >
        <View
          style={
            Object {
              "alignItems": "center",
              "backgroundColor": "#bdbdbd",
              "flex": 1,
              "height": undefined,
              "justifyContent": "center",
              "width": undefined,
            }
          }
          testID="RNE__Image__placeholder"
        >
          <Text
            style={
              Object {
                "backgroundColor": "transparent",
                "color": "#ffffff",
                "fontSize": 17,
                "textAlign": "center",
              }
            }
          >
            M
          </Text>
        </View>
      </View>
      <View
        style={
          Object {
            "flex": 1,
            "height": undefined,
            "width": undefined,
          }
        }
        testID="RNE__Image__children__container"
      />
    </View>
  </View>
</View>
`;

exports[`Avatar Should work as expected 3`] = `
<View
  style={
    Array [
      Object {},
    ]
  }
>
  <View
    accessibilityLabel="avatarTestId"
    activeOpacity={0.7}
    forwardedComponent={
      Object {
        "$$typeof": Symbol(react.forward_ref),
        "Accessory": [Function],
        "attrs": Array [
          [Function],
        ],
        "displayName": "Styled(Themed.Avatar)",
        "inlineStyle": InlineStyle {
          "rules": Array [
            "",
          ],
        },
        "render": [Function],
        "shouldForwardProp": undefined,
        "styledComponentId": "StyledNativeComponent",
        "target": [Function],
        "withComponent": [Function],
      }
    }
    forwardedRef={null}
    style={
      Array [
        Object {},
      ]
    }
    testID="avatarTestId"
    theme={
      Object {
        "FilterIcon": Object {
          "process": [Function],
        },
        "button": Object {
          "backgroundColor": Object {
            "disabled": "#45586D",
          },
          "textColor": Object {
            "disabled": "#748291",
          },
        },
        "calendar": Object {
          "defaultDateColor": "#09BAD0",
          "defaultDateColorWithOpacity": "rgba(9, 186, 208, 0.5)",
          "selectedDayTextColor": "#FFFFFF",
        },
        "card": Object {
          "availableBalance": "#A2BDDB",
          "backgroundColor": "#102c4b",
          "dividerBgColor": "#445870",
          "textColor": "#ffffff",
        },
        "carousel": Object {
          "indicatorColor": "#445870",
        },
        "circle": Object {
          "dashboardBgColor": "#153961",
          "overviewBgColor": "#153961",
        },
        "circularGraphBackground": "#02152B",
        "color": Object {
          "BACKGROUND_100": "#102C4B",
          "BACKGROUND_200": "#07203C",
          "BACKGROUND_300": "#02152B",
          "DISABLED_STATUS": "#45586D",
          "GREEN_STATUS": "#84D268",
          "HIGH_EMPHASIS": "#A2BDDB",
          "ORANGE_STATUS": "#FF8A00",
          "PRIMARY_DEFAULT": "#00539F",
          "PRIMARY_DISABLED": "#8DA0B2",
          "PRIMARY_PRESSED": "#004585",
          "RED_STATUS": "#F65A4C",
          "SECONDARY_DEFAULT": "#09BAD0",
          "SECONDARY_DISABLED": "#B4CDD0",
          "SECONDARY_PRESSED": "#08A2B5",
          "TEXT_100_HIGH": "#A2BDDB",
          "TEXT_200_MEDIUIM": "#51667C",
          "TEXT_300_HIGH": "#FFFFFF",
          "TEXT_300_LOW": "#445870",
          "YELLOW_STATUS": "#F9DE7D",
        },
        "customizeDashboard": Object {
          "customizeText": "#FFFFFF",
        },
        "dashboard": Object {
          "tabIcon": Object {
            "process": [Function],
          },
        },
        "defaultColor": "#09BAD0",
        "displayOptionsTooltip": Object {
          "divider": "#486485",
          "tooltip": "#18416E",
          "widgetHeaderIcon": " #2a69af",
        },
        "filterTransaction": Object {
          "calendarInputBorder": "#02152B",
          "divider": "#445870",
          "numberOfFiltersCircle": "#163E69",
          "placeholderText": "#445870",
        },
        "guidedTourTooltip": Object {
          "background": "#18416E",
        },
        "layout": Object {
          "backgroundColor": "#051931",
          "src": Object {
            "process": [Function],
          },
        },
        "logoSrc": Object {
          "process": [Function],
        },
        "mainTopMenuItems": Object {
          "color": "#ffffff",
        },
        "modal": Object {
          "backgroundColor": "#102C4B",
        },
        "passwordInput": Object {
          "mode": "dark",
          "src": Object {
            "process": [Function],
          },
        },
        "reminder": Object {
          "yellow": Object {
            "backgroundColor": "#F2EBC3",
            "borderColor": "#BDA726",
            "textColor": "#7E6F1B",
          },
        },
        "sidebar": Object {
          "headerBg": "#010E1D",
        },
        "skeletonPlaceholder": Object {
          "backgroundColor": "#486788",
          "highlightColor": "#f5f5f5",
        },
        "tab": Object {
          "activeTintColor": "#09BAD0",
          "backgroundColor": "#010E1D",
          "boxShadow": "0px -2px 32px #04172D",
        },
        "tabNavigator": Object {
          "borderBottomColor": "#445870",
        },
        "text": Object {
          "textColor": "#ffffff",
        },
        "textInput": Object {
          "backgroundColor": Object {
            "active": "#02152B",
            "correct": "#02152B",
            "default": "#02152b",
            "disabled": "#051931",
            "error": "#02152B",
            "filled": "#02152B",
          },
          "border": Object {
            "active": "1px solid #09BAD0",
            "correct": "1px solid #84D268",
            "default": "transparent",
            "disabled": "transparent",
            "error": "1px solid #F65A4C",
            "filled": "transparent",
          },
          "calendarActiveTint": "none",
          "dividerColor": "#445870",
          "helperTextColor": Object {
            "active": "#A2BDDB",
            "correct": "#A2BDDB",
            "default": "#A2BDDB",
            "disabled": "#A2BDDB",
            "error": "#F65A4C",
            "filled": "#A2BDDB",
          },
          "iconInputStatusImagesTint": "none",
          "placeholderTextColor": "#486485",
          "searchImageTint": "none",
          "textColor": "#ffffff",
        },
        "topAppBar": Object {
          "backgroundColor": "#02152b",
          "barStyle": "light-content",
          "iconColor": "#ffffff",
          "loading": "#030e1d",
          "textColor": "#ffffff",
        },
        "transaction": Object {
          "background": "#051931",
        },
      }
    }
    uri={null}
  >
    <View
      accessibilityIgnoresInvertColors={true}
      style={
        Object {
          "backgroundColor": undefined,
          "borderRadius": 50,
          "flex": 1,
          "overflow": "hidden",
          "padding": 36,
          "position": "relative",
        }
      }
    >
      <Image
        borderRadius={17}
        onLoad={[Function]}
        source={
          Object {
            "uri": null,
          }
        }
        style={
          Object {
            "bottom": 0,
            "flex": 1,
            "height": undefined,
            "left": 0,
            "position": "absolute",
            "right": 0,
            "top": 0,
            "width": undefined,
          }
        }
        testID="RNE__Image"
        theme={
          Object {
            "colors": Object {
              "black": "#242424",
              "disabled": "hsl(208, 8%, 90%)",
              "divider": "#bcbbc1",
              "error": "#ff190c",
              "grey0": "#393e42",
              "grey1": "#43484d",
              "grey2": "#5e6977",
              "grey3": "#86939e",
              "grey4": "#bdc6cf",
              "grey5": "#e1e8ee",
              "greyOutline": "#bbb",
              "platform": Object {
                "android": Object {
                  "error": "#f44336",
                  "grey": "rgba(0, 0, 0, 0.54)",
                  "primary": "#2196f3",
                  "searchBg": "#dcdce1",
                  "secondary": "#9C27B0",
                  "success": "#4caf50",
                  "warning": "#ffeb3b",
                },
                "default": Object {
                  "error": "#ff3b30",
                  "grey": "#7d7d7d",
                  "primary": "#007aff",
                  "searchBg": "#dcdce1",
                  "secondary": "#5856d6",
                  "success": "#4cd964",
                  "warning": "#ffcc00",
                },
                "ios": Object {
                  "error": "#ff3b30",
                  "grey": "#7d7d7d",
                  "primary": "#007aff",
                  "searchBg": "#dcdce1",
                  "secondary": "#5856d6",
                  "success": "#4cd964",
                  "warning": "#ffcc00",
                },
                "web": Object {
                  "error": "#ff190c",
                  "grey": "#393e42",
                  "primary": "#2089dc",
                  "searchBg": "#303337",
                  "secondary": "#ca71eb",
                  "success": "#52c41a",
                  "warning": "#faad14",
                },
              },
              "primary": "#2089dc",
              "searchBg": "#303337",
              "secondary": "#ca71eb",
              "success": "#52c41a",
              "warning": "#faad14",
              "white": "#ffffff",
            },
          }
        }
        transition={true}
        transitionDuration={360}
      />
      <View
        accessibilityElementsHidden={true}
        importantForAccessibility="no-hide-descendants"
        pointerEvents="none"
        style={
          Object {
            "bottom": 0,
            "left": 0,
            "opacity": 1,
            "position": "absolute",
            "right": 0,
            "top": 0,
          }
        }
      >
        <View
          style={
            Object {
              "alignItems": "center",
              "backgroundColor": "transparent",
              "flex": 1,
              "height": undefined,
              "justifyContent": "center",
              "width": undefined,
            }
          }
          testID="RNE__Image__placeholder"
        >
          <Text
            style={
              Object {
                "backgroundColor": "transparent",
                "color": "#ffffff",
                "fontSize": 17,
                "textAlign": "center",
              }
            }
          >
            J
          </Text>
        </View>
      </View>
      <View
        style={
          Object {
            "flex": 1,
            "height": undefined,
            "width": undefined,
          }
        }
        testID="RNE__Image__children__container"
      />
    </View>
  </View>
</View>
`;

exports[`Avatar Should work as expected 4`] = `
<View
  style={
    Array [
      Object {},
    ]
  }
>
  <View
    accessibilityLabel="avatarTestId"
    activeOpacity={0.7}
    forwardedComponent={
      Object {
        "$$typeof": Symbol(react.forward_ref),
        "Accessory": [Function],
        "attrs": Array [
          [Function],
        ],
        "displayName": "Styled(Themed.Avatar)",
        "inlineStyle": InlineStyle {
          "rules": Array [
            "",
          ],
        },
        "render": [Function],
        "shouldForwardProp": undefined,
        "styledComponentId": "StyledNativeComponent",
        "target": [Function],
        "withComponent": [Function],
      }
    }
    forwardedRef={null}
    style={
      Array [
        Object {},
      ]
    }
    testID="avatarTestId"
    theme={
      Object {
        "FilterIcon": Object {
          "process": [Function],
        },
        "button": Object {
          "backgroundColor": Object {
            "disabled": "#45586D",
          },
          "textColor": Object {
            "disabled": "#748291",
          },
        },
        "calendar": Object {
          "defaultDateColor": "#09BAD0",
          "defaultDateColorWithOpacity": "rgba(9, 186, 208, 0.5)",
          "selectedDayTextColor": "#FFFFFF",
        },
        "card": Object {
          "availableBalance": "#A2BDDB",
          "backgroundColor": "#102c4b",
          "dividerBgColor": "#445870",
          "textColor": "#ffffff",
        },
        "carousel": Object {
          "indicatorColor": "#445870",
        },
        "circle": Object {
          "dashboardBgColor": "#153961",
          "overviewBgColor": "#153961",
        },
        "circularGraphBackground": "#02152B",
        "color": Object {
          "BACKGROUND_100": "#102C4B",
          "BACKGROUND_200": "#07203C",
          "BACKGROUND_300": "#02152B",
          "DISABLED_STATUS": "#45586D",
          "GREEN_STATUS": "#84D268",
          "HIGH_EMPHASIS": "#A2BDDB",
          "ORANGE_STATUS": "#FF8A00",
          "PRIMARY_DEFAULT": "#00539F",
          "PRIMARY_DISABLED": "#8DA0B2",
          "PRIMARY_PRESSED": "#004585",
          "RED_STATUS": "#F65A4C",
          "SECONDARY_DEFAULT": "#09BAD0",
          "SECONDARY_DISABLED": "#B4CDD0",
          "SECONDARY_PRESSED": "#08A2B5",
          "TEXT_100_HIGH": "#A2BDDB",
          "TEXT_200_MEDIUIM": "#51667C",
          "TEXT_300_HIGH": "#FFFFFF",
          "TEXT_300_LOW": "#445870",
          "YELLOW_STATUS": "#F9DE7D",
        },
        "customizeDashboard": Object {
          "customizeText": "#FFFFFF",
        },
        "dashboard": Object {
          "tabIcon": Object {
            "process": [Function],
          },
        },
        "defaultColor": "#09BAD0",
        "displayOptionsTooltip": Object {
          "divider": "#486485",
          "tooltip": "#18416E",
          "widgetHeaderIcon": " #2a69af",
        },
        "filterTransaction": Object {
          "calendarInputBorder": "#02152B",
          "divider": "#445870",
          "numberOfFiltersCircle": "#163E69",
          "placeholderText": "#445870",
        },
        "guidedTourTooltip": Object {
          "background": "#18416E",
        },
        "layout": Object {
          "backgroundColor": "#051931",
          "src": Object {
            "process": [Function],
          },
        },
        "logoSrc": Object {
          "process": [Function],
        },
        "mainTopMenuItems": Object {
          "color": "#ffffff",
        },
        "modal": Object {
          "backgroundColor": "#102C4B",
        },
        "passwordInput": Object {
          "mode": "dark",
          "src": Object {
            "process": [Function],
          },
        },
        "reminder": Object {
          "yellow": Object {
            "backgroundColor": "#F2EBC3",
            "borderColor": "#BDA726",
            "textColor": "#7E6F1B",
          },
        },
        "sidebar": Object {
          "headerBg": "#010E1D",
        },
        "skeletonPlaceholder": Object {
          "backgroundColor": "#486788",
          "highlightColor": "#f5f5f5",
        },
        "tab": Object {
          "activeTintColor": "#09BAD0",
          "backgroundColor": "#010E1D",
          "boxShadow": "0px -2px 32px #04172D",
        },
        "tabNavigator": Object {
          "borderBottomColor": "#445870",
        },
        "text": Object {
          "textColor": "#ffffff",
        },
        "textInput": Object {
          "backgroundColor": Object {
            "active": "#02152B",
            "correct": "#02152B",
            "default": "#02152b",
            "disabled": "#051931",
            "error": "#02152B",
            "filled": "#02152B",
          },
          "border": Object {
            "active": "1px solid #09BAD0",
            "correct": "1px solid #84D268",
            "default": "transparent",
            "disabled": "transparent",
            "error": "1px solid #F65A4C",
            "filled": "transparent",
          },
          "calendarActiveTint": "none",
          "dividerColor": "#445870",
          "helperTextColor": Object {
            "active": "#A2BDDB",
            "correct": "#A2BDDB",
            "default": "#A2BDDB",
            "disabled": "#A2BDDB",
            "error": "#F65A4C",
            "filled": "#A2BDDB",
          },
          "iconInputStatusImagesTint": "none",
          "placeholderTextColor": "#486485",
          "searchImageTint": "none",
          "textColor": "#ffffff",
        },
        "topAppBar": Object {
          "backgroundColor": "#02152b",
          "barStyle": "light-content",
          "iconColor": "#ffffff",
          "loading": "#030e1d",
          "textColor": "#ffffff",
        },
        "transaction": Object {
          "background": "#051931",
        },
      }
    }
    uri={null}
  >
    <View
      accessibilityIgnoresInvertColors={true}
      style={
        Object {
          "backgroundColor": undefined,
          "borderRadius": 50,
          "flex": 1,
          "overflow": "hidden",
          "padding": 36,
          "position": "relative",
        }
      }
    >
      <Image
        borderRadius={17}
        onLoad={[Function]}
        source={
          Object {
            "uri": null,
          }
        }
        style={
          Object {
            "bottom": 0,
            "flex": 1,
            "height": undefined,
            "left": 0,
            "position": "absolute",
            "right": 0,
            "top": 0,
            "width": undefined,
          }
        }
        testID="RNE__Image"
        theme={
          Object {
            "colors": Object {
              "black": "#242424",
              "disabled": "hsl(208, 8%, 90%)",
              "divider": "#bcbbc1",
              "error": "#ff190c",
              "grey0": "#393e42",
              "grey1": "#43484d",
              "grey2": "#5e6977",
              "grey3": "#86939e",
              "grey4": "#bdc6cf",
              "grey5": "#e1e8ee",
              "greyOutline": "#bbb",
              "platform": Object {
                "android": Object {
                  "error": "#f44336",
                  "grey": "rgba(0, 0, 0, 0.54)",
                  "primary": "#2196f3",
                  "searchBg": "#dcdce1",
                  "secondary": "#9C27B0",
                  "success": "#4caf50",
                  "warning": "#ffeb3b",
                },
                "default": Object {
                  "error": "#ff3b30",
                  "grey": "#7d7d7d",
                  "primary": "#007aff",
                  "searchBg": "#dcdce1",
                  "secondary": "#5856d6",
                  "success": "#4cd964",
                  "warning": "#ffcc00",
                },
                "ios": Object {
                  "error": "#ff3b30",
                  "grey": "#7d7d7d",
                  "primary": "#007aff",
                  "searchBg": "#dcdce1",
                  "secondary": "#5856d6",
                  "success": "#4cd964",
                  "warning": "#ffcc00",
                },
                "web": Object {
                  "error": "#ff190c",
                  "grey": "#393e42",
                  "primary": "#2089dc",
                  "searchBg": "#303337",
                  "secondary": "#ca71eb",
                  "success": "#52c41a",
                  "warning": "#faad14",
                },
              },
              "primary": "#2089dc",
              "searchBg": "#303337",
              "secondary": "#ca71eb",
              "success": "#52c41a",
              "warning": "#faad14",
              "white": "#ffffff",
            },
          }
        }
        transition={true}
        transitionDuration={360}
      />
      <View
        accessibilityElementsHidden={true}
        importantForAccessibility="no-hide-descendants"
        pointerEvents="none"
        style={
          Object {
            "bottom": 0,
            "left": 0,
            "opacity": 1,
            "position": "absolute",
            "right": 0,
            "top": 0,
          }
        }
      >
        <View
          style={
            Object {
              "alignItems": "center",
              "backgroundColor": "transparent",
              "flex": 1,
              "height": undefined,
              "justifyContent": "center",
              "width": undefined,
            }
          }
          testID="RNE__Image__placeholder"
        >
          <Text
            style={
              Object {
                "backgroundColor": "transparent",
                "color": "#ffffff",
                "fontSize": 17,
                "textAlign": "center",
              }
            }
          >
            M
          </Text>
        </View>
      </View>
      <View
        style={
          Object {
            "flex": 1,
            "height": undefined,
            "width": undefined,
          }
        }
        testID="RNE__Image__children__container"
      />
    </View>
  </View>
</View>
`;

exports[`Avatar Should work as expected 5`] = `
<View
  style={
    Array [
      Object {},
    ]
  }
>
  <View
    accessibilityLabel="avatarTestId"
    activeOpacity={0.7}
    forwardedComponent={
      Object {
        "$$typeof": Symbol(react.forward_ref),
        "Accessory": [Function],
        "attrs": Array [
          [Function],
        ],
        "displayName": "Styled(Themed.Avatar)",
        "inlineStyle": InlineStyle {
          "rules": Array [
            "",
          ],
        },
        "render": [Function],
        "shouldForwardProp": undefined,
        "styledComponentId": "StyledNativeComponent",
        "target": [Function],
        "withComponent": [Function],
      }
    }
    forwardedRef={null}
    style={
      Array [
        Object {},
      ]
    }
    testID="avatarTestId"
    theme={
      Object {
        "FilterIcon": Object {
          "process": [Function],
        },
        "button": Object {
          "backgroundColor": Object {
            "disabled": "#45586D",
          },
          "textColor": Object {
            "disabled": "#748291",
          },
        },
        "calendar": Object {
          "defaultDateColor": "#09BAD0",
          "defaultDateColorWithOpacity": "rgba(9, 186, 208, 0.5)",
          "selectedDayTextColor": "#FFFFFF",
        },
        "card": Object {
          "availableBalance": "#A2BDDB",
          "backgroundColor": "#102c4b",
          "dividerBgColor": "#445870",
          "textColor": "#ffffff",
        },
        "carousel": Object {
          "indicatorColor": "#445870",
        },
        "circle": Object {
          "dashboardBgColor": "#153961",
          "overviewBgColor": "#153961",
        },
        "circularGraphBackground": "#02152B",
        "color": Object {
          "BACKGROUND_100": "#102C4B",
          "BACKGROUND_200": "#07203C",
          "BACKGROUND_300": "#02152B",
          "DISABLED_STATUS": "#45586D",
          "GREEN_STATUS": "#84D268",
          "HIGH_EMPHASIS": "#A2BDDB",
          "ORANGE_STATUS": "#FF8A00",
          "PRIMARY_DEFAULT": "#00539F",
          "PRIMARY_DISABLED": "#8DA0B2",
          "PRIMARY_PRESSED": "#004585",
          "RED_STATUS": "#F65A4C",
          "SECONDARY_DEFAULT": "#09BAD0",
          "SECONDARY_DISABLED": "#B4CDD0",
          "SECONDARY_PRESSED": "#08A2B5",
          "TEXT_100_HIGH": "#A2BDDB",
          "TEXT_200_MEDIUIM": "#51667C",
          "TEXT_300_HIGH": "#FFFFFF",
          "TEXT_300_LOW": "#445870",
          "YELLOW_STATUS": "#F9DE7D",
        },
        "customizeDashboard": Object {
          "customizeText": "#FFFFFF",
        },
        "dashboard": Object {
          "tabIcon": Object {
            "process": [Function],
          },
        },
        "defaultColor": "#09BAD0",
        "displayOptionsTooltip": Object {
          "divider": "#486485",
          "tooltip": "#18416E",
          "widgetHeaderIcon": " #2a69af",
        },
        "filterTransaction": Object {
          "calendarInputBorder": "#02152B",
          "divider": "#445870",
          "numberOfFiltersCircle": "#163E69",
          "placeholderText": "#445870",
        },
        "guidedTourTooltip": Object {
          "background": "#18416E",
        },
        "layout": Object {
          "backgroundColor": "#051931",
          "src": Object {
            "process": [Function],
          },
        },
        "logoSrc": Object {
          "process": [Function],
        },
        "mainTopMenuItems": Object {
          "color": "#ffffff",
        },
        "modal": Object {
          "backgroundColor": "#102C4B",
        },
        "passwordInput": Object {
          "mode": "dark",
          "src": Object {
            "process": [Function],
          },
        },
        "reminder": Object {
          "yellow": Object {
            "backgroundColor": "#F2EBC3",
            "borderColor": "#BDA726",
            "textColor": "#7E6F1B",
          },
        },
        "sidebar": Object {
          "headerBg": "#010E1D",
        },
        "skeletonPlaceholder": Object {
          "backgroundColor": "#486788",
          "highlightColor": "#f5f5f5",
        },
        "tab": Object {
          "activeTintColor": "#09BAD0",
          "backgroundColor": "#010E1D",
          "boxShadow": "0px -2px 32px #04172D",
        },
        "tabNavigator": Object {
          "borderBottomColor": "#445870",
        },
        "text": Object {
          "textColor": "#ffffff",
        },
        "textInput": Object {
          "backgroundColor": Object {
            "active": "#02152B",
            "correct": "#02152B",
            "default": "#02152b",
            "disabled": "#051931",
            "error": "#02152B",
            "filled": "#02152B",
          },
          "border": Object {
            "active": "1px solid #09BAD0",
            "correct": "1px solid #84D268",
            "default": "transparent",
            "disabled": "transparent",
            "error": "1px solid #F65A4C",
            "filled": "transparent",
          },
          "calendarActiveTint": "none",
          "dividerColor": "#445870",
          "helperTextColor": Object {
            "active": "#A2BDDB",
            "correct": "#A2BDDB",
            "default": "#A2BDDB",
            "disabled": "#A2BDDB",
            "error": "#F65A4C",
            "filled": "#A2BDDB",
          },
          "iconInputStatusImagesTint": "none",
          "placeholderTextColor": "#486485",
          "searchImageTint": "none",
          "textColor": "#ffffff",
        },
        "topAppBar": Object {
          "backgroundColor": "#02152b",
          "barStyle": "light-content",
          "iconColor": "#ffffff",
          "loading": "#030e1d",
          "textColor": "#ffffff",
        },
        "transaction": Object {
          "background": "#051931",
        },
      }
    }
    uri={null}
  >
    <View
      accessibilityIgnoresInvertColors={true}
      style={
        Object {
          "backgroundColor": undefined,
          "borderRadius": 50,
          "flex": 1,
          "overflow": "hidden",
          "padding": 36,
          "position": "relative",
        }
      }
    >
      <Image
        borderRadius={17}
        onLoad={[Function]}
        source={
          Object {
            "uri": null,
          }
        }
        style={
          Object {
            "bottom": 0,
            "flex": 1,
            "height": undefined,
            "left": 0,
            "position": "absolute",
            "right": 0,
            "top": 0,
            "width": undefined,
          }
        }
        testID="RNE__Image"
        theme={
          Object {
            "colors": Object {
              "black": "#242424",
              "disabled": "hsl(208, 8%, 90%)",
              "divider": "#bcbbc1",
              "error": "#ff190c",
              "grey0": "#393e42",
              "grey1": "#43484d",
              "grey2": "#5e6977",
              "grey3": "#86939e",
              "grey4": "#bdc6cf",
              "grey5": "#e1e8ee",
              "greyOutline": "#bbb",
              "platform": Object {
                "android": Object {
                  "error": "#f44336",
                  "grey": "rgba(0, 0, 0, 0.54)",
                  "primary": "#2196f3",
                  "searchBg": "#dcdce1",
                  "secondary": "#9C27B0",
                  "success": "#4caf50",
                  "warning": "#ffeb3b",
                },
                "default": Object {
                  "error": "#ff3b30",
                  "grey": "#7d7d7d",
                  "primary": "#007aff",
                  "searchBg": "#dcdce1",
                  "secondary": "#5856d6",
                  "success": "#4cd964",
                  "warning": "#ffcc00",
                },
                "ios": Object {
                  "error": "#ff3b30",
                  "grey": "#7d7d7d",
                  "primary": "#007aff",
                  "searchBg": "#dcdce1",
                  "secondary": "#5856d6",
                  "success": "#4cd964",
                  "warning": "#ffcc00",
                },
                "web": Object {
                  "error": "#ff190c",
                  "grey": "#393e42",
                  "primary": "#2089dc",
                  "searchBg": "#303337",
                  "secondary": "#ca71eb",
                  "success": "#52c41a",
                  "warning": "#faad14",
                },
              },
              "primary": "#2089dc",
              "searchBg": "#303337",
              "secondary": "#ca71eb",
              "success": "#52c41a",
              "warning": "#faad14",
              "white": "#ffffff",
            },
          }
        }
        transition={true}
        transitionDuration={360}
      />
      <View
        accessibilityElementsHidden={true}
        importantForAccessibility="no-hide-descendants"
        pointerEvents="none"
        style={
          Object {
            "bottom": 0,
            "left": 0,
            "opacity": 1,
            "position": "absolute",
            "right": 0,
            "top": 0,
          }
        }
      >
        <View
          style={
            Object {
              "alignItems": "center",
              "backgroundColor": "transparent",
              "flex": 1,
              "height": undefined,
              "justifyContent": "center",
              "width": undefined,
            }
          }
          testID="RNE__Image__placeholder"
        >
          <Text
            style={
              Object {
                "backgroundColor": "transparent",
                "color": "#ffffff",
                "fontSize": 17,
                "textAlign": "center",
              }
            }
          >
            M
          </Text>
        </View>
      </View>
      <View
        style={
          Object {
            "flex": 1,
            "height": undefined,
            "width": undefined,
          }
        }
        testID="RNE__Image__children__container"
      />
    </View>
  </View>
</View>
`;

exports[`Avatar Should work as expected 6`] = `
<View
  style={
    Array [
      Object {},
    ]
  }
>
  <View
    accessibilityLabel="avatarTestId"
    activeOpacity={0.7}
    forwardedComponent={
      Object {
        "$$typeof": Symbol(react.forward_ref),
        "Accessory": [Function],
        "attrs": Array [
          [Function],
        ],
        "displayName": "Styled(Themed.Avatar)",
        "inlineStyle": InlineStyle {
          "rules": Array [
            "",
          ],
        },
        "render": [Function],
        "shouldForwardProp": undefined,
        "styledComponentId": "StyledNativeComponent",
        "target": [Function],
        "withComponent": [Function],
      }
    }
    forwardedRef={null}
    style={
      Array [
        Object {},
      ]
    }
    testID="avatarTestId"
    theme={
      Object {
        "FilterIcon": Object {
          "process": [Function],
        },
        "button": Object {
          "backgroundColor": Object {
            "disabled": "#45586D",
          },
          "textColor": Object {
            "disabled": "#748291",
          },
        },
        "calendar": Object {
          "defaultDateColor": "#09BAD0",
          "defaultDateColorWithOpacity": "rgba(9, 186, 208, 0.5)",
          "selectedDayTextColor": "#FFFFFF",
        },
        "card": Object {
          "availableBalance": "#A2BDDB",
          "backgroundColor": "#102c4b",
          "dividerBgColor": "#445870",
          "textColor": "#ffffff",
        },
        "carousel": Object {
          "indicatorColor": "#445870",
        },
        "circle": Object {
          "dashboardBgColor": "#153961",
          "overviewBgColor": "#153961",
        },
        "circularGraphBackground": "#02152B",
        "color": Object {
          "BACKGROUND_100": "#102C4B",
          "BACKGROUND_200": "#07203C",
          "BACKGROUND_300": "#02152B",
          "DISABLED_STATUS": "#45586D",
          "GREEN_STATUS": "#84D268",
          "HIGH_EMPHASIS": "#A2BDDB",
          "ORANGE_STATUS": "#FF8A00",
          "PRIMARY_DEFAULT": "#00539F",
          "PRIMARY_DISABLED": "#8DA0B2",
          "PRIMARY_PRESSED": "#004585",
          "RED_STATUS": "#F65A4C",
          "SECONDARY_DEFAULT": "#09BAD0",
          "SECONDARY_DISABLED": "#B4CDD0",
          "SECONDARY_PRESSED": "#08A2B5",
          "TEXT_100_HIGH": "#A2BDDB",
          "TEXT_200_MEDIUIM": "#51667C",
          "TEXT_300_HIGH": "#FFFFFF",
          "TEXT_300_LOW": "#445870",
          "YELLOW_STATUS": "#F9DE7D",
        },
        "customizeDashboard": Object {
          "customizeText": "#FFFFFF",
        },
        "dashboard": Object {
          "tabIcon": Object {
            "process": [Function],
          },
        },
        "defaultColor": "#09BAD0",
        "displayOptionsTooltip": Object {
          "divider": "#486485",
          "tooltip": "#18416E",
          "widgetHeaderIcon": " #2a69af",
        },
        "filterTransaction": Object {
          "calendarInputBorder": "#02152B",
          "divider": "#445870",
          "numberOfFiltersCircle": "#163E69",
          "placeholderText": "#445870",
        },
        "guidedTourTooltip": Object {
          "background": "#18416E",
        },
        "layout": Object {
          "backgroundColor": "#051931",
          "src": Object {
            "process": [Function],
          },
        },
        "logoSrc": Object {
          "process": [Function],
        },
        "mainTopMenuItems": Object {
          "color": "#ffffff",
        },
        "modal": Object {
          "backgroundColor": "#102C4B",
        },
        "passwordInput": Object {
          "mode": "dark",
          "src": Object {
            "process": [Function],
          },
        },
        "reminder": Object {
          "yellow": Object {
            "backgroundColor": "#F2EBC3",
            "borderColor": "#BDA726",
            "textColor": "#7E6F1B",
          },
        },
        "sidebar": Object {
          "headerBg": "#010E1D",
        },
        "skeletonPlaceholder": Object {
          "backgroundColor": "#486788",
          "highlightColor": "#f5f5f5",
        },
        "tab": Object {
          "activeTintColor": "#09BAD0",
          "backgroundColor": "#010E1D",
          "boxShadow": "0px -2px 32px #04172D",
        },
        "tabNavigator": Object {
          "borderBottomColor": "#445870",
        },
        "text": Object {
          "textColor": "#ffffff",
        },
        "textInput": Object {
          "backgroundColor": Object {
            "active": "#02152B",
            "correct": "#02152B",
            "default": "#02152b",
            "disabled": "#051931",
            "error": "#02152B",
            "filled": "#02152B",
          },
          "border": Object {
            "active": "1px solid #09BAD0",
            "correct": "1px solid #84D268",
            "default": "transparent",
            "disabled": "transparent",
            "error": "1px solid #F65A4C",
            "filled": "transparent",
          },
          "calendarActiveTint": "none",
          "dividerColor": "#445870",
          "helperTextColor": Object {
            "active": "#A2BDDB",
            "correct": "#A2BDDB",
            "default": "#A2BDDB",
            "disabled": "#A2BDDB",
            "error": "#F65A4C",
            "filled": "#A2BDDB",
          },
          "iconInputStatusImagesTint": "none",
          "placeholderTextColor": "#486485",
          "searchImageTint": "none",
          "textColor": "#ffffff",
        },
        "topAppBar": Object {
          "backgroundColor": "#02152b",
          "barStyle": "light-content",
          "iconColor": "#ffffff",
          "loading": "#030e1d",
          "textColor": "#ffffff",
        },
        "transaction": Object {
          "background": "#051931",
        },
      }
    }
    uri={null}
  >
    <View
      accessibilityIgnoresInvertColors={true}
      style={
        Object {
          "backgroundColor": undefined,
          "borderRadius": 50,
          "flex": 1,
          "overflow": "hidden",
          "padding": 36,
          "position": "relative",
        }
      }
    >
      <Image
        borderRadius={17}
        onLoad={[Function]}
        source={
          Object {
            "uri": null,
          }
        }
        style={
          Object {
            "bottom": 0,
            "flex": 1,
            "height": undefined,
            "left": 0,
            "position": "absolute",
            "right": 0,
            "top": 0,
            "width": undefined,
          }
        }
        testID="RNE__Image"
        theme={
          Object {
            "colors": Object {
              "black": "#242424",
              "disabled": "hsl(208, 8%, 90%)",
              "divider": "#bcbbc1",
              "error": "#ff190c",
              "grey0": "#393e42",
              "grey1": "#43484d",
              "grey2": "#5e6977",
              "grey3": "#86939e",
              "grey4": "#bdc6cf",
              "grey5": "#e1e8ee",
              "greyOutline": "#bbb",
              "platform": Object {
                "android": Object {
                  "error": "#f44336",
                  "grey": "rgba(0, 0, 0, 0.54)",
                  "primary": "#2196f3",
                  "searchBg": "#dcdce1",
                  "secondary": "#9C27B0",
                  "success": "#4caf50",
                  "warning": "#ffeb3b",
                },
                "default": Object {
                  "error": "#ff3b30",
                  "grey": "#7d7d7d",
                  "primary": "#007aff",
                  "searchBg": "#dcdce1",
                  "secondary": "#5856d6",
                  "success": "#4cd964",
                  "warning": "#ffcc00",
                },
                "ios": Object {
                  "error": "#ff3b30",
                  "grey": "#7d7d7d",
                  "primary": "#007aff",
                  "searchBg": "#dcdce1",
                  "secondary": "#5856d6",
                  "success": "#4cd964",
                  "warning": "#ffcc00",
                },
                "web": Object {
                  "error": "#ff190c",
                  "grey": "#393e42",
                  "primary": "#2089dc",
                  "searchBg": "#303337",
                  "secondary": "#ca71eb",
                  "success": "#52c41a",
                  "warning": "#faad14",
                },
              },
              "primary": "#2089dc",
              "searchBg": "#303337",
              "secondary": "#ca71eb",
              "success": "#52c41a",
              "warning": "#faad14",
              "white": "#ffffff",
            },
          }
        }
        transition={true}
        transitionDuration={360}
      />
      <View
        accessibilityElementsHidden={true}
        importantForAccessibility="no-hide-descendants"
        pointerEvents="none"
        style={
          Object {
            "bottom": 0,
            "left": 0,
            "opacity": 1,
            "position": "absolute",
            "right": 0,
            "top": 0,
          }
        }
      >
        <View
          style={
            Object {
              "alignItems": "center",
              "backgroundColor": "transparent",
              "flex": 1,
              "height": undefined,
              "justifyContent": "center",
              "width": undefined,
            }
          }
          testID="RNE__Image__placeholder"
        >
          <Text
            style={
              Object {
                "backgroundColor": "transparent",
                "color": "#ffffff",
                "fontSize": 17,
                "textAlign": "center",
              }
            }
          >
            M
          </Text>
        </View>
      </View>
      <View
        style={
          Object {
            "flex": 1,
            "height": undefined,
            "width": undefined,
          }
        }
        testID="RNE__Image__children__container"
      />
    </View>
  </View>
</View>
`;

exports[`Avatar Should work as expected 7`] = `
<View
  style={
    Array [
      Object {},
    ]
  }
>
  <View
    accessibilityLabel="avatarTestId"
    activeOpacity={0.7}
    forwardedComponent={
      Object {
        "$$typeof": Symbol(react.forward_ref),
        "Accessory": [Function],
        "attrs": Array [
          [Function],
        ],
        "displayName": "Styled(Themed.Avatar)",
        "inlineStyle": InlineStyle {
          "rules": Array [
            "",
          ],
        },
        "render": [Function],
        "shouldForwardProp": undefined,
        "styledComponentId": "StyledNativeComponent",
        "target": [Function],
        "withComponent": [Function],
      }
    }
    forwardedRef={null}
    style={
      Array [
        Object {},
      ]
    }
    testID="avatarTestId"
    theme={
      Object {
        "FilterIcon": Object {
          "process": [Function],
        },
        "button": Object {
          "backgroundColor": Object {
            "disabled": "#45586D",
          },
          "textColor": Object {
            "disabled": "#748291",
          },
        },
        "calendar": Object {
          "defaultDateColor": "#09BAD0",
          "defaultDateColorWithOpacity": "rgba(9, 186, 208, 0.5)",
          "selectedDayTextColor": "#FFFFFF",
        },
        "card": Object {
          "availableBalance": "#A2BDDB",
          "backgroundColor": "#102c4b",
          "dividerBgColor": "#445870",
          "textColor": "#ffffff",
        },
        "carousel": Object {
          "indicatorColor": "#445870",
        },
        "circle": Object {
          "dashboardBgColor": "#153961",
          "overviewBgColor": "#153961",
        },
        "circularGraphBackground": "#02152B",
        "color": Object {
          "BACKGROUND_100": "#102C4B",
          "BACKGROUND_200": "#07203C",
          "BACKGROUND_300": "#02152B",
          "DISABLED_STATUS": "#45586D",
          "GREEN_STATUS": "#84D268",
          "HIGH_EMPHASIS": "#A2BDDB",
          "ORANGE_STATUS": "#FF8A00",
          "PRIMARY_DEFAULT": "#00539F",
          "PRIMARY_DISABLED": "#8DA0B2",
          "PRIMARY_PRESSED": "#004585",
          "RED_STATUS": "#F65A4C",
          "SECONDARY_DEFAULT": "#09BAD0",
          "SECONDARY_DISABLED": "#B4CDD0",
          "SECONDARY_PRESSED": "#08A2B5",
          "TEXT_100_HIGH": "#A2BDDB",
          "TEXT_200_MEDIUIM": "#51667C",
          "TEXT_300_HIGH": "#FFFFFF",
          "TEXT_300_LOW": "#445870",
          "YELLOW_STATUS": "#F9DE7D",
        },
        "customizeDashboard": Object {
          "customizeText": "#FFFFFF",
        },
        "dashboard": Object {
          "tabIcon": Object {
            "process": [Function],
          },
        },
        "defaultColor": "#09BAD0",
        "displayOptionsTooltip": Object {
          "divider": "#486485",
          "tooltip": "#18416E",
          "widgetHeaderIcon": " #2a69af",
        },
        "filterTransaction": Object {
          "calendarInputBorder": "#02152B",
          "divider": "#445870",
          "numberOfFiltersCircle": "#163E69",
          "placeholderText": "#445870",
        },
        "guidedTourTooltip": Object {
          "background": "#18416E",
        },
        "layout": Object {
          "backgroundColor": "#051931",
          "src": Object {
            "process": [Function],
          },
        },
        "logoSrc": Object {
          "process": [Function],
        },
        "mainTopMenuItems": Object {
          "color": "#ffffff",
        },
        "modal": Object {
          "backgroundColor": "#102C4B",
        },
        "passwordInput": Object {
          "mode": "dark",
          "src": Object {
            "process": [Function],
          },
        },
        "reminder": Object {
          "yellow": Object {
            "backgroundColor": "#F2EBC3",
            "borderColor": "#BDA726",
            "textColor": "#7E6F1B",
          },
        },
        "sidebar": Object {
          "headerBg": "#010E1D",
        },
        "skeletonPlaceholder": Object {
          "backgroundColor": "#486788",
          "highlightColor": "#f5f5f5",
        },
        "tab": Object {
          "activeTintColor": "#09BAD0",
          "backgroundColor": "#010E1D",
          "boxShadow": "0px -2px 32px #04172D",
        },
        "tabNavigator": Object {
          "borderBottomColor": "#445870",
        },
        "text": Object {
          "textColor": "#ffffff",
        },
        "textInput": Object {
          "backgroundColor": Object {
            "active": "#02152B",
            "correct": "#02152B",
            "default": "#02152b",
            "disabled": "#051931",
            "error": "#02152B",
            "filled": "#02152B",
          },
          "border": Object {
            "active": "1px solid #09BAD0",
            "correct": "1px solid #84D268",
            "default": "transparent",
            "disabled": "transparent",
            "error": "1px solid #F65A4C",
            "filled": "transparent",
          },
          "calendarActiveTint": "none",
          "dividerColor": "#445870",
          "helperTextColor": Object {
            "active": "#A2BDDB",
            "correct": "#A2BDDB",
            "default": "#A2BDDB",
            "disabled": "#A2BDDB",
            "error": "#F65A4C",
            "filled": "#A2BDDB",
          },
          "iconInputStatusImagesTint": "none",
          "placeholderTextColor": "#486485",
          "searchImageTint": "none",
          "textColor": "#ffffff",
        },
        "topAppBar": Object {
          "backgroundColor": "#02152b",
          "barStyle": "light-content",
          "iconColor": "#ffffff",
          "loading": "#030e1d",
          "textColor": "#ffffff",
        },
        "transaction": Object {
          "background": "#051931",
        },
      }
    }
    uri={null}
  >
    <View
      accessibilityIgnoresInvertColors={true}
      style={
        Object {
          "backgroundColor": undefined,
          "borderRadius": 50,
          "flex": 1,
          "overflow": "hidden",
          "padding": 36,
          "position": "relative",
        }
      }
    >
      <Image
        borderRadius={17}
        onLoad={[Function]}
        source={
          Object {
            "uri": null,
          }
        }
        style={
          Object {
            "bottom": 0,
            "flex": 1,
            "height": undefined,
            "left": 0,
            "position": "absolute",
            "right": 0,
            "top": 0,
            "width": undefined,
          }
        }
        testID="RNE__Image"
        theme={
          Object {
            "colors": Object {
              "black": "#242424",
              "disabled": "hsl(208, 8%, 90%)",
              "divider": "#bcbbc1",
              "error": "#ff190c",
              "grey0": "#393e42",
              "grey1": "#43484d",
              "grey2": "#5e6977",
              "grey3": "#86939e",
              "grey4": "#bdc6cf",
              "grey5": "#e1e8ee",
              "greyOutline": "#bbb",
              "platform": Object {
                "android": Object {
                  "error": "#f44336",
                  "grey": "rgba(0, 0, 0, 0.54)",
                  "primary": "#2196f3",
                  "searchBg": "#dcdce1",
                  "secondary": "#9C27B0",
                  "success": "#4caf50",
                  "warning": "#ffeb3b",
                },
                "default": Object {
                  "error": "#ff3b30",
                  "grey": "#7d7d7d",
                  "primary": "#007aff",
                  "searchBg": "#dcdce1",
                  "secondary": "#5856d6",
                  "success": "#4cd964",
                  "warning": "#ffcc00",
                },
                "ios": Object {
                  "error": "#ff3b30",
                  "grey": "#7d7d7d",
                  "primary": "#007aff",
                  "searchBg": "#dcdce1",
                  "secondary": "#5856d6",
                  "success": "#4cd964",
                  "warning": "#ffcc00",
                },
                "web": Object {
                  "error": "#ff190c",
                  "grey": "#393e42",
                  "primary": "#2089dc",
                  "searchBg": "#303337",
                  "secondary": "#ca71eb",
                  "success": "#52c41a",
                  "warning": "#faad14",
                },
              },
              "primary": "#2089dc",
              "searchBg": "#303337",
              "secondary": "#ca71eb",
              "success": "#52c41a",
              "warning": "#faad14",
              "white": "#ffffff",
            },
          }
        }
        transition={true}
        transitionDuration={360}
      />
      <View
        accessibilityElementsHidden={true}
        importantForAccessibility="no-hide-descendants"
        pointerEvents="none"
        style={
          Object {
            "bottom": 0,
            "left": 0,
            "opacity": 1,
            "position": "absolute",
            "right": 0,
            "top": 0,
          }
        }
      >
        <View
          style={
            Object {
              "alignItems": "center",
              "backgroundColor": "transparent",
              "flex": 1,
              "height": undefined,
              "justifyContent": "center",
              "width": undefined,
            }
          }
          testID="RNE__Image__placeholder"
        >
          <Text
            style={
              Object {
                "backgroundColor": "transparent",
                "color": "#ffffff",
                "fontSize": 17,
                "textAlign": "center",
              }
            }
          >
            M
          </Text>
        </View>
      </View>
      <View
        style={
          Object {
            "flex": 1,
            "height": undefined,
            "width": undefined,
          }
        }
        testID="RNE__Image__children__container"
      />
    </View>
  </View>
</View>
`;
