// Jest Snapshot v1, https://goo.gl/fbAQLP

exports[`StyledPassword Would work properly 1`] = `
<View
  style={
    Array [
      Object {
        "marginTop": 48,
      },
    ]
  }
>
  <View
    style={
      Array [
        Object {
          "alignItems": "flex-start",
        },
      ]
    }
  >
    <View
      style={
        Array [
          Object {
            "alignItems": "center",
            "flexDirection": "row",
            "paddingBottom": 18,
            "paddingLeft": 0,
            "paddingRight": 0,
            "paddingTop": 0,
          },
        ]
      }
    >
      <Text
        accessibilityLabel="passwordInputIdLabel"
        style={
          Array [
            Object {
              "color": "#ffffff",
              "fontFamily": "Myriad Pro",
              "fontSize": 22.5,
              "fontStyle": "normal",
              "fontWeight": "normal",
              "lineHeight": 25.5,
            },
          ]
        }
        testID="passwordInputIdLabel"
        theme={
          Object {
            "FilterIcon": Object {
              "process": [Function],
            },
            "button": Object {
              "backgroundColor": Object {
                "disabled": "#45586D",
              },
              "textColor": Object {
                "disabled": "#748291",
              },
            },
            "calendar": Object {
              "defaultDateColor": "#09BAD0",
              "defaultDateColorWithOpacity": "rgba(9, 186, 208, 0.5)",
              "selectedDayTextColor": "#FFFFFF",
            },
            "card": Object {
              "availableBalance": "#A2BDDB",
              "backgroundColor": "#102c4b",
              "dividerBgColor": "#445870",
              "textColor": "#ffffff",
            },
            "carousel": Object {
              "indicatorColor": "#445870",
            },
            "circle": Object {
              "dashboardBgColor": "#153961",
              "overviewBgColor": "#153961",
            },
            "circularGraphBackground": "#02152B",
            "color": Object {
              "BACKGROUND_100": "#102C4B",
              "BACKGROUND_200": "#07203C",
              "BACKGROUND_300": "#02152B",
              "DISABLED_STATUS": "#45586D",
              "GREEN_STATUS": "#84D268",
              "HIGH_EMPHASIS": "#A2BDDB",
              "ORANGE_STATUS": "#FF8A00",
              "PRIMARY_DEFAULT": "#00539F",
              "PRIMARY_DISABLED": "#8DA0B2",
              "PRIMARY_PRESSED": "#004585",
              "RED_STATUS": "#F65A4C",
              "SECONDARY_DEFAULT": "#09BAD0",
              "SECONDARY_DISABLED": "#B4CDD0",
              "SECONDARY_PRESSED": "#08A2B5",
              "TEXT_100_HIGH": "#A2BDDB",
              "TEXT_200_MEDIUIM": "#51667C",
              "TEXT_300_HIGH": "#FFFFFF",
              "TEXT_300_LOW": "#445870",
              "YELLOW_STATUS": "#F9DE7D",
            },
            "customizeDashboard": Object {
              "customizeText": "#FFFFFF",
            },
            "dashboard": Object {
              "tabIcon": Object {
                "process": [Function],
              },
            },
            "defaultColor": "#09BAD0",
            "displayOptionsTooltip": Object {
              "divider": "#486485",
              "tooltip": "#18416E",
              "widgetHeaderIcon": " #2a69af",
            },
            "filterTransaction": Object {
              "calendarInputBorder": "#02152B",
              "divider": "#445870",
              "numberOfFiltersCircle": "#163E69",
              "placeholderText": "#445870",
            },
            "guidedTourTooltip": Object {
              "background": "#18416E",
            },
            "layout": Object {
              "backgroundColor": "#051931",
              "src": Object {
                "process": [Function],
              },
            },
            "logoSrc": Object {
              "process": [Function],
            },
            "mainTopMenuItems": Object {
              "color": "#ffffff",
            },
            "modal": Object {
              "backgroundColor": "#102C4B",
            },
            "passwordInput": Object {
              "mode": "dark",
              "src": Object {
                "process": [Function],
              },
            },
            "reminder": Object {
              "yellow": Object {
                "backgroundColor": "#F2EBC3",
                "borderColor": "#BDA726",
                "textColor": "#7E6F1B",
              },
            },
            "sidebar": Object {
              "headerBg": "#010E1D",
            },
            "skeletonPlaceholder": Object {
              "backgroundColor": "#486788",
              "highlightColor": "#f5f5f5",
            },
            "tab": Object {
              "activeTintColor": "#09BAD0",
              "backgroundColor": "#010E1D",
              "boxShadow": "0px -2px 32px #04172D",
            },
            "tabNavigator": Object {
              "borderBottomColor": "#445870",
            },
            "text": Object {
              "textColor": "#ffffff",
            },
            "textInput": Object {
              "backgroundColor": Object {
                "active": "#02152B",
                "correct": "#02152B",
                "default": "#02152b",
                "disabled": "#051931",
                "error": "#02152B",
                "filled": "#02152B",
              },
              "border": Object {
                "active": "1px solid #09BAD0",
                "correct": "1px solid #84D268",
                "default": "transparent",
                "disabled": "transparent",
                "error": "1px solid #F65A4C",
                "filled": "transparent",
              },
              "calendarActiveTint": "none",
              "dividerColor": "#445870",
              "helperTextColor": Object {
                "active": "#A2BDDB",
                "correct": "#A2BDDB",
                "default": "#A2BDDB",
                "disabled": "#A2BDDB",
                "error": "#F65A4C",
                "filled": "#A2BDDB",
              },
              "iconInputStatusImagesTint": "none",
              "placeholderTextColor": "#486485",
              "searchImageTint": "none",
              "textColor": "#ffffff",
            },
            "topAppBar": Object {
              "backgroundColor": "#02152b",
              "barStyle": "light-content",
              "iconColor": "#ffffff",
              "loading": "#030e1d",
              "textColor": "#ffffff",
            },
            "transaction": Object {
              "background": "#051931",
            },
          }
        }
      >
        Password
      </Text>
    </View>
    <View
      state="error"
      style={
        Array [
          Object {
            "alignItems": "center",
            "backgroundColor": "transparent",
            "borderColor": "transparent",
            "borderRadius": 4,
            "borderStyle": "solid",
            "borderWidth": 1,
            "flexDirection": "row",
            "height": 72,
            "paddingBottom": 16,
            "paddingRight": 15,
            "paddingTop": 16,
          },
        ]
      }
    >
      <View
        accessible={true}
        focusable={true}
        onBlur={[Function]}
        onClick={[Function]}
        onFocus={[Function]}
        onResponderGrant={[Function]}
        onResponderMove={[Function]}
        onResponderRelease={[Function]}
        onResponderTerminate={[Function]}
        onResponderTerminationRequest={[Function]}
        onStartShouldSetResponder={[Function]}
      >
        <View
          style={
            Array [
              Object {
                "alignItems": "center",
                "flexBasis": 0,
                "flexDirection": "row",
                "flexGrow": 4,
                "flexShrink": 1,
              },
            ]
          }
        >
          <View
            style={
              Array [
                Object {
                  "paddingBottom": 10.5,
                  "paddingLeft": 22.5,
                  "paddingRight": 22.5,
                  "paddingTop": 7.5,
                },
              ]
            }
          >
            <Image
              accessibilityLabel="passwordInputIdIcon"
              resizeMode="cover"
              state="error"
              style={
                Array [
                  Object {
                    "height": 27,
                    "marginHorizontal": -4,
                    "width": 27,
                  },
                ]
              }
              testID="passwordInputIdIcon"
              theme={
                Object {
                  "FilterIcon": Object {
                    "process": [Function],
                  },
                  "button": Object {
                    "backgroundColor": Object {
                      "disabled": "#45586D",
                    },
                    "textColor": Object {
                      "disabled": "#748291",
                    },
                  },
                  "calendar": Object {
                    "defaultDateColor": "#09BAD0",
                    "defaultDateColorWithOpacity": "rgba(9, 186, 208, 0.5)",
                    "selectedDayTextColor": "#FFFFFF",
                  },
                  "card": Object {
                    "availableBalance": "#A2BDDB",
                    "backgroundColor": "#102c4b",
                    "dividerBgColor": "#445870",
                    "textColor": "#ffffff",
                  },
                  "carousel": Object {
                    "indicatorColor": "#445870",
                  },
                  "circle": Object {
                    "dashboardBgColor": "#153961",
                    "overviewBgColor": "#153961",
                  },
                  "circularGraphBackground": "#02152B",
                  "color": Object {
                    "BACKGROUND_100": "#102C4B",
                    "BACKGROUND_200": "#07203C",
                    "BACKGROUND_300": "#02152B",
                    "DISABLED_STATUS": "#45586D",
                    "GREEN_STATUS": "#84D268",
                    "HIGH_EMPHASIS": "#A2BDDB",
                    "ORANGE_STATUS": "#FF8A00",
                    "PRIMARY_DEFAULT": "#00539F",
                    "PRIMARY_DISABLED": "#8DA0B2",
                    "PRIMARY_PRESSED": "#004585",
                    "RED_STATUS": "#F65A4C",
                    "SECONDARY_DEFAULT": "#09BAD0",
                    "SECONDARY_DISABLED": "#B4CDD0",
                    "SECONDARY_PRESSED": "#08A2B5",
                    "TEXT_100_HIGH": "#A2BDDB",
                    "TEXT_200_MEDIUIM": "#51667C",
                    "TEXT_300_HIGH": "#FFFFFF",
                    "TEXT_300_LOW": "#445870",
                    "YELLOW_STATUS": "#F9DE7D",
                  },
                  "customizeDashboard": Object {
                    "customizeText": "#FFFFFF",
                  },
                  "dashboard": Object {
                    "tabIcon": Object {
                      "process": [Function],
                    },
                  },
                  "defaultColor": "#09BAD0",
                  "displayOptionsTooltip": Object {
                    "divider": "#486485",
                    "tooltip": "#18416E",
                    "widgetHeaderIcon": " #2a69af",
                  },
                  "filterTransaction": Object {
                    "calendarInputBorder": "#02152B",
                    "divider": "#445870",
                    "numberOfFiltersCircle": "#163E69",
                    "placeholderText": "#445870",
                  },
                  "guidedTourTooltip": Object {
                    "background": "#18416E",
                  },
                  "layout": Object {
                    "backgroundColor": "#051931",
                    "src": Object {
                      "process": [Function],
                    },
                  },
                  "logoSrc": Object {
                    "process": [Function],
                  },
                  "mainTopMenuItems": Object {
                    "color": "#ffffff",
                  },
                  "modal": Object {
                    "backgroundColor": "#102C4B",
                  },
                  "passwordInput": Object {
                    "mode": "dark",
                    "src": Object {
                      "process": [Function],
                    },
                  },
                  "reminder": Object {
                    "yellow": Object {
                      "backgroundColor": "#F2EBC3",
                      "borderColor": "#BDA726",
                      "textColor": "#7E6F1B",
                    },
                  },
                  "sidebar": Object {
                    "headerBg": "#010E1D",
                  },
                  "skeletonPlaceholder": Object {
                    "backgroundColor": "#486788",
                    "highlightColor": "#f5f5f5",
                  },
                  "tab": Object {
                    "activeTintColor": "#09BAD0",
                    "backgroundColor": "#010E1D",
                    "boxShadow": "0px -2px 32px #04172D",
                  },
                  "tabNavigator": Object {
                    "borderBottomColor": "#445870",
                  },
                  "text": Object {
                    "textColor": "#ffffff",
                  },
                  "textInput": Object {
                    "backgroundColor": Object {
                      "active": "#02152B",
                      "correct": "#02152B",
                      "default": "#02152b",
                      "disabled": "#051931",
                      "error": "#02152B",
                      "filled": "#02152B",
                    },
                    "border": Object {
                      "active": "1px solid #09BAD0",
                      "correct": "1px solid #84D268",
                      "default": "transparent",
                      "disabled": "transparent",
                      "error": "1px solid #F65A4C",
                      "filled": "transparent",
                    },
                    "calendarActiveTint": "none",
                    "dividerColor": "#445870",
                    "helperTextColor": Object {
                      "active": "#A2BDDB",
                      "correct": "#A2BDDB",
                      "default": "#A2BDDB",
                      "disabled": "#A2BDDB",
                      "error": "#F65A4C",
                      "filled": "#A2BDDB",
                    },
                    "iconInputStatusImagesTint": "none",
                    "placeholderTextColor": "#486485",
                    "searchImageTint": "none",
                    "textColor": "#ffffff",
                  },
                  "topAppBar": Object {
                    "backgroundColor": "#02152b",
                    "barStyle": "light-content",
                    "iconColor": "#ffffff",
                    "loading": "#030e1d",
                    "textColor": "#ffffff",
                  },
                  "transaction": Object {
                    "background": "#051931",
                  },
                }
              }
              tintColor="none"
            />
          </View>
          <TextInput
            accessibilityLabel="passwordInputId"
            allowFontScaling={true}
            editable={true}
            handleClear={[Function]}
            icon="password"
            maxLength={50}
            onBlur={[Function]}
            onChangeText={[Function]}
            onFocus={[Function]}
            placeholder="Enter password"
            rejectResponderTermination={true}
            secureTextEntry={true}
            showStatus={true}
            state="error"
            style={
              Array [
                Object {
                  "borderLeftColor": "transparent",
                  "borderLeftWidth": 1,
                  "color": "transparent",
                  "fontFamily": "Myriad Pro",
                  "fontSize": 27,
                  "fontStyle": "normal",
                  "fontWeight": "normal",
                  "paddingBottom": 0,
                  "paddingLeft": 22.5,
                  "paddingRight": 22.5,
                  "paddingTop": 0,
                },
              ]
            }
            testID="passwordInputId"
            textWidth="78%"
            underlineColorAndroid="transparent"
            value=""
            width="78%"
          />
        </View>
      </View>
      <View
        style={
          Array [
            Object {
              "flexBasis": 0,
              "flexDirection": "row-reverse",
              "flexGrow": 1,
              "flexShrink": 1,
            },
          ]
        }
      >
        <View
          accessibilityLabel="passwordInputIdStatusIconButton_error"
          accessible={true}
          focusable={true}
          handleClear={[Function]}
          onBlur={[Function]}
          onClick={[Function]}
          onFocus={[Function]}
          onResponderGrant={[Function]}
          onResponderMove={[Function]}
          onResponderRelease={[Function]}
          onResponderTerminate={[Function]}
          onResponderTerminationRequest={[Function]}
          onStartShouldSetResponder={[Function]}
          state="error"
          style={
            Array [
              Object {},
            ]
          }
          testID="passwordInputIdStatusIconButton_error"
          theme={
            Object {
              "FilterIcon": Object {
                "process": [Function],
              },
              "button": Object {
                "backgroundColor": Object {
                  "disabled": "#45586D",
                },
                "textColor": Object {
                  "disabled": "#748291",
                },
              },
              "calendar": Object {
                "defaultDateColor": "#09BAD0",
                "defaultDateColorWithOpacity": "rgba(9, 186, 208, 0.5)",
                "selectedDayTextColor": "#FFFFFF",
              },
              "card": Object {
                "availableBalance": "#A2BDDB",
                "backgroundColor": "#102c4b",
                "dividerBgColor": "#445870",
                "textColor": "#ffffff",
              },
              "carousel": Object {
                "indicatorColor": "#445870",
              },
              "circle": Object {
                "dashboardBgColor": "#153961",
                "overviewBgColor": "#153961",
              },
              "circularGraphBackground": "#02152B",
              "color": Object {
                "BACKGROUND_100": "#102C4B",
                "BACKGROUND_200": "#07203C",
                "BACKGROUND_300": "#02152B",
                "DISABLED_STATUS": "#45586D",
                "GREEN_STATUS": "#84D268",
                "HIGH_EMPHASIS": "#A2BDDB",
                "ORANGE_STATUS": "#FF8A00",
                "PRIMARY_DEFAULT": "#00539F",
                "PRIMARY_DISABLED": "#8DA0B2",
                "PRIMARY_PRESSED": "#004585",
                "RED_STATUS": "#F65A4C",
                "SECONDARY_DEFAULT": "#09BAD0",
                "SECONDARY_DISABLED": "#B4CDD0",
                "SECONDARY_PRESSED": "#08A2B5",
                "TEXT_100_HIGH": "#A2BDDB",
                "TEXT_200_MEDIUIM": "#51667C",
                "TEXT_300_HIGH": "#FFFFFF",
                "TEXT_300_LOW": "#445870",
                "YELLOW_STATUS": "#F9DE7D",
              },
              "customizeDashboard": Object {
                "customizeText": "#FFFFFF",
              },
              "dashboard": Object {
                "tabIcon": Object {
                  "process": [Function],
                },
              },
              "defaultColor": "#09BAD0",
              "displayOptionsTooltip": Object {
                "divider": "#486485",
                "tooltip": "#18416E",
                "widgetHeaderIcon": " #2a69af",
              },
              "filterTransaction": Object {
                "calendarInputBorder": "#02152B",
                "divider": "#445870",
                "numberOfFiltersCircle": "#163E69",
                "placeholderText": "#445870",
              },
              "guidedTourTooltip": Object {
                "background": "#18416E",
              },
              "layout": Object {
                "backgroundColor": "#051931",
                "src": Object {
                  "process": [Function],
                },
              },
              "logoSrc": Object {
                "process": [Function],
              },
              "mainTopMenuItems": Object {
                "color": "#ffffff",
              },
              "modal": Object {
                "backgroundColor": "#102C4B",
              },
              "passwordInput": Object {
                "mode": "dark",
                "src": Object {
                  "process": [Function],
                },
              },
              "reminder": Object {
                "yellow": Object {
                  "backgroundColor": "#F2EBC3",
                  "borderColor": "#BDA726",
                  "textColor": "#7E6F1B",
                },
              },
              "sidebar": Object {
                "headerBg": "#010E1D",
              },
              "skeletonPlaceholder": Object {
                "backgroundColor": "#486788",
                "highlightColor": "#f5f5f5",
              },
              "tab": Object {
                "activeTintColor": "#09BAD0",
                "backgroundColor": "#010E1D",
                "boxShadow": "0px -2px 32px #04172D",
              },
              "tabNavigator": Object {
                "borderBottomColor": "#445870",
              },
              "text": Object {
                "textColor": "#ffffff",
              },
              "textInput": Object {
                "backgroundColor": Object {
                  "active": "#02152B",
                  "correct": "#02152B",
                  "default": "#02152b",
                  "disabled": "#051931",
                  "error": "#02152B",
                  "filled": "#02152B",
                },
                "border": Object {
                  "active": "1px solid #09BAD0",
                  "correct": "1px solid #84D268",
                  "default": "transparent",
                  "disabled": "transparent",
                  "error": "1px solid #F65A4C",
                  "filled": "transparent",
                },
                "calendarActiveTint": "none",
                "dividerColor": "#445870",
                "helperTextColor": Object {
                  "active": "#A2BDDB",
                  "correct": "#A2BDDB",
                  "default": "#A2BDDB",
                  "disabled": "#A2BDDB",
                  "error": "#F65A4C",
                  "filled": "#A2BDDB",
                },
                "iconInputStatusImagesTint": "none",
                "placeholderTextColor": "#486485",
                "searchImageTint": "none",
                "textColor": "#ffffff",
              },
              "topAppBar": Object {
                "backgroundColor": "#02152b",
                "barStyle": "light-content",
                "iconColor": "#ffffff",
                "loading": "#030e1d",
                "textColor": "#ffffff",
              },
              "transaction": Object {
                "background": "#051931",
              },
            }
          }
        >
          <Image
            resizeMode="cover"
            source={
              Object {
                "process": [Function],
              }
            }
            style={
              Array [
                Object {
                  "height": 36,
                  "width": 36,
                },
              ]
            }
          />
        </View>
      </View>
    </View>
  </View>
</View>
`;

exports[`StyledPassword Would work properly 2`] = `
<View
  style={
    Array [
      Object {
        "marginTop": 48,
      },
    ]
  }
>
  <View
    style={
      Array [
        Object {
          "alignItems": "flex-start",
        },
      ]
    }
  >
    <View
      style={
        Array [
          Object {
            "alignItems": "center",
            "flexDirection": "row",
            "paddingBottom": 18,
            "paddingLeft": 0,
            "paddingRight": 0,
            "paddingTop": 0,
          },
        ]
      }
    >
      <Text
        accessibilityLabel="passwordInputIdLabel"
        style={
          Array [
            Object {
              "color": "#ffffff",
              "fontFamily": "Myriad Pro",
              "fontSize": 22.5,
              "fontStyle": "normal",
              "fontWeight": "normal",
              "lineHeight": 25.5,
            },
          ]
        }
        testID="passwordInputIdLabel"
        theme={
          Object {
            "FilterIcon": Object {
              "process": [Function],
            },
            "button": Object {
              "backgroundColor": Object {
                "disabled": "#45586D",
              },
              "textColor": Object {
                "disabled": "#748291",
              },
            },
            "calendar": Object {
              "defaultDateColor": "#09BAD0",
              "defaultDateColorWithOpacity": "rgba(9, 186, 208, 0.5)",
              "selectedDayTextColor": "#FFFFFF",
            },
            "card": Object {
              "availableBalance": "#A2BDDB",
              "backgroundColor": "#102c4b",
              "dividerBgColor": "#445870",
              "textColor": "#ffffff",
            },
            "carousel": Object {
              "indicatorColor": "#445870",
            },
            "circle": Object {
              "dashboardBgColor": "#153961",
              "overviewBgColor": "#153961",
            },
            "circularGraphBackground": "#02152B",
            "color": Object {
              "BACKGROUND_100": "#102C4B",
              "BACKGROUND_200": "#07203C",
              "BACKGROUND_300": "#02152B",
              "DISABLED_STATUS": "#45586D",
              "GREEN_STATUS": "#84D268",
              "HIGH_EMPHASIS": "#A2BDDB",
              "ORANGE_STATUS": "#FF8A00",
              "PRIMARY_DEFAULT": "#00539F",
              "PRIMARY_DISABLED": "#8DA0B2",
              "PRIMARY_PRESSED": "#004585",
              "RED_STATUS": "#F65A4C",
              "SECONDARY_DEFAULT": "#09BAD0",
              "SECONDARY_DISABLED": "#B4CDD0",
              "SECONDARY_PRESSED": "#08A2B5",
              "TEXT_100_HIGH": "#A2BDDB",
              "TEXT_200_MEDIUIM": "#51667C",
              "TEXT_300_HIGH": "#FFFFFF",
              "TEXT_300_LOW": "#445870",
              "YELLOW_STATUS": "#F9DE7D",
            },
            "customizeDashboard": Object {
              "customizeText": "#FFFFFF",
            },
            "dashboard": Object {
              "tabIcon": Object {
                "process": [Function],
              },
            },
            "defaultColor": "#09BAD0",
            "displayOptionsTooltip": Object {
              "divider": "#486485",
              "tooltip": "#18416E",
              "widgetHeaderIcon": " #2a69af",
            },
            "filterTransaction": Object {
              "calendarInputBorder": "#02152B",
              "divider": "#445870",
              "numberOfFiltersCircle": "#163E69",
              "placeholderText": "#445870",
            },
            "guidedTourTooltip": Object {
              "background": "#18416E",
            },
            "layout": Object {
              "backgroundColor": "#051931",
              "src": Object {
                "process": [Function],
              },
            },
            "logoSrc": Object {
              "process": [Function],
            },
            "mainTopMenuItems": Object {
              "color": "#ffffff",
            },
            "modal": Object {
              "backgroundColor": "#102C4B",
            },
            "passwordInput": Object {
              "mode": "dark",
              "src": Object {
                "process": [Function],
              },
            },
            "reminder": Object {
              "yellow": Object {
                "backgroundColor": "#F2EBC3",
                "borderColor": "#BDA726",
                "textColor": "#7E6F1B",
              },
            },
            "sidebar": Object {
              "headerBg": "#010E1D",
            },
            "skeletonPlaceholder": Object {
              "backgroundColor": "#486788",
              "highlightColor": "#f5f5f5",
            },
            "tab": Object {
              "activeTintColor": "#09BAD0",
              "backgroundColor": "#010E1D",
              "boxShadow": "0px -2px 32px #04172D",
            },
            "tabNavigator": Object {
              "borderBottomColor": "#445870",
            },
            "text": Object {
              "textColor": "#ffffff",
            },
            "textInput": Object {
              "backgroundColor": Object {
                "active": "#02152B",
                "correct": "#02152B",
                "default": "#02152b",
                "disabled": "#051931",
                "error": "#02152B",
                "filled": "#02152B",
              },
              "border": Object {
                "active": "1px solid #09BAD0",
                "correct": "1px solid #84D268",
                "default": "transparent",
                "disabled": "transparent",
                "error": "1px solid #F65A4C",
                "filled": "transparent",
              },
              "calendarActiveTint": "none",
              "dividerColor": "#445870",
              "helperTextColor": Object {
                "active": "#A2BDDB",
                "correct": "#A2BDDB",
                "default": "#A2BDDB",
                "disabled": "#A2BDDB",
                "error": "#F65A4C",
                "filled": "#A2BDDB",
              },
              "iconInputStatusImagesTint": "none",
              "placeholderTextColor": "#486485",
              "searchImageTint": "none",
              "textColor": "#ffffff",
            },
            "topAppBar": Object {
              "backgroundColor": "#02152b",
              "barStyle": "light-content",
              "iconColor": "#ffffff",
              "loading": "#030e1d",
              "textColor": "#ffffff",
            },
            "transaction": Object {
              "background": "#051931",
            },
          }
        }
      >
        Password
      </Text>
    </View>
    <View
      state="default"
      style={
        Array [
          Object {
            "alignItems": "center",
            "backgroundColor": "transparent",
            "borderColor": "transparent",
            "borderRadius": 4,
            "borderStyle": "solid",
            "borderWidth": 1,
            "flexDirection": "row",
            "height": 72,
            "paddingBottom": 16,
            "paddingRight": 15,
            "paddingTop": 16,
          },
        ]
      }
    >
      <View
        accessible={true}
        focusable={true}
        onBlur={[Function]}
        onClick={[Function]}
        onFocus={[Function]}
        onResponderGrant={[Function]}
        onResponderMove={[Function]}
        onResponderRelease={[Function]}
        onResponderTerminate={[Function]}
        onResponderTerminationRequest={[Function]}
        onStartShouldSetResponder={[Function]}
      >
        <View
          style={
            Array [
              Object {
                "alignItems": "center",
                "flexBasis": 0,
                "flexDirection": "row",
                "flexGrow": 4,
                "flexShrink": 1,
              },
            ]
          }
        >
          <View
            style={
              Array [
                Object {
                  "paddingBottom": 10.5,
                  "paddingLeft": 22.5,
                  "paddingRight": 22.5,
                  "paddingTop": 7.5,
                },
              ]
            }
          >
            <Image
              accessibilityLabel="passwordInputIdIcon"
              resizeMode="cover"
              state="default"
              style={
                Array [
                  Object {
                    "height": 27,
                    "marginHorizontal": -4,
                    "width": 27,
                  },
                ]
              }
              testID="passwordInputIdIcon"
              theme={
                Object {
                  "FilterIcon": Object {
                    "process": [Function],
                  },
                  "button": Object {
                    "backgroundColor": Object {
                      "disabled": "#45586D",
                    },
                    "textColor": Object {
                      "disabled": "#748291",
                    },
                  },
                  "calendar": Object {
                    "defaultDateColor": "#09BAD0",
                    "defaultDateColorWithOpacity": "rgba(9, 186, 208, 0.5)",
                    "selectedDayTextColor": "#FFFFFF",
                  },
                  "card": Object {
                    "availableBalance": "#A2BDDB",
                    "backgroundColor": "#102c4b",
                    "dividerBgColor": "#445870",
                    "textColor": "#ffffff",
                  },
                  "carousel": Object {
                    "indicatorColor": "#445870",
                  },
                  "circle": Object {
                    "dashboardBgColor": "#153961",
                    "overviewBgColor": "#153961",
                  },
                  "circularGraphBackground": "#02152B",
                  "color": Object {
                    "BACKGROUND_100": "#102C4B",
                    "BACKGROUND_200": "#07203C",
                    "BACKGROUND_300": "#02152B",
                    "DISABLED_STATUS": "#45586D",
                    "GREEN_STATUS": "#84D268",
                    "HIGH_EMPHASIS": "#A2BDDB",
                    "ORANGE_STATUS": "#FF8A00",
                    "PRIMARY_DEFAULT": "#00539F",
                    "PRIMARY_DISABLED": "#8DA0B2",
                    "PRIMARY_PRESSED": "#004585",
                    "RED_STATUS": "#F65A4C",
                    "SECONDARY_DEFAULT": "#09BAD0",
                    "SECONDARY_DISABLED": "#B4CDD0",
                    "SECONDARY_PRESSED": "#08A2B5",
                    "TEXT_100_HIGH": "#A2BDDB",
                    "TEXT_200_MEDIUIM": "#51667C",
                    "TEXT_300_HIGH": "#FFFFFF",
                    "TEXT_300_LOW": "#445870",
                    "YELLOW_STATUS": "#F9DE7D",
                  },
                  "customizeDashboard": Object {
                    "customizeText": "#FFFFFF",
                  },
                  "dashboard": Object {
                    "tabIcon": Object {
                      "process": [Function],
                    },
                  },
                  "defaultColor": "#09BAD0",
                  "displayOptionsTooltip": Object {
                    "divider": "#486485",
                    "tooltip": "#18416E",
                    "widgetHeaderIcon": " #2a69af",
                  },
                  "filterTransaction": Object {
                    "calendarInputBorder": "#02152B",
                    "divider": "#445870",
                    "numberOfFiltersCircle": "#163E69",
                    "placeholderText": "#445870",
                  },
                  "guidedTourTooltip": Object {
                    "background": "#18416E",
                  },
                  "layout": Object {
                    "backgroundColor": "#051931",
                    "src": Object {
                      "process": [Function],
                    },
                  },
                  "logoSrc": Object {
                    "process": [Function],
                  },
                  "mainTopMenuItems": Object {
                    "color": "#ffffff",
                  },
                  "modal": Object {
                    "backgroundColor": "#102C4B",
                  },
                  "passwordInput": Object {
                    "mode": "dark",
                    "src": Object {
                      "process": [Function],
                    },
                  },
                  "reminder": Object {
                    "yellow": Object {
                      "backgroundColor": "#F2EBC3",
                      "borderColor": "#BDA726",
                      "textColor": "#7E6F1B",
                    },
                  },
                  "sidebar": Object {
                    "headerBg": "#010E1D",
                  },
                  "skeletonPlaceholder": Object {
                    "backgroundColor": "#486788",
                    "highlightColor": "#f5f5f5",
                  },
                  "tab": Object {
                    "activeTintColor": "#09BAD0",
                    "backgroundColor": "#010E1D",
                    "boxShadow": "0px -2px 32px #04172D",
                  },
                  "tabNavigator": Object {
                    "borderBottomColor": "#445870",
                  },
                  "text": Object {
                    "textColor": "#ffffff",
                  },
                  "textInput": Object {
                    "backgroundColor": Object {
                      "active": "#02152B",
                      "correct": "#02152B",
                      "default": "#02152b",
                      "disabled": "#051931",
                      "error": "#02152B",
                      "filled": "#02152B",
                    },
                    "border": Object {
                      "active": "1px solid #09BAD0",
                      "correct": "1px solid #84D268",
                      "default": "transparent",
                      "disabled": "transparent",
                      "error": "1px solid #F65A4C",
                      "filled": "transparent",
                    },
                    "calendarActiveTint": "none",
                    "dividerColor": "#445870",
                    "helperTextColor": Object {
                      "active": "#A2BDDB",
                      "correct": "#A2BDDB",
                      "default": "#A2BDDB",
                      "disabled": "#A2BDDB",
                      "error": "#F65A4C",
                      "filled": "#A2BDDB",
                    },
                    "iconInputStatusImagesTint": "none",
                    "placeholderTextColor": "#486485",
                    "searchImageTint": "none",
                    "textColor": "#ffffff",
                  },
                  "topAppBar": Object {
                    "backgroundColor": "#02152b",
                    "barStyle": "light-content",
                    "iconColor": "#ffffff",
                    "loading": "#030e1d",
                    "textColor": "#ffffff",
                  },
                  "transaction": Object {
                    "background": "#051931",
                  },
                }
              }
              tintColor="none"
            />
          </View>
          <TextInput
            accessibilityLabel="passwordInputId"
            allowFontScaling={true}
            customStatus={
              <Memo(Pressable)
                accessibilityLabel="passwordInputIdClick"
                onPress={[Function]}
                testID="passwordInputIdClick"
                theme={
                  Object {
                    "FilterIcon": Object {
                      "process": [Function],
                    },
                    "button": Object {
                      "backgroundColor": Object {
                        "disabled": "#45586D",
                      },
                      "textColor": Object {
                        "disabled": "#748291",
                      },
                    },
                    "calendar": Object {
                      "defaultDateColor": "#09BAD0",
                      "defaultDateColorWithOpacity": "rgba(9, 186, 208, 0.5)",
                      "selectedDayTextColor": "#FFFFFF",
                    },
                    "card": Object {
                      "availableBalance": "#A2BDDB",
                      "backgroundColor": "#102c4b",
                      "dividerBgColor": "#445870",
                      "textColor": "#ffffff",
                    },
                    "carousel": Object {
                      "indicatorColor": "#445870",
                    },
                    "circle": Object {
                      "dashboardBgColor": "#153961",
                      "overviewBgColor": "#153961",
                    },
                    "circularGraphBackground": "#02152B",
                    "color": Object {
                      "BACKGROUND_100": "#102C4B",
                      "BACKGROUND_200": "#07203C",
                      "BACKGROUND_300": "#02152B",
                      "DISABLED_STATUS": "#45586D",
                      "GREEN_STATUS": "#84D268",
                      "HIGH_EMPHASIS": "#A2BDDB",
                      "ORANGE_STATUS": "#FF8A00",
                      "PRIMARY_DEFAULT": "#00539F",
                      "PRIMARY_DISABLED": "#8DA0B2",
                      "PRIMARY_PRESSED": "#004585",
                      "RED_STATUS": "#F65A4C",
                      "SECONDARY_DEFAULT": "#09BAD0",
                      "SECONDARY_DISABLED": "#B4CDD0",
                      "SECONDARY_PRESSED": "#08A2B5",
                      "TEXT_100_HIGH": "#A2BDDB",
                      "TEXT_200_MEDIUIM": "#51667C",
                      "TEXT_300_HIGH": "#FFFFFF",
                      "TEXT_300_LOW": "#445870",
                      "YELLOW_STATUS": "#F9DE7D",
                    },
                    "customizeDashboard": Object {
                      "customizeText": "#FFFFFF",
                    },
                    "dashboard": Object {
                      "tabIcon": Object {
                        "process": [Function],
                      },
                    },
                    "defaultColor": "#09BAD0",
                    "displayOptionsTooltip": Object {
                      "divider": "#486485",
                      "tooltip": "#18416E",
                      "widgetHeaderIcon": " #2a69af",
                    },
                    "filterTransaction": Object {
                      "calendarInputBorder": "#02152B",
                      "divider": "#445870",
                      "numberOfFiltersCircle": "#163E69",
                      "placeholderText": "#445870",
                    },
                    "guidedTourTooltip": Object {
                      "background": "#18416E",
                    },
                    "layout": Object {
                      "backgroundColor": "#051931",
                      "src": Object {
                        "process": [Function],
                      },
                    },
                    "logoSrc": Object {
                      "process": [Function],
                    },
                    "mainTopMenuItems": Object {
                      "color": "#ffffff",
                    },
                    "modal": Object {
                      "backgroundColor": "#102C4B",
                    },
                    "passwordInput": Object {
                      "mode": "dark",
                      "src": Object {
                        "process": [Function],
                      },
                    },
                    "reminder": Object {
                      "yellow": Object {
                        "backgroundColor": "#F2EBC3",
                        "borderColor": "#BDA726",
                        "textColor": "#7E6F1B",
                      },
                    },
                    "sidebar": Object {
                      "headerBg": "#010E1D",
                    },
                    "skeletonPlaceholder": Object {
                      "backgroundColor": "#486788",
                      "highlightColor": "#f5f5f5",
                    },
                    "tab": Object {
                      "activeTintColor": "#09BAD0",
                      "backgroundColor": "#010E1D",
                      "boxShadow": "0px -2px 32px #04172D",
                    },
                    "tabNavigator": Object {
                      "borderBottomColor": "#445870",
                    },
                    "text": Object {
                      "textColor": "#ffffff",
                    },
                    "textInput": Object {
                      "backgroundColor": Object {
                        "active": "#02152B",
                        "correct": "#02152B",
                        "default": "#02152b",
                        "disabled": "#051931",
                        "error": "#02152B",
                        "filled": "#02152B",
                      },
                      "border": Object {
                        "active": "1px solid #09BAD0",
                        "correct": "1px solid #84D268",
                        "default": "transparent",
                        "disabled": "transparent",
                        "error": "1px solid #F65A4C",
                        "filled": "transparent",
                      },
                      "calendarActiveTint": "none",
                      "dividerColor": "#445870",
                      "helperTextColor": Object {
                        "active": "#A2BDDB",
                        "correct": "#A2BDDB",
                        "default": "#A2BDDB",
                        "disabled": "#A2BDDB",
                        "error": "#F65A4C",
                        "filled": "#A2BDDB",
                      },
                      "iconInputStatusImagesTint": "none",
                      "placeholderTextColor": "#486485",
                      "searchImageTint": "none",
                      "textColor": "#ffffff",
                    },
                    "topAppBar": Object {
                      "backgroundColor": "#02152b",
                      "barStyle": "light-content",
                      "iconColor": "#ffffff",
                      "loading": "#030e1d",
                      "textColor": "#ffffff",
                    },
                    "transaction": Object {
                      "background": "#051931",
                    },
                  }
                }
              >
                <Styled(Image)
                  state="default"
                  theme={
                    Object {
                      "FilterIcon": Object {
                        "process": [Function],
                      },
                      "button": Object {
                        "backgroundColor": Object {
                          "disabled": "#45586D",
                        },
                        "textColor": Object {
                          "disabled": "#748291",
                        },
                      },
                      "calendar": Object {
                        "defaultDateColor": "#09BAD0",
                        "defaultDateColorWithOpacity": "rgba(9, 186, 208, 0.5)",
                        "selectedDayTextColor": "#FFFFFF",
                      },
                      "card": Object {
                        "availableBalance": "#A2BDDB",
                        "backgroundColor": "#102c4b",
                        "dividerBgColor": "#445870",
                        "textColor": "#ffffff",
                      },
                      "carousel": Object {
                        "indicatorColor": "#445870",
                      },
                      "circle": Object {
                        "dashboardBgColor": "#153961",
                        "overviewBgColor": "#153961",
                      },
                      "circularGraphBackground": "#02152B",
                      "color": Object {
                        "BACKGROUND_100": "#102C4B",
                        "BACKGROUND_200": "#07203C",
                        "BACKGROUND_300": "#02152B",
                        "DISABLED_STATUS": "#45586D",
                        "GREEN_STATUS": "#84D268",
                        "HIGH_EMPHASIS": "#A2BDDB",
                        "ORANGE_STATUS": "#FF8A00",
                        "PRIMARY_DEFAULT": "#00539F",
                        "PRIMARY_DISABLED": "#8DA0B2",
                        "PRIMARY_PRESSED": "#004585",
                        "RED_STATUS": "#F65A4C",
                        "SECONDARY_DEFAULT": "#09BAD0",
                        "SECONDARY_DISABLED": "#B4CDD0",
                        "SECONDARY_PRESSED": "#08A2B5",
                        "TEXT_100_HIGH": "#A2BDDB",
                        "TEXT_200_MEDIUIM": "#51667C",
                        "TEXT_300_HIGH": "#FFFFFF",
                        "TEXT_300_LOW": "#445870",
                        "YELLOW_STATUS": "#F9DE7D",
                      },
                      "customizeDashboard": Object {
                        "customizeText": "#FFFFFF",
                      },
                      "dashboard": Object {
                        "tabIcon": Object {
                          "process": [Function],
                        },
                      },
                      "defaultColor": "#09BAD0",
                      "displayOptionsTooltip": Object {
                        "divider": "#486485",
                        "tooltip": "#18416E",
                        "widgetHeaderIcon": " #2a69af",
                      },
                      "filterTransaction": Object {
                        "calendarInputBorder": "#02152B",
                        "divider": "#445870",
                        "numberOfFiltersCircle": "#163E69",
                        "placeholderText": "#445870",
                      },
                      "guidedTourTooltip": Object {
                        "background": "#18416E",
                      },
                      "layout": Object {
                        "backgroundColor": "#051931",
                        "src": Object {
                          "process": [Function],
                        },
                      },
                      "logoSrc": Object {
                        "process": [Function],
                      },
                      "mainTopMenuItems": Object {
                        "color": "#ffffff",
                      },
                      "modal": Object {
                        "backgroundColor": "#102C4B",
                      },
                      "passwordInput": Object {
                        "mode": "dark",
                        "src": Object {
                          "process": [Function],
                        },
                      },
                      "reminder": Object {
                        "yellow": Object {
                          "backgroundColor": "#F2EBC3",
                          "borderColor": "#BDA726",
                          "textColor": "#7E6F1B",
                        },
                      },
                      "sidebar": Object {
                        "headerBg": "#010E1D",
                      },
                      "skeletonPlaceholder": Object {
                        "backgroundColor": "#486788",
                        "highlightColor": "#f5f5f5",
                      },
                      "tab": Object {
                        "activeTintColor": "#09BAD0",
                        "backgroundColor": "#010E1D",
                        "boxShadow": "0px -2px 32px #04172D",
                      },
                      "tabNavigator": Object {
                        "borderBottomColor": "#445870",
                      },
                      "text": Object {
                        "textColor": "#ffffff",
                      },
                      "textInput": Object {
                        "backgroundColor": Object {
                          "active": "#02152B",
                          "correct": "#02152B",
                          "default": "#02152b",
                          "disabled": "#051931",
                          "error": "#02152B",
                          "filled": "#02152B",
                        },
                        "border": Object {
                          "active": "1px solid #09BAD0",
                          "correct": "1px solid #84D268",
                          "default": "transparent",
                          "disabled": "transparent",
                          "error": "1px solid #F65A4C",
                          "filled": "transparent",
                        },
                        "calendarActiveTint": "none",
                        "dividerColor": "#445870",
                        "helperTextColor": Object {
                          "active": "#A2BDDB",
                          "correct": "#A2BDDB",
                          "default": "#A2BDDB",
                          "disabled": "#A2BDDB",
                          "error": "#F65A4C",
                          "filled": "#A2BDDB",
                        },
                        "iconInputStatusImagesTint": "none",
                        "placeholderTextColor": "#486485",
                        "searchImageTint": "none",
                        "textColor": "#ffffff",
                      },
                      "topAppBar": Object {
                        "backgroundColor": "#02152b",
                        "barStyle": "light-content",
                        "iconColor": "#ffffff",
                        "loading": "#030e1d",
                        "textColor": "#ffffff",
                      },
                      "transaction": Object {
                        "background": "#051931",
                      },
                    }
                  }
                  value="Test"
                  visible={false}
                />
              </Memo(Pressable)>
            }
            editable={true}
            handleClear={[Function]}
            icon="password"
            maxLength={50}
            onBlur={[Function]}
            onChangeText={[Function]}
            onFocus={[Function]}
            placeholder="Enter password"
            rejectResponderTermination={true}
            secureTextEntry={true}
            showStatus={true}
            state="default"
            style={
              Array [
                Object {
                  "borderLeftColor": "transparent",
                  "borderLeftWidth": 1,
                  "color": "transparent",
                  "fontFamily": "Myriad Pro",
                  "fontSize": 27,
                  "fontStyle": "normal",
                  "fontWeight": "normal",
                  "paddingBottom": 0,
                  "paddingLeft": 22.5,
                  "paddingRight": 22.5,
                  "paddingTop": 0,
                },
              ]
            }
            testID="passwordInputId"
            textWidth="78%"
            underlineColorAndroid="transparent"
            value="Test"
            width="78%"
          />
        </View>
      </View>
      <View
        style={
          Array [
            Object {
              "flexBasis": 0,
              "flexDirection": "row-reverse",
              "flexGrow": 1,
              "flexShrink": 1,
            },
          ]
        }
      >
        <View
          accessibilityLabel="passwordInputIdStatusIconButton_default"
          accessible={true}
          focusable={true}
          handleClear={[Function]}
          onBlur={[Function]}
          onClick={[Function]}
          onFocus={[Function]}
          onResponderGrant={[Function]}
          onResponderMove={[Function]}
          onResponderRelease={[Function]}
          onResponderTerminate={[Function]}
          onResponderTerminationRequest={[Function]}
          onStartShouldSetResponder={[Function]}
          state="default"
          style={
            Array [
              Object {},
            ]
          }
          testID="passwordInputIdStatusIconButton_default"
          theme={
            Object {
              "FilterIcon": Object {
                "process": [Function],
              },
              "button": Object {
                "backgroundColor": Object {
                  "disabled": "#45586D",
                },
                "textColor": Object {
                  "disabled": "#748291",
                },
              },
              "calendar": Object {
                "defaultDateColor": "#09BAD0",
                "defaultDateColorWithOpacity": "rgba(9, 186, 208, 0.5)",
                "selectedDayTextColor": "#FFFFFF",
              },
              "card": Object {
                "availableBalance": "#A2BDDB",
                "backgroundColor": "#102c4b",
                "dividerBgColor": "#445870",
                "textColor": "#ffffff",
              },
              "carousel": Object {
                "indicatorColor": "#445870",
              },
              "circle": Object {
                "dashboardBgColor": "#153961",
                "overviewBgColor": "#153961",
              },
              "circularGraphBackground": "#02152B",
              "color": Object {
                "BACKGROUND_100": "#102C4B",
                "BACKGROUND_200": "#07203C",
                "BACKGROUND_300": "#02152B",
                "DISABLED_STATUS": "#45586D",
                "GREEN_STATUS": "#84D268",
                "HIGH_EMPHASIS": "#A2BDDB",
                "ORANGE_STATUS": "#FF8A00",
                "PRIMARY_DEFAULT": "#00539F",
                "PRIMARY_DISABLED": "#8DA0B2",
                "PRIMARY_PRESSED": "#004585",
                "RED_STATUS": "#F65A4C",
                "SECONDARY_DEFAULT": "#09BAD0",
                "SECONDARY_DISABLED": "#B4CDD0",
                "SECONDARY_PRESSED": "#08A2B5",
                "TEXT_100_HIGH": "#A2BDDB",
                "TEXT_200_MEDIUIM": "#51667C",
                "TEXT_300_HIGH": "#FFFFFF",
                "TEXT_300_LOW": "#445870",
                "YELLOW_STATUS": "#F9DE7D",
              },
              "customizeDashboard": Object {
                "customizeText": "#FFFFFF",
              },
              "dashboard": Object {
                "tabIcon": Object {
                  "process": [Function],
                },
              },
              "defaultColor": "#09BAD0",
              "displayOptionsTooltip": Object {
                "divider": "#486485",
                "tooltip": "#18416E",
                "widgetHeaderIcon": " #2a69af",
              },
              "filterTransaction": Object {
                "calendarInputBorder": "#02152B",
                "divider": "#445870",
                "numberOfFiltersCircle": "#163E69",
                "placeholderText": "#445870",
              },
              "guidedTourTooltip": Object {
                "background": "#18416E",
              },
              "layout": Object {
                "backgroundColor": "#051931",
                "src": Object {
                  "process": [Function],
                },
              },
              "logoSrc": Object {
                "process": [Function],
              },
              "mainTopMenuItems": Object {
                "color": "#ffffff",
              },
              "modal": Object {
                "backgroundColor": "#102C4B",
              },
              "passwordInput": Object {
                "mode": "dark",
                "src": Object {
                  "process": [Function],
                },
              },
              "reminder": Object {
                "yellow": Object {
                  "backgroundColor": "#F2EBC3",
                  "borderColor": "#BDA726",
                  "textColor": "#7E6F1B",
                },
              },
              "sidebar": Object {
                "headerBg": "#010E1D",
              },
              "skeletonPlaceholder": Object {
                "backgroundColor": "#486788",
                "highlightColor": "#f5f5f5",
              },
              "tab": Object {
                "activeTintColor": "#09BAD0",
                "backgroundColor": "#010E1D",
                "boxShadow": "0px -2px 32px #04172D",
              },
              "tabNavigator": Object {
                "borderBottomColor": "#445870",
              },
              "text": Object {
                "textColor": "#ffffff",
              },
              "textInput": Object {
                "backgroundColor": Object {
                  "active": "#02152B",
                  "correct": "#02152B",
                  "default": "#02152b",
                  "disabled": "#051931",
                  "error": "#02152B",
                  "filled": "#02152B",
                },
                "border": Object {
                  "active": "1px solid #09BAD0",
                  "correct": "1px solid #84D268",
                  "default": "transparent",
                  "disabled": "transparent",
                  "error": "1px solid #F65A4C",
                  "filled": "transparent",
                },
                "calendarActiveTint": "none",
                "dividerColor": "#445870",
                "helperTextColor": Object {
                  "active": "#A2BDDB",
                  "correct": "#A2BDDB",
                  "default": "#A2BDDB",
                  "disabled": "#A2BDDB",
                  "error": "#F65A4C",
                  "filled": "#A2BDDB",
                },
                "iconInputStatusImagesTint": "none",
                "placeholderTextColor": "#486485",
                "searchImageTint": "none",
                "textColor": "#ffffff",
              },
              "topAppBar": Object {
                "backgroundColor": "#02152b",
                "barStyle": "light-content",
                "iconColor": "#ffffff",
                "loading": "#030e1d",
                "textColor": "#ffffff",
              },
              "transaction": Object {
                "background": "#051931",
              },
            }
          }
        >
          <View
            accessibilityLabel="passwordInputIdClick"
            accessible={true}
            focusable={true}
            onBlur={[Function]}
            onClick={[Function]}
            onFocus={[Function]}
            onResponderGrant={[Function]}
            onResponderMove={[Function]}
            onResponderRelease={[Function]}
            onResponderTerminate={[Function]}
            onResponderTerminationRequest={[Function]}
            onStartShouldSetResponder={[Function]}
            testID="passwordInputIdClick"
            theme={
              Object {
                "FilterIcon": Object {
                  "process": [Function],
                },
                "button": Object {
                  "backgroundColor": Object {
                    "disabled": "#45586D",
                  },
                  "textColor": Object {
                    "disabled": "#748291",
                  },
                },
                "calendar": Object {
                  "defaultDateColor": "#09BAD0",
                  "defaultDateColorWithOpacity": "rgba(9, 186, 208, 0.5)",
                  "selectedDayTextColor": "#FFFFFF",
                },
                "card": Object {
                  "availableBalance": "#A2BDDB",
                  "backgroundColor": "#102c4b",
                  "dividerBgColor": "#445870",
                  "textColor": "#ffffff",
                },
                "carousel": Object {
                  "indicatorColor": "#445870",
                },
                "circle": Object {
                  "dashboardBgColor": "#153961",
                  "overviewBgColor": "#153961",
                },
                "circularGraphBackground": "#02152B",
                "color": Object {
                  "BACKGROUND_100": "#102C4B",
                  "BACKGROUND_200": "#07203C",
                  "BACKGROUND_300": "#02152B",
                  "DISABLED_STATUS": "#45586D",
                  "GREEN_STATUS": "#84D268",
                  "HIGH_EMPHASIS": "#A2BDDB",
                  "ORANGE_STATUS": "#FF8A00",
                  "PRIMARY_DEFAULT": "#00539F",
                  "PRIMARY_DISABLED": "#8DA0B2",
                  "PRIMARY_PRESSED": "#004585",
                  "RED_STATUS": "#F65A4C",
                  "SECONDARY_DEFAULT": "#09BAD0",
                  "SECONDARY_DISABLED": "#B4CDD0",
                  "SECONDARY_PRESSED": "#08A2B5",
                  "TEXT_100_HIGH": "#A2BDDB",
                  "TEXT_200_MEDIUIM": "#51667C",
                  "TEXT_300_HIGH": "#FFFFFF",
                  "TEXT_300_LOW": "#445870",
                  "YELLOW_STATUS": "#F9DE7D",
                },
                "customizeDashboard": Object {
                  "customizeText": "#FFFFFF",
                },
                "dashboard": Object {
                  "tabIcon": Object {
                    "process": [Function],
                  },
                },
                "defaultColor": "#09BAD0",
                "displayOptionsTooltip": Object {
                  "divider": "#486485",
                  "tooltip": "#18416E",
                  "widgetHeaderIcon": " #2a69af",
                },
                "filterTransaction": Object {
                  "calendarInputBorder": "#02152B",
                  "divider": "#445870",
                  "numberOfFiltersCircle": "#163E69",
                  "placeholderText": "#445870",
                },
                "guidedTourTooltip": Object {
                  "background": "#18416E",
                },
                "layout": Object {
                  "backgroundColor": "#051931",
                  "src": Object {
                    "process": [Function],
                  },
                },
                "logoSrc": Object {
                  "process": [Function],
                },
                "mainTopMenuItems": Object {
                  "color": "#ffffff",
                },
                "modal": Object {
                  "backgroundColor": "#102C4B",
                },
                "passwordInput": Object {
                  "mode": "dark",
                  "src": Object {
                    "process": [Function],
                  },
                },
                "reminder": Object {
                  "yellow": Object {
                    "backgroundColor": "#F2EBC3",
                    "borderColor": "#BDA726",
                    "textColor": "#7E6F1B",
                  },
                },
                "sidebar": Object {
                  "headerBg": "#010E1D",
                },
                "skeletonPlaceholder": Object {
                  "backgroundColor": "#486788",
                  "highlightColor": "#f5f5f5",
                },
                "tab": Object {
                  "activeTintColor": "#09BAD0",
                  "backgroundColor": "#010E1D",
                  "boxShadow": "0px -2px 32px #04172D",
                },
                "tabNavigator": Object {
                  "borderBottomColor": "#445870",
                },
                "text": Object {
                  "textColor": "#ffffff",
                },
                "textInput": Object {
                  "backgroundColor": Object {
                    "active": "#02152B",
                    "correct": "#02152B",
                    "default": "#02152b",
                    "disabled": "#051931",
                    "error": "#02152B",
                    "filled": "#02152B",
                  },
                  "border": Object {
                    "active": "1px solid #09BAD0",
                    "correct": "1px solid #84D268",
                    "default": "transparent",
                    "disabled": "transparent",
                    "error": "1px solid #F65A4C",
                    "filled": "transparent",
                  },
                  "calendarActiveTint": "none",
                  "dividerColor": "#445870",
                  "helperTextColor": Object {
                    "active": "#A2BDDB",
                    "correct": "#A2BDDB",
                    "default": "#A2BDDB",
                    "disabled": "#A2BDDB",
                    "error": "#F65A4C",
                    "filled": "#A2BDDB",
                  },
                  "iconInputStatusImagesTint": "none",
                  "placeholderTextColor": "#486485",
                  "searchImageTint": "none",
                  "textColor": "#ffffff",
                },
                "topAppBar": Object {
                  "backgroundColor": "#02152b",
                  "barStyle": "light-content",
                  "iconColor": "#ffffff",
                  "loading": "#030e1d",
                  "textColor": "#ffffff",
                },
                "transaction": Object {
                  "background": "#051931",
                },
              }
            }
          >
            <Image
              resizeMode="cover"
              source={
                Object {
                  "process": [Function],
                }
              }
              state="default"
              style={
                Array [
                  Object {
                    "height": 33.405,
                    "width": 36,
                  },
                ]
              }
              theme={
                Object {
                  "FilterIcon": Object {
                    "process": [Function],
                  },
                  "button": Object {
                    "backgroundColor": Object {
                      "disabled": "#45586D",
                    },
                    "textColor": Object {
                      "disabled": "#748291",
                    },
                  },
                  "calendar": Object {
                    "defaultDateColor": "#09BAD0",
                    "defaultDateColorWithOpacity": "rgba(9, 186, 208, 0.5)",
                    "selectedDayTextColor": "#FFFFFF",
                  },
                  "card": Object {
                    "availableBalance": "#A2BDDB",
                    "backgroundColor": "#102c4b",
                    "dividerBgColor": "#445870",
                    "textColor": "#ffffff",
                  },
                  "carousel": Object {
                    "indicatorColor": "#445870",
                  },
                  "circle": Object {
                    "dashboardBgColor": "#153961",
                    "overviewBgColor": "#153961",
                  },
                  "circularGraphBackground": "#02152B",
                  "color": Object {
                    "BACKGROUND_100": "#102C4B",
                    "BACKGROUND_200": "#07203C",
                    "BACKGROUND_300": "#02152B",
                    "DISABLED_STATUS": "#45586D",
                    "GREEN_STATUS": "#84D268",
                    "HIGH_EMPHASIS": "#A2BDDB",
                    "ORANGE_STATUS": "#FF8A00",
                    "PRIMARY_DEFAULT": "#00539F",
                    "PRIMARY_DISABLED": "#8DA0B2",
                    "PRIMARY_PRESSED": "#004585",
                    "RED_STATUS": "#F65A4C",
                    "SECONDARY_DEFAULT": "#09BAD0",
                    "SECONDARY_DISABLED": "#B4CDD0",
                    "SECONDARY_PRESSED": "#08A2B5",
                    "TEXT_100_HIGH": "#A2BDDB",
                    "TEXT_200_MEDIUIM": "#51667C",
                    "TEXT_300_HIGH": "#FFFFFF",
                    "TEXT_300_LOW": "#445870",
                    "YELLOW_STATUS": "#F9DE7D",
                  },
                  "customizeDashboard": Object {
                    "customizeText": "#FFFFFF",
                  },
                  "dashboard": Object {
                    "tabIcon": Object {
                      "process": [Function],
                    },
                  },
                  "defaultColor": "#09BAD0",
                  "displayOptionsTooltip": Object {
                    "divider": "#486485",
                    "tooltip": "#18416E",
                    "widgetHeaderIcon": " #2a69af",
                  },
                  "filterTransaction": Object {
                    "calendarInputBorder": "#02152B",
                    "divider": "#445870",
                    "numberOfFiltersCircle": "#163E69",
                    "placeholderText": "#445870",
                  },
                  "guidedTourTooltip": Object {
                    "background": "#18416E",
                  },
                  "layout": Object {
                    "backgroundColor": "#051931",
                    "src": Object {
                      "process": [Function],
                    },
                  },
                  "logoSrc": Object {
                    "process": [Function],
                  },
                  "mainTopMenuItems": Object {
                    "color": "#ffffff",
                  },
                  "modal": Object {
                    "backgroundColor": "#102C4B",
                  },
                  "passwordInput": Object {
                    "mode": "dark",
                    "src": Object {
                      "process": [Function],
                    },
                  },
                  "reminder": Object {
                    "yellow": Object {
                      "backgroundColor": "#F2EBC3",
                      "borderColor": "#BDA726",
                      "textColor": "#7E6F1B",
                    },
                  },
                  "sidebar": Object {
                    "headerBg": "#010E1D",
                  },
                  "skeletonPlaceholder": Object {
                    "backgroundColor": "#486788",
                    "highlightColor": "#f5f5f5",
                  },
                  "tab": Object {
                    "activeTintColor": "#09BAD0",
                    "backgroundColor": "#010E1D",
                    "boxShadow": "0px -2px 32px #04172D",
                  },
                  "tabNavigator": Object {
                    "borderBottomColor": "#445870",
                  },
                  "text": Object {
                    "textColor": "#ffffff",
                  },
                  "textInput": Object {
                    "backgroundColor": Object {
                      "active": "#02152B",
                      "correct": "#02152B",
                      "default": "#02152b",
                      "disabled": "#051931",
                      "error": "#02152B",
                      "filled": "#02152B",
                    },
                    "border": Object {
                      "active": "1px solid #09BAD0",
                      "correct": "1px solid #84D268",
                      "default": "transparent",
                      "disabled": "transparent",
                      "error": "1px solid #F65A4C",
                      "filled": "transparent",
                    },
                    "calendarActiveTint": "none",
                    "dividerColor": "#445870",
                    "helperTextColor": Object {
                      "active": "#A2BDDB",
                      "correct": "#A2BDDB",
                      "default": "#A2BDDB",
                      "disabled": "#A2BDDB",
                      "error": "#F65A4C",
                      "filled": "#A2BDDB",
                    },
                    "iconInputStatusImagesTint": "none",
                    "placeholderTextColor": "#486485",
                    "searchImageTint": "none",
                    "textColor": "#ffffff",
                  },
                  "topAppBar": Object {
                    "backgroundColor": "#02152b",
                    "barStyle": "light-content",
                    "iconColor": "#ffffff",
                    "loading": "#030e1d",
                    "textColor": "#ffffff",
                  },
                  "transaction": Object {
                    "background": "#051931",
                  },
                }
              }
              value="Test"
              visible={false}
            />
          </View>
        </View>
      </View>
    </View>
    <View
      accessibilityLabel="Password"
      style={
        Array [
          Object {
            "paddingBottom": 0,
            "paddingLeft": 0,
            "paddingRight": 0,
            "paddingTop": 12,
          },
        ]
      }
      testID="Password"
      theme={
        Object {
          "FilterIcon": Object {
            "process": [Function],
          },
          "button": Object {
            "backgroundColor": Object {
              "disabled": "#45586D",
            },
            "textColor": Object {
              "disabled": "#748291",
            },
          },
          "calendar": Object {
            "defaultDateColor": "#09BAD0",
            "defaultDateColorWithOpacity": "rgba(9, 186, 208, 0.5)",
            "selectedDayTextColor": "#FFFFFF",
          },
          "card": Object {
            "availableBalance": "#A2BDDB",
            "backgroundColor": "#102c4b",
            "dividerBgColor": "#445870",
            "textColor": "#ffffff",
          },
          "carousel": Object {
            "indicatorColor": "#445870",
          },
          "circle": Object {
            "dashboardBgColor": "#153961",
            "overviewBgColor": "#153961",
          },
          "circularGraphBackground": "#02152B",
          "color": Object {
            "BACKGROUND_100": "#102C4B",
            "BACKGROUND_200": "#07203C",
            "BACKGROUND_300": "#02152B",
            "DISABLED_STATUS": "#45586D",
            "GREEN_STATUS": "#84D268",
            "HIGH_EMPHASIS": "#A2BDDB",
            "ORANGE_STATUS": "#FF8A00",
            "PRIMARY_DEFAULT": "#00539F",
            "PRIMARY_DISABLED": "#8DA0B2",
            "PRIMARY_PRESSED": "#004585",
            "RED_STATUS": "#F65A4C",
            "SECONDARY_DEFAULT": "#09BAD0",
            "SECONDARY_DISABLED": "#B4CDD0",
            "SECONDARY_PRESSED": "#08A2B5",
            "TEXT_100_HIGH": "#A2BDDB",
            "TEXT_200_MEDIUIM": "#51667C",
            "TEXT_300_HIGH": "#FFFFFF",
            "TEXT_300_LOW": "#445870",
            "YELLOW_STATUS": "#F9DE7D",
          },
          "customizeDashboard": Object {
            "customizeText": "#FFFFFF",
          },
          "dashboard": Object {
            "tabIcon": Object {
              "process": [Function],
            },
          },
          "defaultColor": "#09BAD0",
          "displayOptionsTooltip": Object {
            "divider": "#486485",
            "tooltip": "#18416E",
            "widgetHeaderIcon": " #2a69af",
          },
          "filterTransaction": Object {
            "calendarInputBorder": "#02152B",
            "divider": "#445870",
            "numberOfFiltersCircle": "#163E69",
            "placeholderText": "#445870",
          },
          "guidedTourTooltip": Object {
            "background": "#18416E",
          },
          "layout": Object {
            "backgroundColor": "#051931",
            "src": Object {
              "process": [Function],
            },
          },
          "logoSrc": Object {
            "process": [Function],
          },
          "mainTopMenuItems": Object {
            "color": "#ffffff",
          },
          "modal": Object {
            "backgroundColor": "#102C4B",
          },
          "passwordInput": Object {
            "mode": "dark",
            "src": Object {
              "process": [Function],
            },
          },
          "reminder": Object {
            "yellow": Object {
              "backgroundColor": "#F2EBC3",
              "borderColor": "#BDA726",
              "textColor": "#7E6F1B",
            },
          },
          "sidebar": Object {
            "headerBg": "#010E1D",
          },
          "skeletonPlaceholder": Object {
            "backgroundColor": "#486788",
            "highlightColor": "#f5f5f5",
          },
          "tab": Object {
            "activeTintColor": "#09BAD0",
            "backgroundColor": "#010E1D",
            "boxShadow": "0px -2px 32px #04172D",
          },
          "tabNavigator": Object {
            "borderBottomColor": "#445870",
          },
          "text": Object {
            "textColor": "#ffffff",
          },
          "textInput": Object {
            "backgroundColor": Object {
              "active": "#02152B",
              "correct": "#02152B",
              "default": "#02152b",
              "disabled": "#051931",
              "error": "#02152B",
              "filled": "#02152B",
            },
            "border": Object {
              "active": "1px solid #09BAD0",
              "correct": "1px solid #84D268",
              "default": "transparent",
              "disabled": "transparent",
              "error": "1px solid #F65A4C",
              "filled": "transparent",
            },
            "calendarActiveTint": "none",
            "dividerColor": "#445870",
            "helperTextColor": Object {
              "active": "#A2BDDB",
              "correct": "#A2BDDB",
              "default": "#A2BDDB",
              "disabled": "#A2BDDB",
              "error": "#F65A4C",
              "filled": "#A2BDDB",
            },
            "iconInputStatusImagesTint": "none",
            "placeholderTextColor": "#486485",
            "searchImageTint": "none",
            "textColor": "#ffffff",
          },
          "topAppBar": Object {
            "backgroundColor": "#02152b",
            "barStyle": "light-content",
            "iconColor": "#ffffff",
            "loading": "#030e1d",
            "textColor": "#ffffff",
          },
          "transaction": Object {
            "background": "#051931",
          },
        }
      }
    >
      <Text
        accessibilityLabel="passwordInputIdHelperText"
        customColor="#A2BDDB"
        state="default"
        style={
          Array [
            Object {
              "color": "#A2BDDB",
              "fontFamily": "Myriad Pro",
              "fontSize": 22.5,
              "fontStyle": "normal",
              "fontWeight": "normal",
              "lineHeight": 25.5,
            },
            Object {},
          ]
        }
        testID="passwordInputIdHelperText"
        theme={
          Object {
            "FilterIcon": Object {
              "process": [Function],
            },
            "button": Object {
              "backgroundColor": Object {
                "disabled": "#45586D",
              },
              "textColor": Object {
                "disabled": "#748291",
              },
            },
            "calendar": Object {
              "defaultDateColor": "#09BAD0",
              "defaultDateColorWithOpacity": "rgba(9, 186, 208, 0.5)",
              "selectedDayTextColor": "#FFFFFF",
            },
            "card": Object {
              "availableBalance": "#A2BDDB",
              "backgroundColor": "#102c4b",
              "dividerBgColor": "#445870",
              "textColor": "#ffffff",
            },
            "carousel": Object {
              "indicatorColor": "#445870",
            },
            "circle": Object {
              "dashboardBgColor": "#153961",
              "overviewBgColor": "#153961",
            },
            "circularGraphBackground": "#02152B",
            "color": Object {
              "BACKGROUND_100": "#102C4B",
              "BACKGROUND_200": "#07203C",
              "BACKGROUND_300": "#02152B",
              "DISABLED_STATUS": "#45586D",
              "GREEN_STATUS": "#84D268",
              "HIGH_EMPHASIS": "#A2BDDB",
              "ORANGE_STATUS": "#FF8A00",
              "PRIMARY_DEFAULT": "#00539F",
              "PRIMARY_DISABLED": "#8DA0B2",
              "PRIMARY_PRESSED": "#004585",
              "RED_STATUS": "#F65A4C",
              "SECONDARY_DEFAULT": "#09BAD0",
              "SECONDARY_DISABLED": "#B4CDD0",
              "SECONDARY_PRESSED": "#08A2B5",
              "TEXT_100_HIGH": "#A2BDDB",
              "TEXT_200_MEDIUIM": "#51667C",
              "TEXT_300_HIGH": "#FFFFFF",
              "TEXT_300_LOW": "#445870",
              "YELLOW_STATUS": "#F9DE7D",
            },
            "customizeDashboard": Object {
              "customizeText": "#FFFFFF",
            },
            "dashboard": Object {
              "tabIcon": Object {
                "process": [Function],
              },
            },
            "defaultColor": "#09BAD0",
            "displayOptionsTooltip": Object {
              "divider": "#486485",
              "tooltip": "#18416E",
              "widgetHeaderIcon": " #2a69af",
            },
            "filterTransaction": Object {
              "calendarInputBorder": "#02152B",
              "divider": "#445870",
              "numberOfFiltersCircle": "#163E69",
              "placeholderText": "#445870",
            },
            "guidedTourTooltip": Object {
              "background": "#18416E",
            },
            "layout": Object {
              "backgroundColor": "#051931",
              "src": Object {
                "process": [Function],
              },
            },
            "logoSrc": Object {
              "process": [Function],
            },
            "mainTopMenuItems": Object {
              "color": "#ffffff",
            },
            "modal": Object {
              "backgroundColor": "#102C4B",
            },
            "passwordInput": Object {
              "mode": "dark",
              "src": Object {
                "process": [Function],
              },
            },
            "reminder": Object {
              "yellow": Object {
                "backgroundColor": "#F2EBC3",
                "borderColor": "#BDA726",
                "textColor": "#7E6F1B",
              },
            },
            "sidebar": Object {
              "headerBg": "#010E1D",
            },
            "skeletonPlaceholder": Object {
              "backgroundColor": "#486788",
              "highlightColor": "#f5f5f5",
            },
            "tab": Object {
              "activeTintColor": "#09BAD0",
              "backgroundColor": "#010E1D",
              "boxShadow": "0px -2px 32px #04172D",
            },
            "tabNavigator": Object {
              "borderBottomColor": "#445870",
            },
            "text": Object {
              "textColor": "#ffffff",
            },
            "textInput": Object {
              "backgroundColor": Object {
                "active": "#02152B",
                "correct": "#02152B",
                "default": "#02152b",
                "disabled": "#051931",
                "error": "#02152B",
                "filled": "#02152B",
              },
              "border": Object {
                "active": "1px solid #09BAD0",
                "correct": "1px solid #84D268",
                "default": "transparent",
                "disabled": "transparent",
                "error": "1px solid #F65A4C",
                "filled": "transparent",
              },
              "calendarActiveTint": "none",
              "dividerColor": "#445870",
              "helperTextColor": Object {
                "active": "#A2BDDB",
                "correct": "#A2BDDB",
                "default": "#A2BDDB",
                "disabled": "#A2BDDB",
                "error": "#F65A4C",
                "filled": "#A2BDDB",
              },
              "iconInputStatusImagesTint": "none",
              "placeholderTextColor": "#486485",
              "searchImageTint": "none",
              "textColor": "#ffffff",
            },
            "topAppBar": Object {
              "backgroundColor": "#02152b",
              "barStyle": "light-content",
              "iconColor": "#ffffff",
              "loading": "#030e1d",
              "textColor": "#ffffff",
            },
            "transaction": Object {
              "background": "#051931",
            },
          }
        }
      >
        Test
      </Text>
    </View>
  </View>
</View>
`;
