// Jest Snapshot v1, https://goo.gl/fbAQLP

exports[`Circle Should work as expected 1`] = `
<View
  style={
    Array [
      Object {
        "alignItems": "center",
        "justifyContent": "center",
      },
    ]
  }
>
  <View
    size={12}
    style={
      Array [
        Object {
          "alignItems": "center",
          "backgroundColor": "#153961",
          "borderRadius": 12,
          "height": 24,
          "justifyContent": "center",
          "marginBottom": 10,
          "marginLeft": 10,
          "marginRight": 10,
          "marginTop": 10,
          "width": 24,
        },
      ]
    }
  />
</View>
`;
