// Jest Snapshot v1, https://goo.gl/fbAQLP

exports[`EnrolledBillersTab Should work as expected 1`] = `
<View
  accessibilityIgnoresInvertColors={true}
  style={
    Array [
      Object {
        "flexBasis": 0,
        "flexGrow": 1,
        "flexShrink": 1,
        "paddingBottom": 24,
        "paddingLeft": 24,
        "paddingRight": 24,
        "paddingTop": 24,
        "resizeMode": "cover",
      },
    ]
  }
>
  <Image
    padding={24}
    source={
      Object {
        "process": [Function],
      }
    }
    style={
      Array [
        Object {
          "bottom": 0,
          "left": 0,
          "position": "absolute",
          "right": 0,
          "top": 0,
        },
        Object {
          "height": undefined,
          "width": undefined,
        },
        undefined,
      ]
    }
  />
  <View
    style={
      Array [
        Object {
          "flexDirection": "row",
        },
      ]
    }
  >
    <View
      style={
        Array [
          Object {
            "alignItems": "flex-start",
          },
        ]
      }
    >
      <View
        state="default"
        style={
          Array [
            Object {
              "alignItems": "center",
              "backgroundColor": "#02152b",
              "borderColor": "transparent",
              "borderRadius": 4,
              "borderStyle": "solid",
              "borderWidth": 1,
              "flexDirection": "row",
              "height": 72,
              "paddingBottom": 16,
              "paddingRight": 15,
              "paddingTop": 16,
            },
          ]
        }
      >
        <View
          accessible={true}
          focusable={true}
          onBlur={[Function]}
          onClick={[Function]}
          onFocus={[Function]}
          onResponderGrant={[Function]}
          onResponderMove={[Function]}
          onResponderRelease={[Function]}
          onResponderTerminate={[Function]}
          onResponderTerminationRequest={[Function]}
          onStartShouldSetResponder={[Function]}
        >
          <View
            style={
              Array [
                Object {
                  "alignItems": "center",
                  "flexBasis": 0,
                  "flexDirection": "row",
                  "flexGrow": 4,
                  "flexShrink": 1,
                },
              ]
            }
          >
            <View
              style={
                Array [
                  Object {
                    "paddingBottom": 10.5,
                    "paddingLeft": 22.5,
                    "paddingRight": 22.5,
                    "paddingTop": 7.5,
                  },
                ]
              }
            >
              <Image
                accessibilityLabel="searchBoxIcon"
                resizeMode="cover"
                source={
                  Object {
                    "process": [Function],
                  }
                }
                state="default"
                style={
                  Array [
                    Object {
                      "height": 21,
                      "marginHorizontal": -10,
                      "tintColor": "transparent",
                      "width": 21,
                    },
                  ]
                }
                testID="searchBoxIcon"
                theme={
                  Object {
                    "FilterIcon": Object {
                      "process": [Function],
                    },
                    "button": Object {
                      "backgroundColor": Object {
                        "disabled": "#45586D",
                      },
                      "textColor": Object {
                        "disabled": "#748291",
                      },
                    },
                    "calendar": Object {
                      "defaultDateColor": "#09BAD0",
                      "defaultDateColorWithOpacity": "rgba(9, 186, 208, 0.5)",
                      "selectedDayTextColor": "#FFFFFF",
                    },
                    "card": Object {
                      "availableBalance": "#A2BDDB",
                      "backgroundColor": "#102c4b",
                      "dividerBgColor": "#445870",
                      "textColor": "#ffffff",
                    },
                    "carousel": Object {
                      "indicatorColor": "#445870",
                    },
                    "circle": Object {
                      "dashboardBgColor": "#153961",
                      "overviewBgColor": "#153961",
                    },
                    "circularGraphBackground": "#02152B",
                    "color": Object {
                      "BACKGROUND_100": "#102C4B",
                      "BACKGROUND_200": "#07203C",
                      "BACKGROUND_300": "#02152B",
                      "DISABLED_STATUS": "#45586D",
                      "GREEN_STATUS": "#84D268",
                      "HIGH_EMPHASIS": "#A2BDDB",
                      "ORANGE_STATUS": "#FF8A00",
                      "PRIMARY_DEFAULT": "#00539F",
                      "PRIMARY_DISABLED": "#8DA0B2",
                      "PRIMARY_PRESSED": "#004585",
                      "RED_STATUS": "#F65A4C",
                      "SECONDARY_DEFAULT": "#09BAD0",
                      "SECONDARY_DISABLED": "#B4CDD0",
                      "SECONDARY_PRESSED": "#08A2B5",
                      "TEXT_100_HIGH": "#A2BDDB",
                      "TEXT_200_MEDIUIM": "#51667C",
                      "TEXT_300_HIGH": "#FFFFFF",
                      "TEXT_300_LOW": "#445870",
                      "YELLOW_STATUS": "#F9DE7D",
                    },
                    "customizeDashboard": Object {
                      "customizeText": "#FFFFFF",
                    },
                    "dashboard": Object {
                      "tabIcon": Object {
                        "process": [Function],
                      },
                    },
                    "defaultColor": "#09BAD0",
                    "displayOptionsTooltip": Object {
                      "divider": "#486485",
                      "tooltip": "#18416E",
                      "widgetHeaderIcon": " #2a69af",
                    },
                    "filterTransaction": Object {
                      "calendarInputBorder": "#02152B",
                      "divider": "#445870",
                      "numberOfFiltersCircle": "#163E69",
                      "placeholderText": "#445870",
                    },
                    "guidedTourTooltip": Object {
                      "background": "#18416E",
                    },
                    "layout": Object {
                      "backgroundColor": "#051931",
                      "src": Object {
                        "process": [Function],
                      },
                    },
                    "logoSrc": Object {
                      "process": [Function],
                    },
                    "mainTopMenuItems": Object {
                      "color": "#ffffff",
                    },
                    "modal": Object {
                      "backgroundColor": "#102C4B",
                    },
                    "passwordInput": Object {
                      "mode": "dark",
                      "src": Object {
                        "process": [Function],
                      },
                    },
                    "reminder": Object {
                      "yellow": Object {
                        "backgroundColor": "#F2EBC3",
                        "borderColor": "#BDA726",
                        "textColor": "#7E6F1B",
                      },
                    },
                    "sidebar": Object {
                      "headerBg": "#010E1D",
                    },
                    "skeletonPlaceholder": Object {
                      "backgroundColor": "#486788",
                      "highlightColor": "#f5f5f5",
                    },
                    "tab": Object {
                      "activeTintColor": "#09BAD0",
                      "backgroundColor": "#010E1D",
                      "boxShadow": "0px -2px 32px #04172D",
                    },
                    "tabNavigator": Object {
                      "borderBottomColor": "#445870",
                    },
                    "text": Object {
                      "textColor": "#ffffff",
                    },
                    "textInput": Object {
                      "backgroundColor": Object {
                        "active": "#02152B",
                        "correct": "#02152B",
                        "default": "#02152b",
                        "disabled": "#051931",
                        "error": "#02152B",
                        "filled": "#02152B",
                      },
                      "border": Object {
                        "active": "1px solid #09BAD0",
                        "correct": "1px solid #84D268",
                        "default": "transparent",
                        "disabled": "transparent",
                        "error": "1px solid #F65A4C",
                        "filled": "transparent",
                      },
                      "calendarActiveTint": "none",
                      "dividerColor": "#445870",
                      "helperTextColor": Object {
                        "active": "#A2BDDB",
                        "correct": "#A2BDDB",
                        "default": "#A2BDDB",
                        "disabled": "#A2BDDB",
                        "error": "#F65A4C",
                        "filled": "#A2BDDB",
                      },
                      "iconInputStatusImagesTint": "none",
                      "placeholderTextColor": "#486485",
                      "searchImageTint": "none",
                      "textColor": "#ffffff",
                    },
                    "topAppBar": Object {
                      "backgroundColor": "#02152b",
                      "barStyle": "light-content",
                      "iconColor": "#ffffff",
                      "loading": "#030e1d",
                      "textColor": "#ffffff",
                    },
                    "transaction": Object {
                      "background": "#051931",
                    },
                  }
                }
                tintColor="none"
              />
            </View>
            <TextInput
              accessibilityLabel="searchBox"
              allowFontScaling={true}
              dividerHeight={46}
              editable={true}
              handleClear={[Function]}
              height={46}
              icon="search"
              maxLength={50}
              onBlur={[Function]}
              onChangeText={[Function]}
              onFocus={[Function]}
              placeholder="Search"
              placeholderTextColor="#486485"
              rejectResponderTermination={true}
              selectionColor="#A2BDDB"
              showStatus={true}
              state="default"
              style={
                Array [
                  Object {
                    "borderLeftColor": "#445870",
                    "borderLeftWidth": 1,
                    "color": "#ffffff",
                    "fontFamily": "Myriad Pro",
                    "fontSize": 27,
                    "fontStyle": "normal",
                    "fontWeight": "normal",
                    "paddingBottom": 0,
                    "paddingLeft": 22.5,
                    "paddingRight": 22.5,
                    "paddingTop": 0,
                  },
                ]
              }
              testID="searchBox"
              textWidth="85%"
              theme={
                Object {
                  "FilterIcon": Object {
                    "process": [Function],
                  },
                  "button": Object {
                    "backgroundColor": Object {
                      "disabled": "#45586D",
                    },
                    "textColor": Object {
                      "disabled": "#748291",
                    },
                  },
                  "calendar": Object {
                    "defaultDateColor": "#09BAD0",
                    "defaultDateColorWithOpacity": "rgba(9, 186, 208, 0.5)",
                    "selectedDayTextColor": "#FFFFFF",
                  },
                  "card": Object {
                    "availableBalance": "#A2BDDB",
                    "backgroundColor": "#102c4b",
                    "dividerBgColor": "#445870",
                    "textColor": "#ffffff",
                  },
                  "carousel": Object {
                    "indicatorColor": "#445870",
                  },
                  "circle": Object {
                    "dashboardBgColor": "#153961",
                    "overviewBgColor": "#153961",
                  },
                  "circularGraphBackground": "#02152B",
                  "color": Object {
                    "BACKGROUND_100": "#102C4B",
                    "BACKGROUND_200": "#07203C",
                    "BACKGROUND_300": "#02152B",
                    "DISABLED_STATUS": "#45586D",
                    "GREEN_STATUS": "#84D268",
                    "HIGH_EMPHASIS": "#A2BDDB",
                    "ORANGE_STATUS": "#FF8A00",
                    "PRIMARY_DEFAULT": "#00539F",
                    "PRIMARY_DISABLED": "#8DA0B2",
                    "PRIMARY_PRESSED": "#004585",
                    "RED_STATUS": "#F65A4C",
                    "SECONDARY_DEFAULT": "#09BAD0",
                    "SECONDARY_DISABLED": "#B4CDD0",
                    "SECONDARY_PRESSED": "#08A2B5",
                    "TEXT_100_HIGH": "#A2BDDB",
                    "TEXT_200_MEDIUIM": "#51667C",
                    "TEXT_300_HIGH": "#FFFFFF",
                    "TEXT_300_LOW": "#445870",
                    "YELLOW_STATUS": "#F9DE7D",
                  },
                  "customizeDashboard": Object {
                    "customizeText": "#FFFFFF",
                  },
                  "dashboard": Object {
                    "tabIcon": Object {
                      "process": [Function],
                    },
                  },
                  "defaultColor": "#09BAD0",
                  "displayOptionsTooltip": Object {
                    "divider": "#486485",
                    "tooltip": "#18416E",
                    "widgetHeaderIcon": " #2a69af",
                  },
                  "filterTransaction": Object {
                    "calendarInputBorder": "#02152B",
                    "divider": "#445870",
                    "numberOfFiltersCircle": "#163E69",
                    "placeholderText": "#445870",
                  },
                  "guidedTourTooltip": Object {
                    "background": "#18416E",
                  },
                  "layout": Object {
                    "backgroundColor": "#051931",
                    "src": Object {
                      "process": [Function],
                    },
                  },
                  "logoSrc": Object {
                    "process": [Function],
                  },
                  "mainTopMenuItems": Object {
                    "color": "#ffffff",
                  },
                  "modal": Object {
                    "backgroundColor": "#102C4B",
                  },
                  "passwordInput": Object {
                    "mode": "dark",
                    "src": Object {
                      "process": [Function],
                    },
                  },
                  "reminder": Object {
                    "yellow": Object {
                      "backgroundColor": "#F2EBC3",
                      "borderColor": "#BDA726",
                      "textColor": "#7E6F1B",
                    },
                  },
                  "sidebar": Object {
                    "headerBg": "#010E1D",
                  },
                  "skeletonPlaceholder": Object {
                    "backgroundColor": "#486788",
                    "highlightColor": "#f5f5f5",
                  },
                  "tab": Object {
                    "activeTintColor": "#09BAD0",
                    "backgroundColor": "#010E1D",
                    "boxShadow": "0px -2px 32px #04172D",
                  },
                  "tabNavigator": Object {
                    "borderBottomColor": "#445870",
                  },
                  "text": Object {
                    "textColor": "#ffffff",
                  },
                  "textInput": Object {
                    "backgroundColor": Object {
                      "active": "#02152B",
                      "correct": "#02152B",
                      "default": "#02152b",
                      "disabled": "#051931",
                      "error": "#02152B",
                      "filled": "#02152B",
                    },
                    "border": Object {
                      "active": "1px solid #09BAD0",
                      "correct": "1px solid #84D268",
                      "default": "transparent",
                      "disabled": "transparent",
                      "error": "1px solid #F65A4C",
                      "filled": "transparent",
                    },
                    "calendarActiveTint": "none",
                    "dividerColor": "#445870",
                    "helperTextColor": Object {
                      "active": "#A2BDDB",
                      "correct": "#A2BDDB",
                      "default": "#A2BDDB",
                      "disabled": "#A2BDDB",
                      "error": "#F65A4C",
                      "filled": "#A2BDDB",
                    },
                    "iconInputStatusImagesTint": "none",
                    "placeholderTextColor": "#486485",
                    "searchImageTint": "none",
                    "textColor": "#ffffff",
                  },
                  "topAppBar": Object {
                    "backgroundColor": "#02152b",
                    "barStyle": "light-content",
                    "iconColor": "#ffffff",
                    "loading": "#030e1d",
                    "textColor": "#ffffff",
                  },
                  "transaction": Object {
                    "background": "#051931",
                  },
                }
              }
              underlineColorAndroid="transparent"
              value=""
              width="85%"
            />
          </View>
        </View>
        <View
          style={
            Array [
              Object {
                "flexBasis": 0,
                "flexDirection": "row-reverse",
                "flexGrow": 1,
                "flexShrink": 1,
              },
            ]
          }
        >
          <View
            accessibilityLabel="searchBoxStatusIconButton_default"
            accessible={true}
            focusable={true}
            handleClear={[Function]}
            onBlur={[Function]}
            onClick={[Function]}
            onFocus={[Function]}
            onResponderGrant={[Function]}
            onResponderMove={[Function]}
            onResponderRelease={[Function]}
            onResponderTerminate={[Function]}
            onResponderTerminationRequest={[Function]}
            onStartShouldSetResponder={[Function]}
            state="default"
            style={
              Array [
                Object {},
              ]
            }
            testID="searchBoxStatusIconButton_default"
            theme={
              Object {
                "FilterIcon": Object {
                  "process": [Function],
                },
                "button": Object {
                  "backgroundColor": Object {
                    "disabled": "#45586D",
                  },
                  "textColor": Object {
                    "disabled": "#748291",
                  },
                },
                "calendar": Object {
                  "defaultDateColor": "#09BAD0",
                  "defaultDateColorWithOpacity": "rgba(9, 186, 208, 0.5)",
                  "selectedDayTextColor": "#FFFFFF",
                },
                "card": Object {
                  "availableBalance": "#A2BDDB",
                  "backgroundColor": "#102c4b",
                  "dividerBgColor": "#445870",
                  "textColor": "#ffffff",
                },
                "carousel": Object {
                  "indicatorColor": "#445870",
                },
                "circle": Object {
                  "dashboardBgColor": "#153961",
                  "overviewBgColor": "#153961",
                },
                "circularGraphBackground": "#02152B",
                "color": Object {
                  "BACKGROUND_100": "#102C4B",
                  "BACKGROUND_200": "#07203C",
                  "BACKGROUND_300": "#02152B",
                  "DISABLED_STATUS": "#45586D",
                  "GREEN_STATUS": "#84D268",
                  "HIGH_EMPHASIS": "#A2BDDB",
                  "ORANGE_STATUS": "#FF8A00",
                  "PRIMARY_DEFAULT": "#00539F",
                  "PRIMARY_DISABLED": "#8DA0B2",
                  "PRIMARY_PRESSED": "#004585",
                  "RED_STATUS": "#F65A4C",
                  "SECONDARY_DEFAULT": "#09BAD0",
                  "SECONDARY_DISABLED": "#B4CDD0",
                  "SECONDARY_PRESSED": "#08A2B5",
                  "TEXT_100_HIGH": "#A2BDDB",
                  "TEXT_200_MEDIUIM": "#51667C",
                  "TEXT_300_HIGH": "#FFFFFF",
                  "TEXT_300_LOW": "#445870",
                  "YELLOW_STATUS": "#F9DE7D",
                },
                "customizeDashboard": Object {
                  "customizeText": "#FFFFFF",
                },
                "dashboard": Object {
                  "tabIcon": Object {
                    "process": [Function],
                  },
                },
                "defaultColor": "#09BAD0",
                "displayOptionsTooltip": Object {
                  "divider": "#486485",
                  "tooltip": "#18416E",
                  "widgetHeaderIcon": " #2a69af",
                },
                "filterTransaction": Object {
                  "calendarInputBorder": "#02152B",
                  "divider": "#445870",
                  "numberOfFiltersCircle": "#163E69",
                  "placeholderText": "#445870",
                },
                "guidedTourTooltip": Object {
                  "background": "#18416E",
                },
                "layout": Object {
                  "backgroundColor": "#051931",
                  "src": Object {
                    "process": [Function],
                  },
                },
                "logoSrc": Object {
                  "process": [Function],
                },
                "mainTopMenuItems": Object {
                  "color": "#ffffff",
                },
                "modal": Object {
                  "backgroundColor": "#102C4B",
                },
                "passwordInput": Object {
                  "mode": "dark",
                  "src": Object {
                    "process": [Function],
                  },
                },
                "reminder": Object {
                  "yellow": Object {
                    "backgroundColor": "#F2EBC3",
                    "borderColor": "#BDA726",
                    "textColor": "#7E6F1B",
                  },
                },
                "sidebar": Object {
                  "headerBg": "#010E1D",
                },
                "skeletonPlaceholder": Object {
                  "backgroundColor": "#486788",
                  "highlightColor": "#f5f5f5",
                },
                "tab": Object {
                  "activeTintColor": "#09BAD0",
                  "backgroundColor": "#010E1D",
                  "boxShadow": "0px -2px 32px #04172D",
                },
                "tabNavigator": Object {
                  "borderBottomColor": "#445870",
                },
                "text": Object {
                  "textColor": "#ffffff",
                },
                "textInput": Object {
                  "backgroundColor": Object {
                    "active": "#02152B",
                    "correct": "#02152B",
                    "default": "#02152b",
                    "disabled": "#051931",
                    "error": "#02152B",
                    "filled": "#02152B",
                  },
                  "border": Object {
                    "active": "1px solid #09BAD0",
                    "correct": "1px solid #84D268",
                    "default": "transparent",
                    "disabled": "transparent",
                    "error": "1px solid #F65A4C",
                    "filled": "transparent",
                  },
                  "calendarActiveTint": "none",
                  "dividerColor": "#445870",
                  "helperTextColor": Object {
                    "active": "#A2BDDB",
                    "correct": "#A2BDDB",
                    "default": "#A2BDDB",
                    "disabled": "#A2BDDB",
                    "error": "#F65A4C",
                    "filled": "#A2BDDB",
                  },
                  "iconInputStatusImagesTint": "none",
                  "placeholderTextColor": "#486485",
                  "searchImageTint": "none",
                  "textColor": "#ffffff",
                },
                "topAppBar": Object {
                  "backgroundColor": "#02152b",
                  "barStyle": "light-content",
                  "iconColor": "#ffffff",
                  "loading": "#030e1d",
                  "textColor": "#ffffff",
                },
                "transaction": Object {
                  "background": "#051931",
                },
              }
            }
          />
        </View>
      </View>
    </View>
  </View>
  <View
    space={24}
    style={
      Array [
        Object {
          "paddingBottom": 48,
        },
      ]
    }
  />
  <RCTScrollView
    ListEmptyComponent={<ListEmptyContent />}
    bounces={false}
    contentContainerStyle={
      Object {
        "flexGrow": 1,
      }
    }
    data={
      Array [
        Object {
          "allowedChannel": "MOBILE",
          "biller": "AAA SOUTHEAST EQUITIES, INC.",
          "billerAlias": "GAB TEST",
          "billerIcon": "10",
          "billerId": "1863",
          "category": Object {
            "code": "INVESTMENTS",
            "id": "193",
            "name": "Investments",
          },
          "createdDate": "2021-04-07T06:16:08.843+0000",
          "currencyCode": "PHP",
          "fields": Array [
            Object {
              "billerId": "1863",
              "contactId": "210407141608765c4",
              "customerId": "6167",
              "fieldId": "6909",
              "fieldLabel": "Subscriber/ Account No.",
              "fieldValue": "12345678901",
              "id": 5787,
            },
            Object {
              "billerId": "1863",
              "contactId": "210407141608765c4",
              "customerId": "6167",
              "fieldId": "6910",
              "fieldLabel": "Reference No.",
              "fieldValue": "12345678901",
              "id": 5788,
            },
            Object {
              "billerId": "1863",
              "contactId": "210407141608765c4",
              "customerId": "6167",
              "fieldId": "6911",
              "fieldLabel": "Phone No.",
              "fieldValue": "12345678901",
              "id": 5789,
            },
          ],
          "id": "4808",
          "lastTransactiondate": null,
          "referenceNo": "210407141608765c4",
          "reminder": null,
          "subscriberName": "GAB TEST",
          "updateDate": null,
        },
      ]
    }
    disableVirtualization={false}
    getItem={[Function]}
    getItemCount={[Function]}
    horizontal={false}
    initialNumToRender={10}
    keyExtractor={[Function]}
    maxToRenderPerBatch={10}
    onContentSizeChange={[Function]}
    onEndReachedThreshold={2}
    onLayout={[Function]}
    onMomentumScrollEnd={[Function]}
    onScroll={[Function]}
    onScrollBeginDrag={[Function]}
    onScrollEndDrag={[Function]}
    removeClippedSubviews={false}
    renderItem={[Function]}
    scrollEventThrottle={50}
    showsVerticalScrollIndicator={false}
    stickyHeaderIndices={Array []}
    style={
      Array [
        Object {},
      ]
    }
    updateCellsBatchingPeriod={50}
    viewabilityConfigCallbackPairs={Array []}
    windowSize={21}
  >
    <View>
      <View
        onLayout={[Function]}
        style={null}
      >
        <View
          accessible={true}
          focusable={true}
          onClick={[Function]}
          onResponderGrant={[Function]}
          onResponderMove={[Function]}
          onResponderRelease={[Function]}
          onResponderTerminate={[Function]}
          onResponderTerminationRequest={[Function]}
          onStartShouldSetResponder={[Function]}
          style={
            Object {
              "opacity": 1,
            }
          }
        >
          <View
            style={
              Array [
                Object {
                  "backgroundColor": "#102c4b",
                  "borderRadius": 8,
                  "marginBottom": 32,
                  "marginLeft": 0,
                  "marginRight": 0,
                  "marginTop": 0,
                  "paddingBottom": 27,
                  "paddingLeft": 27,
                  "paddingRight": 27,
                  "paddingTop": 27,
                },
              ]
            }
          >
            <View
              style={
                Array [
                  Object {
                    "alignItems": "center",
                    "flexDirection": "row",
                  },
                ]
              }
            >
              <View
                style={
                  Array [
                    Object {
                      "alignItems": "center",
                      "flexBasis": 0,
                      "flexDirection": "row",
                      "flexGrow": 1,
                      "flexShrink": 1,
                    },
                  ]
                }
              >
                <View
                  size={32}
                  style={
                    Array [
                      Object {
                        "alignItems": "center",
                        "backgroundColor": "#445870",
                        "borderRadius": 32,
                        "height": 64,
                        "justifyContent": "center",
                        "marginBottom": 0,
                        "marginLeft": 0,
                        "marginRight": 18,
                        "marginTop": 0,
                        "width": 64,
                      },
                    ]
                  }
                >
                  <Text
                    style={
                      Array [
                        Object {
                          "color": "#ffffff",
                          "fontFamily": "Myriad Pro",
                          "fontSize": 22.5,
                          "fontStyle": "normal",
                          "fontWeight": "normal",
                          "lineHeight": 25.5,
                        },
                      ]
                    }
                  >
                    I
                  </Text>
                </View>
                <View>
                  <Text
                    style={
                      Array [
                        Object {
                          "color": "#ffffff",
                          "fontFamily": "Myriad Pro",
                          "fontSize": 27,
                          "fontStyle": "normal",
                          "fontWeight": "normal",
                          "lineHeight": 33,
                        },
                      ]
                    }
                  >
                    GAB TEST
                  </Text>
                  <Text
                    style={
                      Array [
                        Object {
                          "color": "#ffffff",
                          "fontFamily": "MyriadPro-Semibold",
                          "fontSize": 15,
                          "fontStyle": "normal",
                          "fontWeight": "bold",
                          "letterSpacing": 2.769231,
                          "lineHeight": 18,
                          "textTransform": "uppercase",
                        },
                        Object {
                          "color": "#A2BDDB",
                        },
                      ]
                    }
                  >
                    Investments
                  </Text>
                </View>
              </View>
              <View
                style={
                  Array [
                    Object {
                      "alignItems": "flex-end",
                      "marginRight": -12,
                    },
                  ]
                }
              >
                <Icon
                  color="#A2BDDB"
                  name="chevron-small-right"
                  size={48}
                  style={
                    Array [
                      Object {},
                    ]
                  }
                />
              </View>
            </View>
            <View
              space={14}
              style={
                Array [
                  Object {
                    "paddingBottom": 28,
                  },
                ]
              }
            />
            <View
              style={
                Array [
                  Object {
                    "alignItems": "flex-end",
                    "justifyContent": "flex-end",
                  },
                ]
              }
            >
              <Text
                style={
                  Array [
                    Object {
                      "color": "#ffffff",
                      "fontFamily": "MyriadPro-Semibold",
                      "fontSize": 15,
                      "fontStyle": "normal",
                      "fontWeight": "bold",
                      "letterSpacing": 2.769231,
                      "lineHeight": 18,
                      "textTransform": "uppercase",
                    },
                    Object {
                      "color": "#A2BDDB",
                    },
                  ]
                }
              >
                LAST TRANSACTION
              </Text>
              <Text
                style={
                  Array [
                    Object {
                      "color": "#ffffff",
                      "fontFamily": "Myriad Pro",
                      "fontSize": 22.5,
                      "fontStyle": "normal",
                      "fontWeight": "normal",
                      "lineHeight": 25.5,
                    },
                  ]
                }
              >
                N/A
              </Text>
            </View>
          </View>
        </View>
      </View>
    </View>
  </RCTScrollView>
  <View
    style={
      Array [
        Object {
          "justifyContent": "flex-end",
          "position": "absolute",
          "right": 20,
          "top": 160,
        },
      ]
    }
  >
    <View
      style={
        Array [
          Object {
            "borderColor": "#445870",
            "borderTopWidth": 0,
            "marginTop": 50,
            "position": "absolute",
          },
        ]
      }
    >
      <View
        height={4}
        style={
          Array [
            Object {
              "backgroundColor": "#445870",
              "borderRadius": 16,
              "height": 4,
              "position": "absolute",
              "width": 8,
              "zIndex": 11,
            },
          ]
        }
      >
        <View
          height="12%"
          style={
            Array [
              Object {
                "backgroundColor": "#09BAD0",
                "borderRadius": 16,
                "height": "12%",
                "top": "0%",
              },
            ]
          }
          top="0%"
        />
      </View>
    </View>
  </View>
</View>
`;
