// Jest Snapshot v1, https://goo.gl/fbAQLP

exports[`CenteredSingleScreen Should work as expected 1`] = `
<View
  accessibilityIgnoresInvertColors={true}
  style={
    Array [
      Object {
        "flexBasis": 0,
        "flexGrow": 1,
        "flexShrink": 1,
        "paddingBottom": 0,
        "paddingLeft": 0,
        "paddingRight": 0,
        "paddingTop": 0,
        "resizeMode": "cover",
      },
    ]
  }
>
  <Image
    padding={0}
    style={
      Array [
        Object {
          "bottom": 0,
          "left": 0,
          "position": "absolute",
          "right": 0,
          "top": 0,
        },
        Object {
          "height": undefined,
          "width": undefined,
        },
        undefined,
      ]
    }
  />
  <View
    style={
      Array [
        Object {
          "flexDirection": "column-reverse",
          "height": "100%",
          "justifyContent": "space-between",
        },
      ]
    }
  >
    <View
      style={
        Array [
          Object {
            "paddingBottom": 64,
            "paddingLeft": 64,
            "paddingRight": 64,
            "paddingTop": 0,
          },
        ]
      }
    />
    <View
      style={
        Array [
          Object {
            "alignItems": "center",
            "height": "100%",
            "justifyContent": "center",
            "paddingBottom": 0,
            "paddingLeft": 64,
            "paddingRight": 64,
            "paddingTop": 140,
          },
        ]
      }
    />
  </View>
</View>
`;
