// Jest Snapshot v1, https://goo.gl/fbAQLP

exports[`ImageIcon Should render properly 1`] = `
<Image
  style={
    Object {
      "height": 18,
      "marginLeft": 20,
      "width": 18,
    }
  }
/>
`;
