// Jest Snapshot v1, https://goo.gl/fbAQLP

exports[`Dashboard Should work as expected 1`] = `
<Overlay
  accessibilityLabel="modalContainerTestId"
  customStyle={Object {}}
  isVisible={false}
  overlayStyle={
    Object {
      "alignItems": "center",
      "backgroundColor": "#102C4B",
      "borderRadius": 12,
      "elevation": 10,
      "padding": 0,
      "width": "60%",
    }
  }
  style={
    Array [
      Object {},
    ]
  }
  testID="modalContainerTestId"
  theme={
    Object {
      "FilterIcon": Object {
        "process": [Function],
      },
      "button": Object {
        "backgroundColor": Object {
          "disabled": "#45586D",
        },
        "textColor": Object {
          "disabled": "#748291",
        },
      },
      "calendar": Object {
        "defaultDateColor": "#09BAD0",
        "defaultDateColorWithOpacity": "rgba(9, 186, 208, 0.5)",
        "selectedDayTextColor": "#FFFFFF",
      },
      "card": Object {
        "availableBalance": "#A2BDDB",
        "backgroundColor": "#102c4b",
        "dividerBgColor": "#445870",
        "textColor": "#ffffff",
      },
      "carousel": Object {
        "indicatorColor": "#445870",
      },
      "circle": Object {
        "dashboardBgColor": "#153961",
        "overviewBgColor": "#153961",
      },
      "circularGraphBackground": "#02152B",
      "color": Object {
        "BACKGROUND_100": "#102C4B",
        "BACKGROUND_200": "#07203C",
        "BACKGROUND_300": "#02152B",
        "DISABLED_STATUS": "#45586D",
        "GREEN_STATUS": "#84D268",
        "HIGH_EMPHASIS": "#A2BDDB",
        "ORANGE_STATUS": "#FF8A00",
        "PRIMARY_DEFAULT": "#00539F",
        "PRIMARY_DISABLED": "#8DA0B2",
        "PRIMARY_PRESSED": "#004585",
        "RED_STATUS": "#F65A4C",
        "SECONDARY_DEFAULT": "#09BAD0",
        "SECONDARY_DISABLED": "#B4CDD0",
        "SECONDARY_PRESSED": "#08A2B5",
        "TEXT_100_HIGH": "#A2BDDB",
        "TEXT_200_MEDIUIM": "#51667C",
        "TEXT_300_HIGH": "#FFFFFF",
        "TEXT_300_LOW": "#445870",
        "YELLOW_STATUS": "#F9DE7D",
      },
      "customizeDashboard": Object {
        "customizeText": "#FFFFFF",
      },
      "dashboard": Object {
        "tabIcon": Object {
          "process": [Function],
        },
      },
      "defaultColor": "#09BAD0",
      "displayOptionsTooltip": Object {
        "divider": "#486485",
        "tooltip": "#18416E",
        "widgetHeaderIcon": " #2a69af",
      },
      "filterTransaction": Object {
        "calendarInputBorder": "#02152B",
        "divider": "#445870",
        "numberOfFiltersCircle": "#163E69",
        "placeholderText": "#445870",
      },
      "guidedTourTooltip": Object {
        "background": "#18416E",
      },
      "layout": Object {
        "backgroundColor": "#051931",
        "src": Object {
          "process": [Function],
        },
      },
      "logoSrc": Object {
        "process": [Function],
      },
      "mainTopMenuItems": Object {
        "color": "#ffffff",
      },
      "modal": Object {
        "backgroundColor": "#102C4B",
      },
      "passwordInput": Object {
        "mode": "dark",
        "src": Object {
          "process": [Function],
        },
      },
      "reminder": Object {
        "yellow": Object {
          "backgroundColor": "#F2EBC3",
          "borderColor": "#BDA726",
          "textColor": "#7E6F1B",
        },
      },
      "sidebar": Object {
        "headerBg": "#010E1D",
      },
      "skeletonPlaceholder": Object {
        "backgroundColor": "#486788",
        "highlightColor": "#f5f5f5",
      },
      "tab": Object {
        "activeTintColor": "#09BAD0",
        "backgroundColor": "#010E1D",
        "boxShadow": "0px -2px 32px #04172D",
      },
      "tabNavigator": Object {
        "borderBottomColor": "#445870",
      },
      "text": Object {
        "textColor": "#ffffff",
      },
      "textInput": Object {
        "backgroundColor": Object {
          "active": "#02152B",
          "correct": "#02152B",
          "default": "#02152b",
          "disabled": "#051931",
          "error": "#02152B",
          "filled": "#02152B",
        },
        "border": Object {
          "active": "1px solid #09BAD0",
          "correct": "1px solid #84D268",
          "default": "transparent",
          "disabled": "transparent",
          "error": "1px solid #F65A4C",
          "filled": "transparent",
        },
        "calendarActiveTint": "none",
        "dividerColor": "#445870",
        "helperTextColor": Object {
          "active": "#A2BDDB",
          "correct": "#A2BDDB",
          "default": "#A2BDDB",
          "disabled": "#A2BDDB",
          "error": "#F65A4C",
          "filled": "#A2BDDB",
        },
        "iconInputStatusImagesTint": "none",
        "placeholderTextColor": "#486485",
        "searchImageTint": "none",
        "textColor": "#ffffff",
      },
      "topAppBar": Object {
        "backgroundColor": "#02152b",
        "barStyle": "light-content",
        "iconColor": "#ffffff",
        "loading": "#030e1d",
        "textColor": "#ffffff",
      },
      "transaction": Object {
        "background": "#051931",
      },
    }
  }
  visible={false}
>
  <View
    style={
      Array [
        Object {
          "paddingBottom": 45,
          "paddingLeft": 48,
          "paddingRight": 48,
          "paddingTop": 48,
          "width": "100%",
        },
      ]
    }
  >
    <View
      accessibilityLabel="loggedOutOnlineSessionContainer"
      testID="loggedOutOnlineSessionContainer"
      theme={
        Object {
          "FilterIcon": Object {
            "process": [Function],
          },
          "button": Object {
            "backgroundColor": Object {
              "disabled": "#45586D",
            },
            "textColor": Object {
              "disabled": "#748291",
            },
          },
          "calendar": Object {
            "defaultDateColor": "#09BAD0",
            "defaultDateColorWithOpacity": "rgba(9, 186, 208, 0.5)",
            "selectedDayTextColor": "#FFFFFF",
          },
          "card": Object {
            "availableBalance": "#A2BDDB",
            "backgroundColor": "#102c4b",
            "dividerBgColor": "#445870",
            "textColor": "#ffffff",
          },
          "carousel": Object {
            "indicatorColor": "#445870",
          },
          "circle": Object {
            "dashboardBgColor": "#153961",
            "overviewBgColor": "#153961",
          },
          "circularGraphBackground": "#02152B",
          "color": Object {
            "BACKGROUND_100": "#102C4B",
            "BACKGROUND_200": "#07203C",
            "BACKGROUND_300": "#02152B",
            "DISABLED_STATUS": "#45586D",
            "GREEN_STATUS": "#84D268",
            "HIGH_EMPHASIS": "#A2BDDB",
            "ORANGE_STATUS": "#FF8A00",
            "PRIMARY_DEFAULT": "#00539F",
            "PRIMARY_DISABLED": "#8DA0B2",
            "PRIMARY_PRESSED": "#004585",
            "RED_STATUS": "#F65A4C",
            "SECONDARY_DEFAULT": "#09BAD0",
            "SECONDARY_DISABLED": "#B4CDD0",
            "SECONDARY_PRESSED": "#08A2B5",
            "TEXT_100_HIGH": "#A2BDDB",
            "TEXT_200_MEDIUIM": "#51667C",
            "TEXT_300_HIGH": "#FFFFFF",
            "TEXT_300_LOW": "#445870",
            "YELLOW_STATUS": "#F9DE7D",
          },
          "customizeDashboard": Object {
            "customizeText": "#FFFFFF",
          },
          "dashboard": Object {
            "tabIcon": Object {
              "process": [Function],
            },
          },
          "defaultColor": "#09BAD0",
          "displayOptionsTooltip": Object {
            "divider": "#486485",
            "tooltip": "#18416E",
            "widgetHeaderIcon": " #2a69af",
          },
          "filterTransaction": Object {
            "calendarInputBorder": "#02152B",
            "divider": "#445870",
            "numberOfFiltersCircle": "#163E69",
            "placeholderText": "#445870",
          },
          "guidedTourTooltip": Object {
            "background": "#18416E",
          },
          "layout": Object {
            "backgroundColor": "#051931",
            "src": Object {
              "process": [Function],
            },
          },
          "logoSrc": Object {
            "process": [Function],
          },
          "mainTopMenuItems": Object {
            "color": "#ffffff",
          },
          "modal": Object {
            "backgroundColor": "#102C4B",
          },
          "passwordInput": Object {
            "mode": "dark",
            "src": Object {
              "process": [Function],
            },
          },
          "reminder": Object {
            "yellow": Object {
              "backgroundColor": "#F2EBC3",
              "borderColor": "#BDA726",
              "textColor": "#7E6F1B",
            },
          },
          "sidebar": Object {
            "headerBg": "#010E1D",
          },
          "skeletonPlaceholder": Object {
            "backgroundColor": "#486788",
            "highlightColor": "#f5f5f5",
          },
          "tab": Object {
            "activeTintColor": "#09BAD0",
            "backgroundColor": "#010E1D",
            "boxShadow": "0px -2px 32px #04172D",
          },
          "tabNavigator": Object {
            "borderBottomColor": "#445870",
          },
          "text": Object {
            "textColor": "#ffffff",
          },
          "textInput": Object {
            "backgroundColor": Object {
              "active": "#02152B",
              "correct": "#02152B",
              "default": "#02152b",
              "disabled": "#051931",
              "error": "#02152B",
              "filled": "#02152B",
            },
            "border": Object {
              "active": "1px solid #09BAD0",
              "correct": "1px solid #84D268",
              "default": "transparent",
              "disabled": "transparent",
              "error": "1px solid #F65A4C",
              "filled": "transparent",
            },
            "calendarActiveTint": "none",
            "dividerColor": "#445870",
            "helperTextColor": Object {
              "active": "#A2BDDB",
              "correct": "#A2BDDB",
              "default": "#A2BDDB",
              "disabled": "#A2BDDB",
              "error": "#F65A4C",
              "filled": "#A2BDDB",
            },
            "iconInputStatusImagesTint": "none",
            "placeholderTextColor": "#486485",
            "searchImageTint": "none",
            "textColor": "#ffffff",
          },
          "topAppBar": Object {
            "backgroundColor": "#02152b",
            "barStyle": "light-content",
            "iconColor": "#ffffff",
            "loading": "#030e1d",
            "textColor": "#ffffff",
          },
          "transaction": Object {
            "background": "#051931",
          },
        }
      }
    >
      <Text
        accessibilityLabel="loggedOutOnlineSessionText"
        style={
          Array [
            Object {
              "color": "#FFFFFF",
              "fontFamily": "Myriad Pro",
              "fontSize": 30,
              "fontStyle": "normal",
              "fontWeight": "600",
              "lineHeight": 36,
            },
            Object {
              "textAlign": "center",
            },
          ]
        }
        testID="loggedOutOnlineSessionText"
        theme={
          Object {
            "FilterIcon": Object {
              "process": [Function],
            },
            "button": Object {
              "backgroundColor": Object {
                "disabled": "#45586D",
              },
              "textColor": Object {
                "disabled": "#748291",
              },
            },
            "calendar": Object {
              "defaultDateColor": "#09BAD0",
              "defaultDateColorWithOpacity": "rgba(9, 186, 208, 0.5)",
              "selectedDayTextColor": "#FFFFFF",
            },
            "card": Object {
              "availableBalance": "#A2BDDB",
              "backgroundColor": "#102c4b",
              "dividerBgColor": "#445870",
              "textColor": "#ffffff",
            },
            "carousel": Object {
              "indicatorColor": "#445870",
            },
            "circle": Object {
              "dashboardBgColor": "#153961",
              "overviewBgColor": "#153961",
            },
            "circularGraphBackground": "#02152B",
            "color": Object {
              "BACKGROUND_100": "#102C4B",
              "BACKGROUND_200": "#07203C",
              "BACKGROUND_300": "#02152B",
              "DISABLED_STATUS": "#45586D",
              "GREEN_STATUS": "#84D268",
              "HIGH_EMPHASIS": "#A2BDDB",
              "ORANGE_STATUS": "#FF8A00",
              "PRIMARY_DEFAULT": "#00539F",
              "PRIMARY_DISABLED": "#8DA0B2",
              "PRIMARY_PRESSED": "#004585",
              "RED_STATUS": "#F65A4C",
              "SECONDARY_DEFAULT": "#09BAD0",
              "SECONDARY_DISABLED": "#B4CDD0",
              "SECONDARY_PRESSED": "#08A2B5",
              "TEXT_100_HIGH": "#A2BDDB",
              "TEXT_200_MEDIUIM": "#51667C",
              "TEXT_300_HIGH": "#FFFFFF",
              "TEXT_300_LOW": "#445870",
              "YELLOW_STATUS": "#F9DE7D",
            },
            "customizeDashboard": Object {
              "customizeText": "#FFFFFF",
            },
            "dashboard": Object {
              "tabIcon": Object {
                "process": [Function],
              },
            },
            "defaultColor": "#09BAD0",
            "displayOptionsTooltip": Object {
              "divider": "#486485",
              "tooltip": "#18416E",
              "widgetHeaderIcon": " #2a69af",
            },
            "filterTransaction": Object {
              "calendarInputBorder": "#02152B",
              "divider": "#445870",
              "numberOfFiltersCircle": "#163E69",
              "placeholderText": "#445870",
            },
            "guidedTourTooltip": Object {
              "background": "#18416E",
            },
            "layout": Object {
              "backgroundColor": "#051931",
              "src": Object {
                "process": [Function],
              },
            },
            "logoSrc": Object {
              "process": [Function],
            },
            "mainTopMenuItems": Object {
              "color": "#ffffff",
            },
            "modal": Object {
              "backgroundColor": "#102C4B",
            },
            "passwordInput": Object {
              "mode": "dark",
              "src": Object {
                "process": [Function],
              },
            },
            "reminder": Object {
              "yellow": Object {
                "backgroundColor": "#F2EBC3",
                "borderColor": "#BDA726",
                "textColor": "#7E6F1B",
              },
            },
            "sidebar": Object {
              "headerBg": "#010E1D",
            },
            "skeletonPlaceholder": Object {
              "backgroundColor": "#486788",
              "highlightColor": "#f5f5f5",
            },
            "tab": Object {
              "activeTintColor": "#09BAD0",
              "backgroundColor": "#010E1D",
              "boxShadow": "0px -2px 32px #04172D",
            },
            "tabNavigator": Object {
              "borderBottomColor": "#445870",
            },
            "text": Object {
              "textColor": "#ffffff",
            },
            "textInput": Object {
              "backgroundColor": Object {
                "active": "#02152B",
                "correct": "#02152B",
                "default": "#02152b",
                "disabled": "#051931",
                "error": "#02152B",
                "filled": "#02152B",
              },
              "border": Object {
                "active": "1px solid #09BAD0",
                "correct": "1px solid #84D268",
                "default": "transparent",
                "disabled": "transparent",
                "error": "1px solid #F65A4C",
                "filled": "transparent",
              },
              "calendarActiveTint": "none",
              "dividerColor": "#445870",
              "helperTextColor": Object {
                "active": "#A2BDDB",
                "correct": "#A2BDDB",
                "default": "#A2BDDB",
                "disabled": "#A2BDDB",
                "error": "#F65A4C",
                "filled": "#A2BDDB",
              },
              "iconInputStatusImagesTint": "none",
              "placeholderTextColor": "#486485",
              "searchImageTint": "none",
              "textColor": "#ffffff",
            },
            "topAppBar": Object {
              "backgroundColor": "#02152b",
              "barStyle": "light-content",
              "iconColor": "#ffffff",
              "loading": "#030e1d",
              "textColor": "#ffffff",
            },
            "transaction": Object {
              "background": "#051931",
            },
          }
        }
        themeColor="TEXT_300_HIGH"
      >
        A session on another browser or device has ended.
      </Text>
      <View
        space={68}
        style={
          Array [
            Object {
              "paddingBottom": 136,
            },
          ]
        }
      />
      <View
        style={
          Array [
            Object {
              "alignItems": "center",
              "justifyContent": "center",
            },
          ]
        }
      >
        <View
          accessibilityLabel="loggedOutOkayBtn"
          accessible={true}
          focusable={true}
          onClick={[Function]}
          onResponderGrant={[Function]}
          onResponderMove={[Function]}
          onResponderRelease={[Function]}
          onResponderTerminate={[Function]}
          onResponderTerminationRequest={[Function]}
          onStartShouldSetResponder={[Function]}
          style={
            Object {
              "opacity": 1,
            }
          }
          testID="loggedOutOkayBtn"
        >
          <Text
            accessibilityLabel="loggedOutOkayBtnLabel"
            style={
              Array [
                Object {
                  "color": "#ffffff",
                  "fontFamily": "MyriadPro-Semibold",
                  "fontSize": 24,
                  "fontStyle": "normal",
                  "fontWeight": "700",
                  "letterSpacing": 1.5187499999999998,
                  "lineHeight": 28.5,
                },
                Object {
                  "color": "#09BAD0",
                  "fontFamily": "Myriad Pro",
                  "fontSize": 24,
                  "fontStyle": "normal",
                  "fontWeight": "700",
                  "lineHeight": 28.799999999999997,
                },
              ]
            }
            testID="loggedOutOkayBtnLabel"
            theme={
              Object {
                "FilterIcon": Object {
                  "process": [Function],
                },
                "button": Object {
                  "backgroundColor": Object {
                    "disabled": "#45586D",
                  },
                  "textColor": Object {
                    "disabled": "#748291",
                  },
                },
                "calendar": Object {
                  "defaultDateColor": "#09BAD0",
                  "defaultDateColorWithOpacity": "rgba(9, 186, 208, 0.5)",
                  "selectedDayTextColor": "#FFFFFF",
                },
                "card": Object {
                  "availableBalance": "#A2BDDB",
                  "backgroundColor": "#102c4b",
                  "dividerBgColor": "#445870",
                  "textColor": "#ffffff",
                },
                "carousel": Object {
                  "indicatorColor": "#445870",
                },
                "circle": Object {
                  "dashboardBgColor": "#153961",
                  "overviewBgColor": "#153961",
                },
                "circularGraphBackground": "#02152B",
                "color": Object {
                  "BACKGROUND_100": "#102C4B",
                  "BACKGROUND_200": "#07203C",
                  "BACKGROUND_300": "#02152B",
                  "DISABLED_STATUS": "#45586D",
                  "GREEN_STATUS": "#84D268",
                  "HIGH_EMPHASIS": "#A2BDDB",
                  "ORANGE_STATUS": "#FF8A00",
                  "PRIMARY_DEFAULT": "#00539F",
                  "PRIMARY_DISABLED": "#8DA0B2",
                  "PRIMARY_PRESSED": "#004585",
                  "RED_STATUS": "#F65A4C",
                  "SECONDARY_DEFAULT": "#09BAD0",
                  "SECONDARY_DISABLED": "#B4CDD0",
                  "SECONDARY_PRESSED": "#08A2B5",
                  "TEXT_100_HIGH": "#A2BDDB",
                  "TEXT_200_MEDIUIM": "#51667C",
                  "TEXT_300_HIGH": "#FFFFFF",
                  "TEXT_300_LOW": "#445870",
                  "YELLOW_STATUS": "#F9DE7D",
                },
                "customizeDashboard": Object {
                  "customizeText": "#FFFFFF",
                },
                "dashboard": Object {
                  "tabIcon": Object {
                    "process": [Function],
                  },
                },
                "defaultColor": "#09BAD0",
                "displayOptionsTooltip": Object {
                  "divider": "#486485",
                  "tooltip": "#18416E",
                  "widgetHeaderIcon": " #2a69af",
                },
                "filterTransaction": Object {
                  "calendarInputBorder": "#02152B",
                  "divider": "#445870",
                  "numberOfFiltersCircle": "#163E69",
                  "placeholderText": "#445870",
                },
                "guidedTourTooltip": Object {
                  "background": "#18416E",
                },
                "layout": Object {
                  "backgroundColor": "#051931",
                  "src": Object {
                    "process": [Function],
                  },
                },
                "logoSrc": Object {
                  "process": [Function],
                },
                "mainTopMenuItems": Object {
                  "color": "#ffffff",
                },
                "modal": Object {
                  "backgroundColor": "#102C4B",
                },
                "passwordInput": Object {
                  "mode": "dark",
                  "src": Object {
                    "process": [Function],
                  },
                },
                "reminder": Object {
                  "yellow": Object {
                    "backgroundColor": "#F2EBC3",
                    "borderColor": "#BDA726",
                    "textColor": "#7E6F1B",
                  },
                },
                "sidebar": Object {
                  "headerBg": "#010E1D",
                },
                "skeletonPlaceholder": Object {
                  "backgroundColor": "#486788",
                  "highlightColor": "#f5f5f5",
                },
                "tab": Object {
                  "activeTintColor": "#09BAD0",
                  "backgroundColor": "#010E1D",
                  "boxShadow": "0px -2px 32px #04172D",
                },
                "tabNavigator": Object {
                  "borderBottomColor": "#445870",
                },
                "text": Object {
                  "textColor": "#ffffff",
                },
                "textInput": Object {
                  "backgroundColor": Object {
                    "active": "#02152B",
                    "correct": "#02152B",
                    "default": "#02152b",
                    "disabled": "#051931",
                    "error": "#02152B",
                    "filled": "#02152B",
                  },
                  "border": Object {
                    "active": "1px solid #09BAD0",
                    "correct": "1px solid #84D268",
                    "default": "transparent",
                    "disabled": "transparent",
                    "error": "1px solid #F65A4C",
                    "filled": "transparent",
                  },
                  "calendarActiveTint": "none",
                  "dividerColor": "#445870",
                  "helperTextColor": Object {
                    "active": "#A2BDDB",
                    "correct": "#A2BDDB",
                    "default": "#A2BDDB",
                    "disabled": "#A2BDDB",
                    "error": "#F65A4C",
                    "filled": "#A2BDDB",
                  },
                  "iconInputStatusImagesTint": "none",
                  "placeholderTextColor": "#486485",
                  "searchImageTint": "none",
                  "textColor": "#ffffff",
                },
                "topAppBar": Object {
                  "backgroundColor": "#02152b",
                  "barStyle": "light-content",
                  "iconColor": "#ffffff",
                  "loading": "#030e1d",
                  "textColor": "#ffffff",
                },
                "transaction": Object {
                  "background": "#051931",
                },
              }
            }
            titleThemeColor="SECONDARY_DEFAULT"
            type="secondary"
          >
            Okay
          </Text>
        </View>
      </View>
    </View>
  </View>
</Overlay>
`;
